dfreq810,dfreq1012,dfreq1214,dfreq1416,dfreq1618,dfreq1820,dfreq2022,dfreq2224,dfreq2426,dfreq2628,dfreq2830,freq810,freq1012,freq1214,freq1416,freq1618,freq1820,freq2022,freq2224,freq2426,freq2628,freq2830,allAccBX,allAccBY,allAccTX,allAccTY,pcd
0,0,0,0,0,0,0,0,0,0,0,0.000745884004380233,0.000391627997513484,0.00056243804139205,0.000694004566571608,0.00147241286358646,0.000664967064065001,0.00117406075835781,0.00106378136249689,0.00134532997748986,0.000714741361118907,0.00153233253175454,-0.919500401184381,0.0267740278675218,-0.144113950565563,-0.908494457975048,0
4.10350857325088e-05,2.2081426436769e-05,5.20161569521827e-05,7.19384587118905e-05,-0.00020649659158608,0.000102836978233175,1.63327693932791e-05,0.000215690557186619,-1.59558317339343e-05,-0.000103161312788827,-0.000210182766270127,0.000786919090112742,0.000413709423950253,0.000614454198344233,0.000765943025283499,0.00126591627200038,0.000767804042298176,0.00119039352775109,0.00127947191968351,0.00132937414575593,0.00061158004833008,0.00132214976548441,-0.918206578819211,0.0333764004135381,-0.13255507481585,-0.910696243306707,0
9.54495818228841e-05,0.000133262180635576,0.000177480278138748,0.000178283650629008,-0.000285700519896055,8.45027591208878e-05,-4.1327196985456e-05,8.61091448401598e-05,-3.0680563928304e-05,0.00018137377148113,-0.000364442022570697,0.000882368671935626,0.000546971604585829,0.000791934476482981,0.000944226675912506,0.000980215752104325,0.000852306801419064,0.00114906633076564,0.00136558106452367,0.00129869358182762,0.00079295381981121,0.000957707742913717,-0.921961746575463,0.0278609977715429,-0.126804974189089,-0.913160572146747,0
0.000112963262949621,0.000177616827164368,0.000222055501594248,0.00024996980522967,-0.000283801230906825,3.53840831941434e-05,-8.29486056917812e-05,-5.62927412864238e-05,-0.00013482674006089,0.000467193034286264,-0.000599728122382203,0.000995331934885247,0.000724588431750197,0.00101398997807723,0.00119419648114218,0.000696414521197499,0.000887690884613207,0.00106611772507386,0.00130928832323725,0.00116386684176673,0.00126014685409747,0.000357979620531514,-0.922196444560229,0.0216415011752504,-0.127861115120535,-0.915507551994404,0
0.000113289294379257,0.000183585538087889,0.000236079557025092,0.000259993980761979,-5.22200673716089e-05,-9.39532775929392e-06,-0.000103116378838993,-8.29237681361664e-05,-0.000151878294656915,0.000548336084233241,0.000177204063624674,0.0011086212292645,0.000908173969838086,0.00125006953510232,0.00145419046190415,0.000644194453825891,0.000878295556853914,0.000963001346234863,0.00122636455510108,0.00101198854710982,0.00180848293833072,0.000535183684156188,-0.924543424407886,0.0128403267465346,-0.131381584892021,-0.917619833857296,0
0.000105025614801746,0.000173238746933996,0.000227177317575702,0.000227700713502773,0.000297728390576766,5.07684024376366e-05,-0.000127598896240695,1.55112726545313e-05,0.000281774494235898,0.000571070062216706,0.000977144459516439,0.00121364684406625,0.00108141271677208,0.00147724685267802,0.00168189117540693,0.000941922844402657,0.00092906395929155,0.000835402449994168,0.00124187582775561,0.00129376304134572,0.00237955300054742,0.00151232814367263,-0.92348728347644,0.00638613216547641,-0.13666228954925,-0.91656369292585,0
9.07305935728547e-05,0.000153455322080061,0.00019796323833506,0.000167110843642211,0.000399709617069752,0.000304672678286206,-0.000160812255720417,9.05179514352199e-05,0.00049915024449578,0.000359647936419272,0.000817617568844494,0.00130437743763911,0.00123486803885214,0.00167521009101308,0.00184900201904914,0.00134163246147241,0.00123373663757776,0.000674590194273751,0.00133239377919083,0.0017929132858415,0.00273920093696669,0.00232994571251712,-0.923017887506908,0.00110542750824695,-0.14194299420648,-0.916446343933467,1
7.2033597595276e-05,0.000127068136087087,0.000151038751325192,8.81005073651788e-05,0.000339909376050266,0.000353385257803586,-7.31623975886951e-05,0.000138277405271589,0.000394093298856728,-5.02696342090676e-05,0.000405339300662981,0.00137641103523438,0.00136193617493923,0.00182624884233828,0.00193710252641432,0.00168154183752267,0.00158712189538134,0.000601427796685056,0.00147067118446242,0.00218700658469822,0.00268893130275763,0.0027352850131801,-0.921140303628783,0.0059167361959449,-0.148397188787538,-0.91163503524577,1
5.0215642057843e-05,9.59027382164209e-05,9.03175226872838e-05,2.86646474878787e-08,0.000203183756966077,0.000309314600108109,0.000310098860793644,0.000117125774092213,0.000176696344120019,-0.000491250633666884,-8.98503421939735e-05,0.00142662667729222,0.00145783891315565,0.00191656636502556,0.00193713119106181,0.00188472559448875,0.00189643649548945,0.0009115266574787,0.00158779695855463,0.00236370292881824,0.00219768066909074,0.00264543467098613,-0.905884934619009,0.071514822937973,-0.163769906789695,-0.898257250114122,1
2.63788645685616e-05,6.15181324660288e-05,2.10124541424348e-05,-8.76332208229011e-05,2.80692522692321e-05,0.000214392243609863,0.000357895368157986,-2.04125827615094e-05,-2.91906776970718e-05,-0.000755706514421064,-0.00041553323642464,0.00145300554186079,0.00151935704562168,0.00193757881916799,0.0018494979702389,0.00191279484675798,0.00211082873909932,0.00126942202563669,0.00156738437579312,0.00233451225112117,0.00144197415466968,0.00222990143456149,-0.879481411332861,0.220313345279461,-0.114718027973652,-0.848149230366633,0
1.53540058380201e-06,2.53916531717884e-05,-5.08203220605616e-05,-0.000165659379489103,-0.000152127087783978,8.55596121964045e-05,0.000268430469469192,-0.000202453890253019,-0.000116938420937306,-0.000278740845508713,-0.00035787004657913,0.00145454094244459,0.00154474869879347,0.00188675849710743,0.0016838385907498,0.00176066775897401,0.00219638835129572,0.00153785249510588,0.00136493048554011,0.00221757383018387,0.00116323330916097,0.00187203138798236,-0.88593560591392,0.198369083703863,-0.13584084660257,-0.849557418275227,0
-2.33417986229396e-05,-1.10643305964307e-05,-0.000118871457432461,-0.000225568503609862,-0.000303629285760147,-5.5349030928666e-05,0.000125791624293257,-0.000305529706733936,-9.02671618949009e-05,0.000445770397852358,-4.71186915798e-05,0.00143119914382165,0.00153368436819704,0.00176788703967497,0.00145827008713994,0.00145703847321386,0.00214103932036705,0.00166364411939913,0.00105940077880617,0.00212730666828897,0.00160900370701332,0.00182491269640256,-0.873144565744186,0.106250124683305,-0.182780443555721,-0.84556755253421,0
-4.72843063281912e-05,-4.65384637221534e-05,-0.000177167786164285,-0.000259590153562624,-0.000389209430889557,-0.000184542061555845,-3.92212210575851e-05,-0.00015214201536521,-5.97456222449417e-05,0.000267015325859563,3.76404651396065e-05,0.00138391483749346,0.00148714590447488,0.00159071925351069,0.00119867993357731,0.0010678290423243,0.00195649725881121,0.00162442289834155,0.00090725876344096,0.00206756104604402,0.00187601903287289,0.00186255316154216,-0.89696641119791,0.0295038836649032,-0.189586685113928,-0.869741444965083,0
-6.92888475953279e-05,-7.98586466178905e-05,-0.000220512758377152,-0.0002582607928197,-0.000344482159300652,-0.000278667282141314,-0.000189752310052637,0.000221870149004853,-9.42944675845982e-05,-0.000112131330748559,-0.000185368475321554,0.00131462598989813,0.00140728725785699,0.00137020649513353,0.000940419140757614,0.00072334688302365,0.00167782997666989,0.00143467058828891,0.00112912891244581,0.00197326657845943,0.00176388770212433,0.00167718468622061,-0.912339129200067,0.033493749405921,-0.149453329718984,-0.896262317243613,0
-8.8244719509528e-05,-0.000109998924641256,-0.00024445864220624,-0.00020069496167505,-4.29027442625241e-05,-0.000309098271191547,-0.000282684804504588,0.00034453052590533,-0.000186220995786339,-0.000430642519704586,-0.000449524506719507,0.0012263812703886,0.00129728833321574,0.0011257478529273,0.000739724179082564,0.000680444138761126,0.00136873170547835,0.00115198578378432,0.00147365943835114,0.00178704558267309,0.00133324518241974,0.0012276601795011,-0.919262719750656,0.0221108971447819,-0.147810443825624,-0.90553288764186,0
-0.000102775057088564,-0.000136023746912127,-0.00024369819482326,-8.15654539610349e-05,0.000261227456020073,-0.000242044099212649,-0.000245512048944147,0.000219508041499791,-0.000273231984135641,-0.000472712874186796,-0.000455135126248492,0.00112360621330004,0.00116126458630361,0.000882049658104035,0.000658158725121529,0.000941671594781199,0.0011266876062657,0.000906473734840176,0.00169316747985093,0.00151381359853745,0.000860532308232946,0.000772525053252611,-0.9210229546364,0.00767697108168806,-0.155086081353362,-0.910461545321941,0
-0.000110880519200449,-0.000156930780658642,-0.000205139795010655,4.9244116857969e-07,0.000296283306672384,-0.000172614394031083,-5.28483833145194e-05,1.79022188145288e-06,-0.000240033835968178,-0.000222971757771656,5.93100055389555e-05,0.00101272569409959,0.00100433380564497,0.000676909863093379,0.000658651166290109,0.00123795490145358,0.000954073212234615,0.000853625351525657,0.00169495770173239,0.00127377976256927,0.00063756055046129,0.000831835058791566,-0.921727048590697,0.00990660193696271,-0.144759370023669,-0.913747317108662,0
-0.000109164525531357,-0.000171322047914211,-0.00010288442896678,1.67782069954003e-05,0.000221193683475981,-0.000173674120898705,7.11048452302617e-05,-0.00021498636467949,-4.10830300135174e-05,9.37170202838166e-05,0.000409830450458568,0.000903561168568232,0.000833011757730756,0.000574025434126599,0.000675429373285509,0.00145914858492957,0.00078039909133591,0.000924730196755918,0.0014799713370529,0.00123269673255575,0.000731277570745106,0.00124166550925013,-0.928650639141286,0.015304655586575,-0.138187826450228,-0.920318860682102,0
-9.17050766473494e-05,-0.000176664126091614,-1.19714406827334e-05,8.42697698396299e-06,0.000113481389015839,-0.000148227144218466,9.52978725471262e-05,-0.000364174551250155,8.10056405557242e-05,0.000111544672101773,0.000297487331611529,0.000811856091920882,0.000656347631639143,0.000562053993443866,0.000683856350269472,0.0015726299739454,0.000632171947117444,0.00102002806930304,0.00111579678580274,0.00131370237311147,0.000842822242846879,0.00153915284086166,-0.927477149217458,0.0122535817846202,-0.137718430480696,-0.919262719750656,0
