dfreq810,dfreq1012,dfreq1214,dfreq1416,dfreq1618,dfreq1820,dfreq2022,dfreq2224,dfreq2426,dfreq2628,dfreq2830,freq810,freq1012,freq1214,freq1416,freq1618,freq1820,freq2022,freq2224,freq2426,freq2628,freq2830,allAccBX,allAccBY,allAccTX,allAccTY,pcd
0,0,0,0,0,0,0,0,0,0,0,0.00285478517025004,0.00410037086581711,0.0014419688746589,0.00145362272409264,0.0018848358956608,0.00139848397837861,0.00230467412895489,0.0018616522055993,0.000998219845387693,0.00254756954749754,0.0015444040431652,-0.915072382814318,-0.236628962435414,-0.0824372759856627,-0.908090117767537,0
1.5565179042702e-05,7.82508092958961e-05,4.5058556086418e-06,7.98696566060679e-06,-9.82658184862993e-06,-5.69797243640451e-05,-0.000190509740093098,-0.000182131641719848,9.02527114581579e-05,-0.000112140196854718,0.000159215421429456,0.00287035034929274,0.004178621675113,0.00144647473026754,0.00146160968975325,0.00187500931381217,0.00134150425401456,0.00211416438886179,0.00167952056387945,0.00108847255684585,0.00243542935064282,0.00170361946459466,-0.921379695573244,-0.183493925429409,-0.0633989666247728,-0.918028208350789,0
2.59023353141223e-05,8.28108003444582e-05,3.47444596100414e-05,1.40900224773208e-05,-2.13653895410749e-06,-4.28598312062372e-05,-0.000191941694609989,-0.000165054394248792,0.000163255508853311,-0.000124164050276191,0.000151829199425202,0.00289625268460686,0.00426143247545746,0.00148121918987758,0.00147569971223057,0.00187287277485806,0.00129864442280832,0.0019222226942518,0.00151446616963066,0.00125172806569916,0.00231126530036663,0.00185544866401986,-0.920262533165759,-0.190196899874319,-0.0790392403295626,-0.906856584275939,0
3.03622341949945e-05,8.48298786167911e-05,5.81197433739489e-05,2.09236225471522e-05,6.03255806611914e-06,-3.75184254821006e-05,-0.000187384849890423,-0.00013305747643369,0.000181836558833977,-0.00013421200674628,0.000138103479207415,0.00292661491880186,0.00434626235407425,0.00153933893325153,0.00149662333477772,0.00187890533292418,0.00126112599732622,0.00173483784436138,0.00138140869319697,0.00143356462453314,0.00217705329362035,0.00199355214322727,-0.898477866219801,-0.224828934506354,-0.10529255690546,-0.888423404552436,0
3.17444280616098e-05,8.62864595646586e-05,7.52983808671082e-05,2.81623035394271e-05,1.40802864490998e-05,-3.49099872187838e-05,-0.000180742477645045,-8.64273799212503e-05,0.000190435301572528,-0.000144421529958574,0.000122348279859383,0.00295835934686347,0.00443254881363891,0.00161463731411864,0.00152478563831715,0.00189298561937328,0.00122621601010744,0.00155409536671633,0.00129498131327572,0.00162399992610567,0.00203263176366178,0.00211590042308666,-0.920821114369502,-0.187962575059349,-0.088535120793185,-0.919703951962016,0
3.19561399111366e-05,8.72638125432174e-05,8.79435001927326e-05,3.52667335245882e-05,2.17413374641693e-05,-3.28628064199896e-05,-0.000171719050722416,-3.08596710409204e-05,0.000193380622694605,-0.00015459201967352,0.00010518296124326,0.0029903154867746,0.00451981262618213,0.00170258081431137,0.00156005237184174,0.00191472695683745,0.00119335320368745,0.00138237631599391,0.0012641216422348,0.00181738054880027,0.00187803974398826,0.00222108338432992,-0.917469627147046,-0.217008797653959,-0.0633989666247728,-0.907415165479681,0
3.16615054626371e-05,8.77879339932419e-05,9.71892517925576e-05,4.17222952153586e-05,2.87971984966743e-05,-3.06946443740738e-05,-0.000159812502549585,1.69672020039007e-05,0.000192219454835354,-0.000164404127834913,8.71076521988877e-05,0.00302197699223724,0.00460760056017537,0.00179977006610393,0.00160177466705709,0.00194352415533413,0.00116265855931338,0.00122256381344433,0.0012810888442387,0.00200960000363563,0.00171363561615335,0.0023081910365288,-0.904622259460969,-0.217567378857701,-0.0611646418098028,-0.900712191034771,0
3.10940571428744e-05,8.78744216921664e-05,0.000103923204583268,4.71647410195091e-05,3.5092610734063e-05,-2.81492430098612e-05,-0.00014423625088203,4.92691037274333e-05,0.000188118196115459,-0.000173361782548638,6.85413884721283e-05,0.00305307104938012,0.00469547498186754,0.00190369327068719,0.0016489394080766,0.00197861676606819,0.00113450931630351,0.0010783275625623,0.00133035794796613,0.00219771819975109,0.00154027383360471,0.00237673242500093,-0.919703951962016,-0.213098729227761,-0.0617232230135453,-0.913559558720849,0
3.03475152330711e-05,8.75398208933431e-05,0.000108813820984371,5.14234764485103e-05,4.05376166671954e-05,-2.51393921414747e-05,-0.000123986903107279,6.9846304817526e-05,0.000182023021263261,-0.000180676464473725,4.98448504235795e-05,0.00308341856461319,0.00478301480276088,0.00201250709167157,0.00170036288452511,0.00201915438273538,0.00110936992416204,0.000954340659455019,0.00140020425278366,0.00237974122101435,0.00135959736913098,0.00242657727542451,-0.923614020388214,-0.218125960061444,-0.046641530512498,-0.913559558720849,0
2.94647431715741e-05,8.68038281972346e-05,0.00011232355960534,5.44871849823892e-05,4.50987247543702e-05,-2.16585696458044e-05,-9.84488502143608e-05,8.3145623153573e-05,0.000174669016825916,-0.000185013673890983,3.133591437148e-05,0.00311288330778476,0.00486981863095812,0.00212483065127691,0.0017548500695075,0.00206425310748975,0.00108771135451624,0.000855891809240659,0.00148334987593723,0.00255441023784026,0.00117458369524,0.00245791318979599,-0.928082670018154,-0.203044267560396,-0.0527859237536654,-0.917469627147046,0
2.84679762626483e-05,8.56888658927442e-05,0.000114758494482264,5.64391610281755e-05,4.87848171776559e-05,-1.7580113456016e-05,-6.87746550219975e-05,9.14396993760985e-05,0.00016659619709839,-0.000183883881469753,1.33023127881905e-05,0.00314135128404741,0.00495550749685086,0.00223958914575917,0.00181128923053568,0.00211303792466741,0.00107013124106022,0.000787117154218661,0.00157478957531333,0.00272100643493865,0.000990699813770248,0.00247121550258418,-0.905739421868454,-0.211422985616534,-0.0600474794023178,-0.903505097053484,0
2.73704140235898e-05,8.42190235648532e-05,0.000116320209889378,5.74012086037329e-05,5.16326604274747e-05,-7.49594655047813e-06,-3.85493471524412e-05,9.58217296221358e-05,0.000158174013107506,-0.000172020177375663,-3.98641027927549e-06,0.003168721698071,0.00503972652041571,0.00235590935564855,0.00186869043913941,0.00216467058509488,0.00106263529450974,0.00074856780706622,0.00167061130493547,0.00287918044804616,0.000818679636394584,0.00246722909230491,-0.900153609831029,-0.227063259321324,-0.0795978215333051,-0.896802122608574,0
2.61811261510242e-05,8.24190357988685e-05,0.000117144342578849,5.74991343556851e-05,5.36948504236195e-05,4.59898072010707e-05,-1.15626907220144e-05,9.69765800235744e-05,0.000149627422745417,-0.000137106252888459,-2.0266664210576e-05,0.00319490282422202,0.00512214555621458,0.0024730536982274,0.0019261895734951,0.0022183654355185,0.00110862510171081,0.000737005116344205,0.00176758788495904,0.00302880787079158,0.000681573383506126,0.00244696242809433,-0.908532327887166,-0.233207652562491,-0.0963552576455799,-0.910208071498394,0
2.49072822746392e-05,8.03134990837529e-05,0.000117325671357019,5.68466845467729e-05,5.5031134657216e-05,7.64990794914397e-05,1.07935638263464e-05,9.54671703361641e-05,0.000141062091929031,-5.8245864458726e-05,-3.52680704131616e-05,0.00321981010649666,0.00520245905529833,0.00259037936958442,0.00198303625804187,0.00227339657017572,0.00118512418120225,0.000747798680170552,0.0018630550552952,0.00316986996272061,0.0006233275190474,0.00241169435768117,-0.902946515849741,-0.228180421728809,-0.0818321463482751,-0.902946515849742,0
2.35552105853926e-05,7.79263538672938e-05,0.000116933631582817,5.5540675007583e-05,5.57028840825384e-05,7.90709227441837e-05,2.89909807639361e-05,9.18028635243473e-05,0.00013248876379757,5.29504294913951e-05,-4.87005646876157e-05,0.00324336531708205,0.00528038540916563,0.00270731300116723,0.00203857693304945,0.00232909945425826,0.00126419510394644,0.000776789660934488,0.00195485791881955,0.00330235872651818,0.000676277948538795,0.00236299379299355,-0.902387934645999,-0.228739002932551,-0.081832146348275,-0.902387934645999,0
2.21309075639615e-05,7.52805933273209e-05,0.000116021764679052,5.36615294656714e-05,5.57700024262013e-05,7.93414061453358e-05,4.36722912756765e-05,8.64414612177589e-05,0.000123847193538502,0.000140250663076947,-6.02422917535461e-05,0.00326549622464602,0.00535566600249295,0.00282333476584629,0.00209223846251512,0.00238486945668446,0.00134353651009177,0.000820461952210164,0.00204129938003731,0.00342620592005668,0.000816528611615742,0.00230275150124001,-0.909090909090909,-0.241027789414886,-0.0974724200530649,-0.908532327887166,0
2.0640277895472e-05,7.23981435404222e-05,0.000114633488740274,5.12758369511268e-05,5.52895030011308e-05,7.8422625256816e-05,5.5151072136359e-05,7.97814647389697e-05,0.000115029531774243,0.000191678118075924,-6.95300798940575e-05,0.00328613650254149,0.00542806414603337,0.00293796825458656,0.00214351429946625,0.00244015895968559,0.00142195913534859,0.000875613024346523,0.00212108084477628,0.00354123545183092,0.00100820672969167,0.00223322142134595,-0.904622259460969,-0.258902387934646,-0.104175394497975,-0.908532327887166,0
1.9089238401996e-05,6.92998624819028e-05,0.000112805665163096,4.84392822961027e-05,5.43151157118022e-05,7.64619911370647e-05,6.37228366530738e-05,7.21591550605616e-05,0.000105902446383299,0.000221009383990511,-7.61556398082073e-05,0.00330522574094348,0.00549736400851527,0.00305077391974966,0.00219195358176235,0.00249447407539739,0.00149842112648565,0.000939335860999597,0.00219323999983684,0.00364713789821422,0.00122921611368218,0.00215706578153774,-0.900712191034771,-0.244379276637341,-0.108644044127915,-0.900712191034771,1
1.74837535761368e-05,6.60056149492582e-05,0.000110570841910248,4.51992832715877e-05,5.28974645776902e-05,7.35624206825449e-05,6.98880663093762e-05,6.38509328796865e-05,9.63269648124637e-05,0.000237197143016389,-7.96727852549529e-05,0.00332270949451962,0.00556336962346453,0.0031613447616599,0.00223715286503394,0.00254737153997508,0.0015719835471682,0.00100922392730897,0.00225709093271653,0.00374346486302669,0.00146641325669857,0.00207739299628279,-0.902387934645999,-0.247730763859796,-0.0952380952380949,-0.902387934645999,1
1.58298380736415e-05,6.25343913075562e-05,0.00010795869403546,4.1597140225628e-05,5.10845129410931e-05,6.98306389297848e-05,7.42859733434361e-05,5.50784841473846e-05,8.61750742140698e-05,0.000245014541199065,-7.96239418335205e-05,0.00333853933259326,0.00562590401477209,0.00326930345569536,0.00227875000525957,0.00259845605291618,0.00164181418609798,0.00108350990065241,0.00231216941686391,0.00382963993724076,0.00171142779789763,0.00199776905444927,-0.913559558720849,-0.219801703672671,-0.0857422147744725,-0.904063678257226,1
1.41335449847964e-05,5.89044475435745e-05,0.000104996969721602,3.76697026926516e-05,4.892209047884e-05,6.53744938596257e-05,7.75356357549293e-05,4.6014852824908e-05,7.5342445511762e-05,0.000247072185484773,-7.55970317511761e-05,0.00335267287757806,0.00568480846231566,0.00337430042541697,0.00231641970795222,0.00264737814339502,0.00170718867995761,0.00116104553640734,0.00235818426968882,0.00390498238275252,0.0019584999833824,0.00192217202269809,-0.901270772238514,-0.223153190895126,-0.0918866080156399,-0.905180840664711,1
1.2400949860796e-05,5.51334517603017e-05,0.000101712125613224,3.34506254565472e-05,4.64543952808094e-05,6.02974876071716e-05,8.01323324796813e-05,3.67905044330475e-05,6.37570922630243e-05,0.000244824291443093,-6.73232846289602e-05,0.00336507382743885,0.00573994191407596,0.00347601255103019,0.00234987033340877,0.00269383253867583,0.00176748616756478,0.00124117786888702,0.00239497477412187,0.00396873947501554,0.0022033242748255,0.00185484873806913,-0.914118139924591,-0.209188660801564,-0.0823907275520175,-0.954894567797794,1
1.06381356138885e-05,5.12386279603438e-05,9.81297621123478e-05,2.89712985382996e-05,4.37244143773525e-05,5.46960407838447e-05,8.24155869137819e-05,2.74991632665971e-05,5.13841895151933e-05,0.00023912172188362,-5.48162664332716e-05,0.00337571196305274,0.00579118054203631,0.00357414231314254,0.00237884163194707,0.00273755695305318,0.00182218220834862,0.0013235934558008,0.00242247393738847,0.00402012366453073,0.00244244599670912,0.00180003247163586,-0.901829353442256,-0.285714285714286,-0.0723362658846527,-0.916911045943304,1
8.85118071504475e-06,4.72368920557921e-05,9.42749261012349e-05,2.4261526748177e-05,4.07742362417041e-05,4.86591987169673e-05,8.45773977379439e-05,1.82035331798072e-05,3.82275715945877e-05,0.000230506491163385,-3.85258180476693e-05,0.00338456314376779,0.0058384174340921,0.00366841723924377,0.00240310315869524,0.00277833118929488,0.00187084140706559,0.00140817085353875,0.00244067747056827,0.00405835123612532,0.0026729524878725,0.00176150665358819,-0.924731182795699,-0.308616115067728,-0.0678676162547127,-0.952101661779081,1
7.04615163359904e-06,4.31449778705763e-05,9.01723228259261e-05,1.93500200810471e-05,3.76452461387567e-05,4.22697692552781e-05,8.66848713687598e-05,8.94107023514685e-06,2.43285753536845e-05,0.000219364284088648,-1.94420103743328e-05,0.00339160929540139,0.00588156241196268,0.0037585895620697,0.00242245317877629,0.00281597643543364,0.00191311117632087,0.00149485572490751,0.00244961854080342,0.00408267981147901,0.00289231677196115,0.00174206464321386,-0.954335986594051,-0.233207652562491,-0.0349113252339056,-0.969976260298841,1
5.22909968362576e-06,3.89795528079459e-05,8.58464632201399e-05,1.42647423107892e-05,3.43782048054042e-05,3.56061103880118e-05,8.87057234586492e-05,-2.70120615865951e-07,9.76291859520594e-06,0.000206003175322709,9.36859998711126e-07,0.00339683839508501,0.00592054196477062,0.00384443602528984,0.00243671792108708,0.00285035464023904,0.00194871728670888,0.00158356144836615,0.00244934842018755,0.00409244273007421,0.00309831994728386,0.00174300150321257,-0.949308755760369,-0.153330540427314,-0.00418935902806845,-0.960480379835219,1
3.40606207094958e-06,3.47573241190821e-05,8.13217635799242e-05,9.03315354690163e-06,3.10132161866067e-05,2.87441123687537e-05,9.05334318593853e-05,-9.42534986705544e-06,-5.36375437164543e-06,0.000190694348526482,2.08183271819735e-05,0.00340024445715596,0.0059552992888897,0.00392575778886976,0.00244575107463398,0.00288136785642565,0.00197746139907763,0.00167409488022554,0.0024399230703205,0.00408707897570257,0.00328901429581034,0.00176381983039454,-0.931992738444351,-0.152771959223572,-0.0159195643066608,-0.934227063259321,0
1.58306680244583e-06,3.04951375447076e-05,7.66226087610348e-05,3.68237349919519e-06,2.75895929605407e-05,2.17591642875559e-05,9.20115809966023e-05,-1.85276002859971e-05,-2.09211228435254e-05,0.000173692897634941,3.84555012934577e-05,0.00340182752395841,0.00598579442643441,0.0040023803976308,0.00244943344813318,0.00290895744938619,0.00199922056336519,0.00176610646122214,0.0024213954700345,0.00406615785285904,0.00346270719344528,0.001802275331688,-0.910208071498394,-0.143834659963692,-0.0511101801424379,-0.917469627147046,0
-2.33858873238246e-07,2.62100706704396e-05,7.17733865138546e-05,-1.76071457361161e-06,2.41456307075415e-05,1.47280497776103e-05,9.29569856068771e-05,-2.75822939858933e-05,-3.67597970878791e-05,0.000155247885008194,5.24693056811543e-05,0.00340159366508517,0.00601200449710485,0.00407415378414465,0.00244767273355957,0.00293310308009373,0.0020139486131428,0.00185906344682902,0.00239381317604861,0.00402939805577116,0.00361795507845348,0.00185474463736915,-0.890099148163664,-0.0784806591258201,-0.0628403854210303,-0.890657729367406,0
-2.0386767358915e-06,2.1919523754574e-05,6.67984983340883e-05,-7.26940423761936e-06,2.07183036310854e-05,7.73080804749833e-06,9.31805606030989e-05,-3.65928903785328e-05,-5.2716928351554e-05,0.000135606435828097,6.20247687256445e-05,0.00339955498834928,0.00603392402085943,0.00414095228247874,0.00244040332932195,0.00295382138372482,0.0020216794211903,0.00195224400743212,0.00235722028567007,0.00397668112741961,0.00375356151428157,0.0019167694060948,-0.869990224828934,-0.0276497695852532,-0.0807149839407901,-0.877251780477587,0
-3.82532268091958e-06,1.76413111357956e-05,6.17223507746439e-05,-1.28171392062408e-05,1.73428971920351e-05,8.52651578762704e-07,9.25046361462084e-05,-4.55575589685909e-05,-6.86215285561689e-05,0.000115014455462288,6.68331489542034e-05,0.00339572966566836,0.00605156533199522,0.00420267463325338,0.00242758619011571,0.00297116428091685,0.00202253207276906,0.00204474864357833,0.00231166272670148,0.00390805959886344,0.00386857596974386,0.001983602555049,-0.881161848903784,0.0494344365312109,-0.0460829493087555,-0.861052925569054,0
-5.58768856289511e-06,1.33937566609644e-05,5.65693302233064e-05,-1.83775108406853e-05,1.40525960681428e-05,-5.81393063762894e-06,9.07757571118988e-05,-5.44670395971267e-05,-8.42992468541473e-05,9.37154357580493e-05,6.70412357344366e-05,0.00339014197710546,0.00606495908865619,0.00425924396347669,0.00240920867927502,0.002985216876985,0.00201671814213143,0.00213552440069023,0.00225719568710436,0.00382376035200929,0.00396229140550191,0.00205064379078344,-0.903505097053484,0.0946795140343529,-0.0449657869012705,-0.908532327887166,0
-7.31960054640513e-06,9.19579691357249e-06,5.13637635089362e-05,-2.39242729034267e-05,1.08780494574813e-05,-1.21667247609996e-05,8.7872732933275e-05,-6.33036506333135e-05,-9.95763732724668e-05,7.19482252245426e-05,6.30897592937803e-05,0.00338282237655906,0.00607415488556976,0.00431060772698563,0.00238528440637159,0.00299609492644248,0.00200455141737043,0.0022233971336235,0.00219389203647104,0.00372418397873683,0.00403423963072645,0.00211373355007722,-0.967741935483871,0.184611087836894,-0.0181538891216308,-0.914676721128334,0
-9.0147935075521e-06,5.06709636368188e-06,4.61298662352847e-05,-2.9431367915932e-05,7.84693961862308e-06,-1.80908116758096e-05,8.37104421956602e-05,-7.20412621134604e-05,-0.000114282850558991,4.99443148153462e-05,5.55935941193618e-05,0.00337380758305151,0.00607922198193344,0.00435673759322091,0.00235585303845566,0.0030039418660611,0.00198646060569462,0.00230710757581916,0.00212185077435758,0.00360990112817783,0.0040841839455418,0.00216932714419658,-1.00349113252339,0.247172182656054,0.0209467951403438,-0.984499371596146,0
-1.06668808026044e-05,1.02817884085893e-06,4.08916803741827e-05,-3.48729603073493e-05,4.98358314087073e-06,-2.34548486816892e-05,7.82403723721724e-05,-8.06459303593341e-05,-0.000128254076695612,2.79250063302408e-05,4.52603344612322e-05,0.0033631407022489,0.0060802501607743,0.00439762927359509,0.00232098007814831,0.00300892544920197,0.00196300575701293,0.00238534794819133,0.00204120484399825,0.00348164705148222,0.00411210895187204,0.00221458747865781,-0.921379695573244,0.195782711911744,-0.0293255131964807,-0.897360703812316,0
-1.22693184746543e-05,-2.89942018452324e-06,3.5673002320635e-05,-4.02234720156109e-05,2.30859698253797e-06,-2.81064183747116e-05,7.14490133124144e-05,-8.90767871535047e-05,-0.000141331270249447,6.09871902762255e-06,3.28425814177741e-05,0.00335087138377425,0.00607735074058978,0.00443330227591573,0.0022807566061327,0.00301123404618451,0.00193489933863822,0.00245679696150375,0.00195212805684474,0.00334031578123278,0.00411820767089966,0.00224743006007559,-0.943722943722944,0.155564865242285,-0.041055718475073,-0.914118139924591,0
-1.38153627071745e-05,-6.69297640866831e-06,3.04973022729801e-05,-4.54576163547147e-05,-1.61338153155475e-07,-3.18663441394149e-05,6.33551018339243e-05,-9.72866603462829e-05,-0.00015336013977359,-1.53413819053887e-05,1.91126887931271e-05,0.00333705602106707,0.00607065776418111,0.00446379957818871,0.00223529898977799,0.00301107270803135,0.00190303299449881,0.00252015206333767,0.00185484139649846,0.00318695564145919,0.00410286628899427,0.00226654274886871,-0.935344225666806,0.0991481636642929,-0.0734534282921376,-0.909649490294651,0
-1.52980190652064e-05,-1.03283718198288e-05,2.53876354078166e-05,-5.05504257887943e-05,-2.41358701474599e-06,-3.45221713822673e-05,5.40064675085272e-05,-0.000105221712009658,-0.000164187529555881,-3.62193016219849e-05,4.84958393706658e-06,0.00332175800200187,0.00606032939236128,0.00448918721359653,0.00218474856398919,0.00300865912101661,0.00186851082311654,0.0025741585308462,0.0017496196844888,0.0030227681119033,0.00406664698737229,0.00227139233280578,-0.888423404552437,0.0153609831029188,-0.0611646418098028,-0.886189079737467,0
-1.67099818127784e-05,-1.3779862479817e-05,2.03665448281522e-05,-5.54772687035034e-05,-4.43951780491718e-06,-3.58217731344947e-05,4.34769695445546e-05,-0.000112818993714701,-0.000173655583275436,-5.637758113062e-05,-9.16990309978273e-06,0.00330504802018909,0.00604654952988146,0.00450955375842468,0.00212927129528569,0.00300421960321169,0.00183268904998205,0.00261763550039075,0.0016368006907741,0.00284911252862787,0.00401026940624167,0.002262222429706,-0.963273285853931,-0.0717776846809102,-0.0472001117162405,-0.921379695573244,0
-1.80435614035627e-05,-1.70198255355167e-05,1.54559556293258e-05,-6.0213849221395e-05,-6.23429579555204e-06,-3.54697304038101e-05,3.18638058070071e-05,-0.000119999977195205,-0.000181592755259758,-7.56780468474227e-05,-2.21805038815282e-05,0.00328700445878553,0.00602952970434594,0.004525009714054,0.00206905744606429,0.00299798530741614,0.00179721931957824,0.00264949930619776,0.0015168007135789,0.00266751977336811,0.00393459135939425,0.00224004192582447,-0.933109900851836,-0.104733975701717,-0.0527859237536654,-0.928641251221896,0
-1.9290598191344e-05,-2.00185035046383e-05,1.06770586070799e-05,-6.47361823513095e-05,-7.79651392417277e-06,-3.31324486432443e-05,1.92853386327039e-05,-0.000126656209900291,-0.000187800730607272,-9.40019035485869e-05,-3.34430059873024e-05,0.00326771386059418,0.00600951120084131,0.00453568677266108,0.00200432126371298,0.00299018879349196,0.00176408687093499,0.00266878464483046,0.00139014450367861,0.00247971904276084,0.00384058945584566,0.00220659891983717,-0.903505097053484,-0.0974724200530649,-0.0242982823627982,-0.949867336964111,0
-2.04423606364238e-05,-2.27437836758616e-05,6.05018108943388e-06,-6.90205339039262e-05,-9.12767919724949e-06,-2.84632662924187e-05,5.87951420133589e-06,-0.000132618690439108,-0.000192036178508017,-0.000111249148907646,-4.22679759727019e-05,0.00324727149995776,0.00598676741716545,0.00454173695375052,0.00193530072980906,0.00298106111429472,0.00173562360464257,0.0026746641590318,0.0012575258132395,0.00228768286425282,0.00372934030693801,0.00216433094386447,-0.966066191872644,-0.121491411813992,0.0622818042172883,-0.967741935483871,0
-2.14894270225267e-05,-2.51610827215086e-05,1.59464109124579e-06,-7.30433099592354e-05,-1.02315921692293e-05,-2.11640038656059e-05,-8.19705994101628e-06,-0.000137591003546979,-0.000193986943678995,-0.000127337299131738,-4.80532766306534e-05,0.00322578207293523,0.00596160633444394,0.00454333159484176,0.00186225741984982,0.00297082952212549,0.00171445960077697,0.00266646709909078,0.00111993480969252,0.00209369592057383,0.00360200300780628,0.00211627766723381,-0.974444909928781,-0.162267839687194,0.0678676162547132,-0.966624773076386,0
-2.24215513128655e-05,-2.72334560062672e-05,-2.67142051140618e-06,-7.67808730032099e-05,-1.11136736998061e-05,-1.10956018626307e-05,-2.27692823405205e-05,-0.000140995168919328,-0.000193245799105615,-0.000142199415337938,-5.03395355959967e-05,0.00320336052162237,0.00593437287843767,0.00454066017433036,0.00178547654684661,0.00295971584842568,0.00170336399891434,0.00264369781675026,0.000978939640773191,0.00190045012146821,0.00345980359246834,0.00206593813163782,-0.969976260298841,-0.1097612065354,0.128752967462645,-0.992878089652284,0
-2.32275168261594e-05,-2.892212086126e-05,-6.73123672191838e-06,-8.02092488970969e-05,-1.17803059549557e-05,1.57884425563797e-06,-3.76428013162508e-05,-0.000141594589238997,-0.000189296231764291,-0.000155781402707506,-4.88845861614405e-05,0.00318013300479621,0.00590545075757641,0.00453392893760844,0.00170526729794952,0.00294793554247072,0.00170494284316997,0.00260605501543401,0.000837345051534194,0.00171115388970392,0.00330402218976083,0.00201705354547638,-0.950984499371596,-0.149420472001117,0.1097612065354,-0.975562072336266,0
-2.38949867349676e-05,-3.01876704241451e-05,-1.05696485794135e-05,-8.3303666331121e-05,-1.22382608975522e-05,1.62930527279755e-05,-5.26020505605823e-05,-0.000136578695884048,-0.000181552937868501,-0.000168038507950121,-4.37497163225534e-05,0.00315623801806124,0.00587526308715226,0.00452335928902903,0.0016219636316184,0.00293569728157317,0.00172123589589795,0.00255345296487343,0.000700766355650146,0.00152960095183542,0.00313598368181071,0.00197330382915382,-0.927524088814411,-0.166736489317134,0.0969138388493229,-0.966624773076386,0
-2.44103691309067e-05,-3.09923412735247e-05,-1.41733863770347e-05,-8.60378300353468e-05,-1.24942878020613e-05,3.21246229452083e-05,-6.74066183826531e-05,-0.000120064959343333,-0.000169547931625126,-0.000178930845709442,-3.53767042311334e-05,0.00313182764893033,0.00584427074587874,0.00450918590265199,0.00153592580158305,0.00292320299377111,0.00175336051884316,0.00248604634649078,0.000580701396306813,0.00136005302021029,0.00295705283610127,0.00193792712492269,-0.945398687334171,-0.149420472001117,0.0779220779220781,-0.982265046781176,0
-2.47587280170717e-05,-3.13037362085636e-05,-1.75314077527312e-05,-8.83827540637541e-05,-1.2554921166712e-05,4.80168941685011e-05,-8.17852310589797e-05,-8.53969901989104e-05,-0.000153368230201087,-0.00018841760603083,-2.4620050749286e-05,0.00310706892091326,0.00581296700967018,0.00449165449489926,0.00144754304751929,0.0029106480726044,0.00180137741301166,0.0024042611154318,0.000495304406107903,0.00120668479000921,0.00276863523007044,0.0019133070741734,-0.928641251221896,-0.209747242005306,0.0343527440301636,-0.971652003910069,0
-2.49237915985385e-05,-3.11003022745579e-05,-2.06353008419405e-05,-9.0304837123831e-05,-1.24265523520346e-05,6.30517723869504e-05,-9.54262328536981e-05,-3.63394719229572e-05,-0.000134246023680441,-0.000196449266762248,-1.26962143071397e-05,0.00308214512931472,0.00578186670739562,0.00447101919405732,0.00135723821039546,0.00289822152025236,0.00186442918539861,0.0023088348825781,0.000458964934184945,0.00107243876632876,0.00257218596330819,0.00190061085986626,-0.933668482055579,-0.180701019410697,0.0527859237536659,-0.967741935483871,0
-2.4888136543097e-05,-3.0378495793704e-05,-2.34797562456857e-05,-9.17625729224957e-05,-1.2115783673646e-05,7.66101194306648e-05,-0.000107962828380923,2.04939682695079e-05,-0.000114659579812687,-0.000202956527794922,-1.03430313542954e-06,0.00305725699277163,0.00575148821160191,0.00444753943781163,0.00126547563747297,0.00288610573657872,0.00194103930482927,0.00220087205419718,0.000479458902454453,0.000957779186516077,0.00236922943551327,0.00189957655673083,-0.936461388074291,-0.195782711911744,0.0544616673648934,-0.969976260298841,0
-2.46336601970841e-05,-2.91608281280352e-05,-2.60631031826879e-05,-9.27006857592003e-05,-1.16300542651101e-05,8.83750710400863e-05,-0.000118950376481537,8.46780614820997e-05,-9.69890212928206e-05,-0.000207833537761449,8.94255926679592e-06,0.00303262333257454,0.00572232738347388,0.00442147633462895,0.00117277495171377,0.00287447568231361,0.00202941437586936,0.00208192167771564,0.000564136963936553,0.000860790165223256,0.00216139589775182,0.00190851911599763,-0.935344225666806,-0.202485686356654,0.0265326071777687,-0.970534841502584,0
-2.41424857562586e-05,-2.75029479711161e-05,-2.8387891907196e-05,-9.30391715874147e-05,-1.09784947353729e-05,9.82482364284441e-05,-0.000127831435507376,0.000139498319959456,-7.86619442106571e-05,-0.000210910754387796,1.60370785987891e-05,0.00300848084681828,0.00569482443550276,0.00439308844272175,0.00107973578012635,0.00286349718757824,0.0021276626122978,0.00195409024220826,0.000703635283896009,0.000782128221012599,0.00195048514336402,0.00192455619459642,-0.931434157240609,-0.205278592375366,0.0298840944002237,-0.964949029465159,0
-2.33984625671218e-05,-2.54970009155265e-05,-3.04614860182585e-05,-9.26517695605787e-05,-1.01729346344594e-05,0.000106257695686662,-0.000133881582196584,0.000173419924154196,-1.66145172152619e-05,-0.000211908301770387,1.94292780929912e-05,0.00298508238425116,0.00566932743458724,0.00436262695670349,0.000987084010565774,0.00285332425294378,0.00223392030798447,0.00182020866001168,0.000877055208050206,0.000765513703797337,0.00173857684159364,0.00194398547268941,-0.930875576036866,-0.189638318670576,0.0388213936601036,-0.961038961038961,0
-2.23893961902558e-05,-2.32684897314653e-05,-3.22966057853093e-05,-9.13215870965742e-05,-9.22895573114875e-06,0.000112492121232384,-0.000136124457917928,0.000192883806658713,0.00011764817149615,-0.000210351429414877,1.8727738752291e-05,0.00296269298806091,0.00564605894485577,0.00433033035091818,0.0008957624234692,0.00284409529721263,0.00234641242921685,0.00168408420209375,0.00106993901470892,0.000883161875293487,0.00152822541217876,0.0019627132114417,-0.929758413629381,-0.199692780337941,0.0343527440301636,-0.962156123446446,0
-2.11100291615538e-05,-2.09654116192261e-05,-3.39117403271643e-05,-8.86465507062739e-05,-8.16685884308908e-06,0.000117062351405176,-0.000133197827304521,0.000205091340724648,0.000168143790934619,-0.000205410261100092,1.39350573844345e-05,0.00294158295889935,0.00562509353323654,0.00429641861059102,0.000807115872762926,0.00283592843836954,0.00246347478062203,0.00155088637478923,0.00127503035543357,0.00105130566622811,0.00132281515107867,0.00197664826882614,-0.923614020388214,-0.198017036726714,0.0377042312526186,-0.959363217427734,0
-1.95655544353388e-05,-1.87413414389067e-05,-3.53313282120309e-05,-8.38425997412749e-05,-7.01239745417703e-06,0.000120081693498437,-0.000123153104701679,0.000213508671466609,0.000178141213521169,-0.000195586716816025,5.36699587829793e-06,0.00292201740446401,0.00560635219179764,0.00426108728237899,0.000723273273021651,0.00282891604091536,0.00258355647412046,0.00142773327008755,0.00148853902690018,0.00122944687974927,0.00112722843426264,0.00198201526470443,-0.933668482055579,-0.196341293115486,0.0315598380114511,-0.966624773076386,1
-1.77750808775523e-05,-1.67368872267841e-05,-3.65856006744629e-05,-7.54236693256842e-05,-5.79713346409274e-06,0.000121657083173158,-0.000103248246746176,0.00021958179823238,0.000182326224594564,-0.000178110131553958,-6.43679629828368e-06,0.00290424232358646,0.00558961530457085,0.00422450168170452,0.000647849603695967,0.00282311890745127,0.00270521355729362,0.00132448502334138,0.00170812082513256,0.00141177310434384,0.000949118302708684,0.00197557846840615,-0.925289763999441,-0.205278592375366,0.0298840944002237,-0.964949029465159,1
-1.57740818859564e-05,-1.50647486954108e-05,-3.77099972608038e-05,-6.12726574305704e-05,-4.55829443874204e-06,0.000121886095459595,-7.0226523991441e-05,0.000223905705765778,0.000185020047000862,-0.000147970534071944,-2.07875620700545e-05,0.0028884682417005,0.00557455055587544,0.00418679168444372,0.000586576946265397,0.00281856061301253,0.00282709965275322,0.00125425849934993,0.00193202653089833,0.0015967931513447,0.00080114776863674,0.00195479090633609,-0.932551319648094,-0.204161429967881,0.0270911883815112,-0.967741935483871,1
-1.36146670979575e-05,-1.38018811296084e-05,-3.8744105337123e-05,-4.11011872515062e-05,-3.33806009947257e-06,0.000120856945920457,-2.25978768090161e-05,0.000226712192832088,0.000187436864529692,-9.79237478511858e-05,-3.68993372096671e-05,0.00287485357460255,0.00556074867474583,0.0041480475791066,0.00054547575901389,0.00281522255291305,0.00294795659867367,0.00123166062254092,0.00215873872373042,0.00178423001587439,0.000703224020785554,0.00191789156912643,-0.930875576036866,-0.204161429967881,0.0270911883815112,-0.960480379835219,1
-1.13627937997716e-05,-1.29892189604224e-05,-3.9730140703919e-05,-2.00463417418006e-05,-2.18227556013622e-06,0.000118649884864235,3.46888594198412e-05,0.000228070926896638,0.000190112858451991,-2.59920970488976e-05,-5.39178794163064e-05,0.00286349078080277,0.00554775945578541,0.00410831743840268,0.00052542941727209,0.00281304027735292,0.00306660648353791,0.00126634948196076,0.00238680965062706,0.00197434287432638,0.000677231923736657,0.00186397368971012,-0.926965507610669,-0.201368523949169,0.0276497695852537,-0.962156123446446,1
-9.09238368969681e-06,-1.26369186030017e-05,-4.07110655854543e-05,-3.97313500388686e-06,-1.13867024010336e-06,0.0001153391009888,9.02034722510623e-05,0.000227978799365849,0.00019324400570194,5.04142910268545e-05,-7.09289082310746e-05,0.00285439839711308,0.00553512253718241,0.00406760637281722,0.000521456282268203,0.00281190160711281,0.00318194558452671,0.00135655295421182,0.00261478844999291,0.00216758688002832,0.000727646214763511,0.00179304478147905,-0.914118139924591,-0.166736489317134,0.0432900432900435,-0.982823627984919,1
-6.87745674636661e-06,-1.27321722380056e-05,-4.1728513617157e-05,7.31371070970517e-06,-2.54738819433029e-07,0.000110994659947731,0.000134913757218915,0.00022640327274373,0.000196766858075959,0.000107831746673396,-8.69467308367267e-05,0.00284752094036671,0.0055223903649444,0.00402587785920007,0.000528769992977908,0.00281164686829338,0.00329294024447444,0.00149146671143074,0.00284119172273664,0.00236435373810428,0.000835477961436907,0.00170609805064232,-0.959921798631476,-0.212540148024019,0.113671274961598,-0.997346739282224,1
-4.78423459683618e-06,-1.32471160712829e-05,-4.28207379521341e-05,1.91375769335286e-05,4.24503644658701e-07,0.000105684241306974,0.000167136877509974,0.000223305099076293,0.00020040220832141,0.000141906961420207,-0.000100881706120978,0.00284273670576988,0.00550914324887312,0.00398305712124793,0.000547907569911437,0.00281207137193804,0.00339862448578141,0.00165860358894071,0.00306449682181293,0.00256475594642569,0.000977384922857114,0.00160521634452134,-0.977237815947493,-0.233766233766234,0.12763580505516,-0.992319508448541,1
-2.86517917502021e-06,-1.41454051452985e-05,-4.40208029082022e-05,3.86555645987011e-05,8.58660368503218e-07,9.94745743304742e-05,0.000189041683232465,0.000218650921959716,0.000203708170991787,0.000159644533352466,-0.000111483241827744,0.00283987152659485,0.00549499784372782,0.00393903631833973,0.000586563134510138,0.00281293003230654,0.00349809906011189,0.00184764527217318,0.00328314774377265,0.00276846411741748,0.00113702945620958,0.0014937331026936,-0.961597542242704,-0.147186147186147,0.131545873481357,-0.972210585113811,1
-1.15610989472785e-06,-1.53869834173658e-05,-4.53551989533069e-05,5.66414874651332e-05,1.01377436625451e-06,9.24325488645093e-05,0.000203126664452127,0.000212420470053932,0.000206149188041719,0.000167494510124072,-0.000117259271055959,0.00283871541670013,0.00547961086031046,0.00389368111938642,0.000643204621975271,0.0028139438066728,0.0035905316089764,0.0020507719366253,0.00349556821382658,0.0029746133054592,0.00130452396633365,0.00137647383163764,-0.970534841502583,-0.10529255690546,0.147186147186147,-0.947074430945399,1
3.23604000789044e-07,-1.69311707011134e-05,-4.68429867163762e-05,6.34848414509494e-05,8.63678592017032e-07,8.46260166547197e-05,0.000211248884117903,0.000204610622977749,0.000207170880954289,0.0001693755465457,-0.000116398160835801,0.00283903902070092,0.00546267968960934,0.00384683813267005,0.000706689463426221,0.00281480748526481,0.00367515762563112,0.00226202082074321,0.00370017883680433,0.00318178418641349,0.00147389951287935,0.00126007567080184,-0.905180840664711,-0.160592096075967,0.000279290601871501,-0.909090909090909,0
1.56864265886663e-06,-1.87384370993636e-05,-4.84954890171614e-05,6.50695461784409e-05,3.90797837979562e-07,7.61243160366429e-05,0.000214678550830679,0.000195237541405194,0.000206265786776621,0.000167508745821197,-0.000106799245270226,0.00284060766335978,0.00544394125250998,0.00379834264365289,0.000771759009604661,0.00281519828310279,0.00375128194166776,0.00247669937157388,0.00389541637820952,0.00338804997319011,0.00164140825870055,0.00115327642553161,-0.904063678257226,-0.128752967462645,-0.10305823209049,-0.929758413629381,0
2.58428614126381e-06,-2.07712672785276e-05,-5.03164726455311e-05,6.47941252944004e-05,-4.13594827419848e-07,6.6998558617332e-05,0.000214291530246134,0.000184337528866305,0.000203019095560401,0.000163173493364591,-8.64911278848327e-05,0.00284319194950105,0.00542316998523145,0.00374802617100735,0.000836553134899062,0.00281478468827537,0.00381828050028509,0.00269099090182002,0.00407975390707583,0.00359106906875051,0.00180458175206514,0.00106678529764678,-0.907973746683424,-0.0220639575478282,-0.0751291719033651,-0.904622259460969,0
3.38289465280596e-06,-2.29944495359867e-05,-5.23027092773566e-05,6.35762387203644e-05,-1.5495986782927e-06,5.7321716076504e-05,0.000210712644529477,0.000171967022553609,0.00019713157515835,0.000157140626537667,-5.48515283058956e-05,0.00284657484415385,0.00540017553569547,0.00369572346173,0.000900129373619426,0.00281323508959708,0.00387560221636159,0.00290170354634949,0.00425172092962944,0.00378820064390886,0.00196172237860281,0.00101193376934088,-0.904622259460969,0.119257086999023,-0.0287669319927382,-0.905180840664711,0
3.98091055896091e-06,-2.53750320671348e-05,-5.44447828762073e-05,6.17257567345664e-05,-3.00927279209317e-06,4.71685419190957e-05,0.000204406830525502,0.000158201962373254,0.000188423619612139,0.000149901908323184,-1.44806160374976e-05,0.00285055575471281,0.00537480050362833,0.00364127867885379,0.000961855130353993,0.00281022581680499,0.00392277075828069,0.003106110376875,0.00440992289200269,0.003976624263521,0.00211162428692599,0.000997453153303387,-0.852674207512917,0.210305823209049,-0.00642368384303842,-0.892892054182377,0
4.39660894711955e-06,-2.788210587862e-05,-5.67280155161047e-05,5.93890395084907e-05,-4.77746420225354e-06,3.66153587700929e-05,0.000195736393596936,0.000143136702226503,0.000176827259447212,0.000141790953230925,2.81297450853491e-05,0.00285495236365993,0.00534691839774971,0.00358455066333769,0.00102124416986248,0.00280544835260273,0.00395938611705078,0.00330184677047193,0.0045530595942292,0.00415345152296821,0.00225341524015692,0.00102558289838874,-0.967741935483871,0.248289345063539,0.0220639575478288,-0.904063678257226,0
4.64858061503598e-06,-3.04865112445334e-05,-5.91334058902761e-05,5.66576072785333e-05,-6.8327564076839e-06,2.57397375839448e-05,0.000184997512619463,0.0001268825767333,0.000162372529295898,0.000133048007187421,6.51987358930984e-05,0.00285960094427497,0.00531643188650518,0.00352541725744741,0.00107790177714102,0.00279861559619505,0.00398512585463473,0.0034868442830914,0.0046799421709625,0.00431582405226411,0.00238646324734434,0.00109078163428183,-0.969417679095098,0.218684541265186,-0.0114509146767209,-0.891216310571149,0
4.75481451020759e-06,-3.31605220137681e-05,-6.16385050020121e-05,5.36007732908918e-05,-9.1484380579398e-06,1.46200913929218e-05,0.000172443859836022,0.000109566205871831,0.000145172580490668,0.000123855397059185,9.16007055446967e-05,0.00286435575878518,0.00528327136449141,0.0034637787524454,0.00113150255043191,0.00278946715813711,0.00399974594602765,0.00365928814292742,0.00478950837683433,0.00446099663275477,0.00251031864440352,0.00118238233982653,-0.894009216589861,0.179583857003212,-0.00642368384303842,-0.866080156402737,0
4.7322171985659e-06,-3.58775351569154e-05,-6.42181837842257e-05,5.02771554547457e-05,-1.16934182848734e-05,3.33520310377786e-06,0.000158302008173636,9.13276014232805e-05,0.000125409835485601,0.000114357282023128,0.000106148051641011,0.00286908797598374,0.00524739382933449,0.00339956056866117,0.00118177970588665,0.00277777373985224,0.00400308114913143,0.00381759015110105,0.00488083597825761,0.00458640646824038,0.00262467592642665,0.00128853039146754,-0.949867336964111,0.159474933668482,-0.0639575478285153,-0.902946515849741,0
4.59642324326286e-06,-3.86117770363103e-05,-6.68452728835971e-05,4.67392867440719e-05,-1.44330419578516e-05,-8.03629561402924e-06,0.000142781482219867,7.23181280902225e-05,0.00010332398439934,0.000104670765332494,0.000110130533072288,0.00287368439922701,0.00520878205229818,0.00333271529577758,0.00122851899263073,0.00276334069789439,0.0039950448535174,0.00396037163332092,0.00495315410634783,0.00468973045263972,0.00272934669175914,0.00139866092453983,-0.883954754922497,0.0421728808825585,-0.137690266722524,-0.839268258623097,0
4.36178313480487e-06,-4.13380292370825e-05,-6.94910736763156e-05,4.30357052044218e-05,-1.73297810366325e-05,-1.94164791720228e-05,0.000126081249189647,5.26983658820342e-05,7.92017969594256e-05,9.48921361831022e-05,0.000105584286024558,0.00287804618236181,0.0051674440230611,0.00326322422210126,0.00127155469783515,0.00274601091685775,0.00397562837434538,0.00408645288251057,0.00500585247222986,0.00476893224959914,0.00282423882794225,0.00150424521056439,-0.871665968440162,-0.038821393660103,-0.144951822371177,-0.854349951124144,0
4.04144876204422e-06,-4.40313727731682e-05,-7.21257518618112e-05,3.92120438989507e-05,-2.03437953088044e-05,-3.07287027988086e-05,0.000108393805737606,3.26359170346414e-05,5.33683863307884e-05,8.5100338855493e-05,9.44261396071623e-05,0.00288208763112385,0.00512341265028793,0.00319109847023945,0.0013107667417341,0.00272566712154895,0.00394489967154657,0.00419484668824817,0.0050384883892645,0.00482230063592993,0.00290933916679774,0.00159867135017155,-0.923614020388214,-0.0812735651445326,-0.0667504538472277,-0.892333472978634,0
3.64750384880454e-06,-4.66669484110909e-05,-7.47186318447741e-05,3.53116880459786e-05,-2.34333668902502e-05,-4.18981841982121e-05,8.99076184193628e-05,1.23031991879855e-05,2.61795061231619e-05,7.53588975314274e-05,7.82367411938955e-05,0.00288573513497266,0.00507674570187684,0.00311637983839467,0.00134607842978008,0.0027022337546587,0.00390300148734836,0.00428475430666754,0.00505079158845249,0.00484848014205309,0.00298469806432917,0.00167690809136545,-0.923614020388214,-0.161709258483452,-0.0678676162547127,-0.927524088814411,0
3.19110694190546e-06,-4.92197317948076e-05,-7.72384129608733e-05,3.13762191315636e-05,-2.6555218684437e-05,-5.28525796002345e-05,7.080842315623e-05,-8.12473396927856e-06,-1.98546377036361e-06,6.57170607473692e-05,5.8297115147083e-05,0.00288892624191456,0.00502752597008204,0.0030391414254338,0.00137745464891164,0.00267567853597426,0.00385014890774812,0.00435556272982377,0.00504266685448321,0.00484649467828273,0.00305041512507654,0.00173520520651253,-0.972769166317553,-0.115905599776567,0.0259740259740262,-0.990643764837313,0
2.682628311052e-06,-5.16643245852631e-05,-7.96533285934535e-05,2.7445732449464e-05,-2.96647287252655e-05,-6.35225416912204e-05,5.12797265059019e-05,-2.84723033268765e-05,-3.07300704732553e-05,5.62106670359058e-05,3.5677069254048e-05,0.00289160887022562,0.00497586164549677,0.00295948809684035,0.0014049003813611,0.002646013807249,0.0037866263660569,0.00440684245632967,0.00501419455115634,0.00481576460780947,0.00310662579211244,0.00177088227576658,-0.983382209188661,-0.256668063119676,0.0136852394916913,-0.977796397151236,0
2.13177107147777e-06,-5.39747668795599e-05,-8.19312670254104e-05,2.35590625506405e-05,-3.27160512349585e-05,-7.38422464490857e-05,3.15027455715143e-05,-4.85654046209266e-05,-5.96469912556158e-05,4.68630665495951e-05,1.13114605126119e-05,0.00289374064129709,0.00492188687861721,0.00287755682981494,0.00142845944391175,0.00261329775601404,0.00371278411960781,0.00443834520190118,0.00496562914653541,0.00475611761655386,0.00315348885866204,0.00178219373627919,-0.907415165479681,-0.202485686356654,0.0371456500488761,-0.924731182795699,0
1.5476725030621e-06,-5.61243818955242e-05,-8.40398684772395e-05,1.97539317500712e-05,-3.56621524866749e-05,-8.37498748386028e-05,1.16559535395175e-05,-6.82332560914805e-05,-8.83238931144552e-05,3.7686305645494e-05,-1.39453142748158e-05,0.00289528831380016,0.00486576249672169,0.0027935169613377,0.00144821337566182,0.00257763560352736,0.00362903424476921,0.0044500011554407,0.00489739589044393,0.0046677937234394,0.00319117516430753,0.00176824842200437,-0.963831867057674,-0.158357771260997,0.0773634967183356,-1.02806870548806,0
9.38985205379758e-07,-5.80856715125247e-05,-8.59466054344989e-05,1.60670317439337e-05,-3.84547662239565e-05,-9.31880333668047e-05,-8.08564865031544e-06,-8.73100503047874e-05,-0.000116348865002374,2.86826647048965e-05,-3.92806039140312e-05,0.00289622729900554,0.00480767682520916,0.0027075703559032,0.00146428040740575,0.00253918083730341,0.00353584621140241,0.00444191550679039,0.00481008584013914,0.00455144485843703,0.00321985782901243,0.00172896781809034,-0.937019969278034,-0.214774472838989,0.0734534282921381,-0.966066191872644,0
3.1394045475492e-07,-5.98302907980708e-05,-8.76188413781046e-05,1.25340509712312e-05,-4.10442704743422e-05,-0.00010210409413236,-2.75514452044712e-05,-0.000105636365300418,-0.000143315256334952,1.98465253267127e-05,-6.38912034536588e-05,0.00289654123946029,0.00474784653441109,0.00261995151452509,0.00147681445837698,0.00249813656682906,0.00343374211727005,0.00441436406158591,0.00470444947483872,0.00440812960210208,0.00323970435433914,0.00166507661463668,-0.935344225666806,-0.205278592375366,0.041614299678816,-0.966066191872644,0
-3.19601133722588e-07,-6.13291405824837e-05,-8.90238435187147e-05,9.18966889031634e-06,-4.33794862620411e-05,-0.000110450429212571,-4.65762347076227e-05,-0.00012306028744309,-0.000168825672160739,1.11664364844939e-05,-8.69466023549373e-05,0.00289622163832657,0.00468651739382861,0.00253092767100638,0.0014860041272673,0.00245475708056702,0.00332329168805748,0.00436778782687829,0.00458138918739563,0.00423930392994134,0.00325087079082363,0.00157813001228175,-0.918586789554531,-0.240469208211144,-0.000837871805613487,-0.962156123446446,0
-9.54102738581156e-07,-6.2552627543469e-05,-9.01286935071125e-05,6.06755302046645e-06,-4.54074005409454e-05,-0.000118184504024814,-6.50013216422557e-05,-0.00013943819356152,-0.000192494781746673,2.62716356991093e-06,-0.000107533066460739,0.00289526753558799,0.00462396476628514,0.00244079897749927,0.00149207168028776,0.00240934968002608,0.00320510718403266,0.00430278650523604,0.00444195099383411,0.00404680914819466,0.00325349795439354,0.00147059694582101,-0.912442396313364,-0.222036028487641,-0.00586510263929593,-0.948191593352884,0
-1.58229299313667e-06,-6.34711462719206e-05,-9.08999889539246e-05,3.20041601368235e-06,-4.70728229786748e-05,-0.000125268775611844,-8.26756255408586e-05,-0.00015463513179307,-0.000213950483912118,-5.78854479784362e-06,-0.000124554571704463,0.00289368524259485,0.00456049362001322,0.00234989898854534,0.00149527209630145,0.0023622768570474,0.00307983840842082,0.00422011087969518,0.00428731586204104,0.00383285866428255,0.0032477094095957,0.00134604237411654,-0.921938276776986,-0.220360284876414,0.00809942745426641,-0.965507610668901,0
-2.19706932444094e-06,-6.40558265455763e-05,-9.13031453374227e-05,6.20218092377278e-07,-4.83180026190212e-05,-0.000131670305974651,-9.94567689525357e-05,-0.000168524726876057,-0.000232832834046477,-1.40987371655284e-05,-0.000136548445768241,0.00289148817327041,0.00449643779346764,0.00225859584320792,0.00149589231439382,0.00231395885442838,0.00294816810244617,0.00412065411074264,0.00411879113516499,0.00360002583023607,0.00323361067243017,0.0012094939283483,-0.923055439184471,-0.213098729227761,0.00363077782432646,-0.953777405390309,0
-2.79131398850255e-06,-6.42795378312435e-05,-9.13009690744404e-05,-1.64136684629003e-06,-4.90822613058886e-05,-0.000137359928198098,-0.000115212108350099,-0.000180988512936278,-0.000248789984771665,-2.23217970649939e-05,-0.00014134885384253,0.00288869685928191,0.0044321582556364,0.00216729487413348,0.00149425094754753,0.00226487659312249,0.00281080817424807,0.00400544200239254,0.00393780262222871,0.0033512358454644,0.00321128887536518,0.00106814507450577,-0.917469627147046,-0.227063259321324,0.00418935902806896,-0.949867336964111,0
-3.35752947687364e-06,-6.41179974285467e-05,-9.08509305788713e-05,-3.55206980998026e-06,-4.93017535606343e-05,-0.000142310647996628,-0.000129819672333706,-0.000191914559158051,-0.000261470280524821,-3.04768423006136e-05,-0.000135552270568347,0.00288533932980503,0.00436804025820785,0.00207644394355461,0.00149069887773755,0.00221557483956186,0.00266849752625144,0.00387562233005884,0.00374588806307066,0.00308976556493958,0.00318081203306456,0.000932592803937426,-0.919703951962016,-0.229297584136294,-0.00307219662058346,-0.954894567797794,0
-3.88710591494841e-06,-6.35504467812794e-05,-8.99001168462475e-05,-5.07755319318162e-06,-4.89095465232383e-05,-0.000146494607690128,-0.000143168968704256,-0.00020119519052653,-0.00027050974782896,-3.85849428438294e-05,-0.000114094906206389,0.00288145222389008,0.00430448981142657,0.00198654382670836,0.00148562132454437,0.00216666529303862,0.00252200291856131,0.00373245336135458,0.00354469287254413,0.00281925581711062,0.00314222709022074,0.000818497897731037,-0.930316994833124,-0.217567378857701,-0.00139645300935598,-0.957128892612764,0
-4.36881961648518e-06,-6.2558298063029e-05,-8.83759437751001e-05,-6.17916662663982e-06,-4.78363367440761e-05,-0.000149877057652734,-0.000155161615311237,-0.000208723497101373,-0.000275514969580598,-4.66709430602301e-05,-7.17144657715966e-05,0.0028770834042736,0.00424193151336354,0.00189816788293326,0.00147944215791773,0.00211882895629454,0.00237212586090858,0.00357729174604334,0.00333596937544275,0.00254374084753003,0.00309555614716051,0.00074678343195944,-0.928641251221896,-0.221477447283899,-0.00754084625052341,-0.956011730205279,0
-4.7856379312896e-06,-6.11166896368875e-05,-8.61687585463301e-05,-6.81080293046398e-06,-4.60122826826527e-05,-0.000152403377586108,-0.000165711737330881,-0.000214388130875123,-0.000276043618584277,-5.47654984165758e-05,-9.5212596869336e-06,0.00287229776634231,0.00418081482372666,0.00181199912438693,0.00147263135498727,0.00207281667361189,0.00221972248332247,0.00341158000871246,0.00312158124456763,0.00226769722894575,0.00304079064874393,0.000737262172272507,-0.926406926406926,-0.222594609691384,-0.00754084625052341,-0.950425918167854,0
-5.10749714294906e-06,-5.91595201523843e-05,-8.30978751938281e-05,-6.91487914582256e-06,-4.33706077734054e-05,-0.000153967851273345,-0.000174746052810119,-0.000218065523046823,-0.000271589949223645,-6.29067816695964e-05,5.82030234268609e-05,0.00286719026919936,0.00412165530357427,0.0017289012491931,0.00146571647584145,0.00202944606583849,0.00206575463204913,0.00323683395590234,0.00290351572152081,0.0019961072797221,0.00297788386707433,0.000795465195699367,-0.930316994833124,-0.230414746543779,-0.00530652143555344,-0.957687473816506,0
-5.27352066999678e-06,-5.64147613643226e-05,-7.88408979252649e-05,-6.41783394319693e-06,-3.98537421062591e-05,-0.000154327096459179,-0.000182203533750194,-0.000219607919764367,-0.00026158859450829,-7.11412083448867e-05,0.000113011446289832,0.00286191674852936,0.00406524054220995,0.00165006035126784,0.00145929864189825,0.00198959232373223,0.00191142753558995,0.00305463042215215,0.00268390780175644,0.00173451868521381,0.00290674265872945,0.000908476641989199,-0.926406926406926,-0.221477447283899,0.00139645300935649,-0.949308755760369,0
-5.1431072376003e-06,-5.11609649519332e-05,-7.27747443488335e-05,-5.22630809819181e-06,-3.54226609664077e-05,-0.000152813825996319,-0.00018803447274401,-0.000218824055394937,-0.000245431097765021,-7.95225088985074e-05,0.000147704128006472,0.00285677364129176,0.00401407957725802,0.001577285606919,0.00145407233380006,0.00195416966276582,0.00175861370959363,0.00286659594940814,0.00246508374636151,0.00148908758744879,0.00282722014983094,0.00105618076999567,-0.920262533165759,-0.219801703672671,-0.00251361541684097,-0.945957268537914,0
-4.34370628236286e-06,-2.50548633261675e-05,-6.36001868584114e-05,-3.22664872733493e-06,-3.00694979446243e-05,-0.000147195659593217,-0.000192198689530753,-0.000215445654841556,-0.000222237317474313,-8.81085639839563e-05,0.000165343502964168,0.0028524299350094,0.00398902471393185,0.00151368542006059,0.00145084568507272,0.0019241001648212,0.00161141805000041,0.00267439725987739,0.00224963809151995,0.00126685026997448,0.00273911158584698,0.00122152427295984,-0.925289763999441,-0.204720011171624,-0.00586510263929593,-0.949867336964111,0
