dfreq810,dfreq1012,dfreq1214,dfreq1416,dfreq1618,dfreq1820,dfreq2022,dfreq2224,dfreq2426,dfreq2628,dfreq2830,freq810,freq1012,freq1214,freq1416,freq1618,freq1820,freq2022,freq2224,freq2426,freq2628,freq2830,allAccBX,allAccBY,allAccTX,allAccTY,pcd
0,0,0,0,0,0,0,0,0,0,0,0.00124863271156157,0.00173190838840613,0.00111871923289518,0.000895273353702014,0.00115050111760421,0.000592424557147858,0.000605203738818931,0.000962359429633064,0.000306148277137095,0.00123896606209504,0.000974045997885508,-0.891798165991714,-0.315761299632267,-0.106293348228832,-0.941837732160313,0
3.40845579248909e-05,7.38782028250472e-05,3.1898544327157e-05,5.14468991568625e-05,8.27147491454512e-05,3.37670182280098e-05,2.5962591064554e-05,-1.09784819930252e-05,-1.53026763871467e-05,-3.05198514079169e-05,1.41847477677685e-05,0.00128271726948646,0.00180578659123117,0.00115061777722234,0.000946720252858877,0.00123321586674966,0.000626191575375868,0.000631166329883485,0.000951380947640039,0.000290845600749948,0.00120844621068713,0.000988230745653276,-0.891216310571149,-0.309733277475213,-0.10529255690546,-0.943722943722944,0
3.48333397225955e-05,7.48691107359727e-05,3.28783195933235e-05,5.34876868244002e-05,8.4092096407255e-05,3.72974719484688e-05,3.57787844103573e-05,-1.41083920027946e-05,-8.04202878834594e-06,-3.61752226824576e-05,1.31242087511036e-05,0.00131755060920905,0.00188065570196715,0.00118349609681566,0.00100020793968328,0.00131730796315692,0.000663489047324336,0.000666945114293842,0.000937272555637244,0.000282803571961602,0.00117227098800467,0.00100135495440438,-0.891774891774892,-0.307498952660243,-0.110878368942885,-0.940930037704231,0
3.47379169807231e-05,7.40921162389666e-05,3.29085204438266e-05,5.41476492868559e-05,8.32461547818392e-05,3.96866307496874e-05,4.40746088359581e-05,-1.66972890548242e-05,7.52080381419317e-08,-4.08840829808422e-05,1.06453418619512e-05,0.00135228852618978,0.00195474781820611,0.00121640461725949,0.00105435558897013,0.00140055411793876,0.000703175678074024,0.0007110197231298,0.00092057526658242,0.000282878779999744,0.00113138690502383,0.00101200029626633,-0.887306242144951,-0.328725038402458,-0.122049993017735,-0.939812875296746,0
3.45314579805202e-05,7.31379889764919e-05,3.26859020209212e-05,5.4513602565286e-05,8.19717696893213e-05,4.15344261393124e-05,5.12224966782581e-05,-1.89948921716326e-05,9.98103693591976e-06,-4.51255098761797e-05,7.15927985529136e-06,0.0013868199841703,0.0020278858071826,0.00124909051928041,0.00110886919153542,0.00148252588762808,0.000744710104213336,0.000762242219808058,0.000901580374410788,0.000292859816935664,0.00108626139514765,0.00101915957612162,-0.899036447423544,-0.302471721826561,-0.090769445608155,-0.943722943722944,0
3.42222089344537e-05,7.20183398325237e-05,3.22327617453006e-05,5.45945393648512e-05,8.02966746944794e-05,4.27842922557586e-05,5.73337531550119e-05,-2.10383503125889e-05,2.019107172209e-05,-4.87045768763528e-05,2.86003110487273e-06,0.00142104219310475,0.00209990414701513,0.00128132328102571,0.00116346373090027,0.00156282256232256,0.000787494396469095,0.00081957597296307,0.000880542024098199,0.000313050888657754,0.0010375568182713,0.0010220196072265,-0.878368942885072,-0.310850439882698,-0.0930037704231249,-0.926965507610669,0
3.38173637731496e-05,7.07437541627993e-05,3.15682415077067e-05,5.43998074691542e-05,7.8243922580513e-05,4.34467024553369e-05,6.25196414254655e-05,-2.27987002493734e-05,2.85848229264363e-05,-5.12730355575707e-05,-1.97940299982236e-06,0.0014548595568779,0.00217064790117793,0.00131289152253342,0.00121786353836942,0.00164106648490307,0.000830941098924432,0.000882095614388536,0.000857743323848825,0.00034163571158419,0.000986283782713725,0.00102004020422667,-0.910208071498394,-0.302471721826561,-0.106409719312945,-0.954335986594051,0
3.33233129455413e-05,6.9323905345261e-05,3.07087523403039e-05,5.39391873045573e-05,7.58335392544161e-05,4.3563510199192e-05,6.68518609211761e-05,-2.40729992261619e-05,3.46787317100376e-05,-5.21873949249714e-05,-7.01830659832433e-06,0.00148818286982344,0.00223997180652319,0.00134360027487372,0.00127180272567398,0.00171690002415749,0.000874504609123624,0.000948947475309712,0.000833670324622663,0.000376314443294228,0.000934096387788753,0.00101302189762835,-0.885630498533724,-0.307498952660243,-0.101941069683005,-0.938695712889261,0
3.27458141170423e-05,6.77676671192815e-05,2.9668507657152e-05,5.32229019034865e-05,7.3083698788652e-05,4.31798166302626e-05,7.03699133105833e-05,-2.40661845177647e-05,3.96591170173717e-05,-5.01274342688581e-05,-1.18570088999271e-05,0.00152092868394048,0.00230773947364247,0.00137326878253087,0.00132502562757747,0.00178998372294614,0.000917684425753886,0.0010193173886203,0.000809604140104899,0.0004159735603116,0.000883968953519895,0.00100116488872842,-0.892892054182377,-0.310291858678955,-0.110319787739142,-0.944840106130429,0
3.20901129996353e-05,6.60832198458375e-05,2.84600432393449e-05,5.22616163990018e-05,7.00115649935194e-05,4.23342263664352e-05,7.30965870340027e-05,-1.90237324232973e-05,4.52906346859812e-05,-4.21486219765788e-05,-1.60443782385299e-05,0.00155301879694012,0.00237382269348831,0.00140172882577022,0.00137728724397647,0.00185999528793966,0.000960018652120322,0.0010924139756543,0.000790580407681601,0.000461264194997581,0.000841820331543316,0.000985120510489892,-0.888981985756179,-0.311409021086441,-0.110319787739142,-0.939254294093004,0
3.13610320203913e-05,6.42781480266691e-05,2.70946726876806e-05,5.1066442020208e-05,6.66338974382604e-05,4.10584322608666e-05,7.5049100608366e-05,9.70797390205695e-06,5.29179763493007e-05,-2.24685506119234e-05,-1.90874323237008e-05,0.00158437982896051,0.00243810084151498,0.0014288234984579,0.00142835368599668,0.00192662918537792,0.00100107708438119,0.00116746307626266,0.000800288381583658,0.000514182171346881,0.000819351780931393,0.000966033078166191,-0.885071917329981,-0.312526183493926,-0.10752688172043,-0.937019969278034,0
3.05630378545844e-05,6.23595278932583e-05,2.55828635545028e-05,4.96489451753239e-05,6.29674883253876e-05,3.93795554363867e-05,7.6244827153499e-05,7.0952380793805e-05,6.25926802463859e-05,1.24470461233594e-05,-2.04693145738089e-05,0.0016149428668151,0.00250046036940823,0.0014544063620124,0.001478002631172,0.00198959667370331,0.00104045663981757,0.00124370790341616,0.000871240762377463,0.000576774851593267,0.000831798827054752,0.000945563763592382,-0.888423404552436,-0.315877670716381,-0.0963552576455799,-0.940930037704231,0
2.97002946818088e-05,6.03340048188172e-05,2.39345365024785e-05,4.80211584423112e-05,5.90294757345298e-05,3.73226097113172e-05,7.67034543408631e-05,0.000104578324912051,7.30130042980367e-05,4.85605592496407e-05,-1.96853064875828e-05,0.0016446431614969,0.00256079437422705,0.00147834089851488,0.00152602378961431,0.00204862614943784,0.00107777924952889,0.00132041135775703,0.000975819087289515,0.000649787855891304,0.000880359386304393,0.000925878457104799,-0.886747660941209,-0.316994833123866,-0.0991481636642924,-0.941488618907974,0
2.87767074515232e-05,5.8207860878848e-05,2.21592967434951e-05,4.61955901884933e-05,5.48375648606295e-05,3.49123856503999e-05,7.64473801256604e-05,0.000113466323303746,8.26867906802897e-05,6.79756799061574e-05,-1.63083858289799e-05,0.00167341986894843,0.0026190022351059,0.00150050019525837,0.00157221937980281,0.00210346371429847,0.00111269163517929,0.00139685873788269,0.00108928541059326,0.000732474646571594,0.00094833506621055,0.000909570071275819,-0.890099148163664,-0.311967602290183,-0.0963552576455799,-0.937578550481776,0
2.77959578685821e-05,5.59870732083335e-05,2.02666088658127e-05,4.41852304277491e-05,5.04101795745318e-05,3.21747172396349e-05,7.5501464391229e-05,0.000116060272362102,9.08860747837513e-05,7.1912097883781e-05,-1.0090470126787e-05,0.00170121582681701,0.00267498930831423,0.00152076680412419,0.00161640461023056,0.002153873893873,0.00114486635241893,0.00147236020227392,0.00120534568295536,0.000823360721355345,0.00102024716409433,0.000899479601149032,-0.900153609831029,-0.314760508308896,-0.0946795140343524,-0.948191593352884,0
2.67615348473246e-05,5.36773639621181e-05,1.82659257315203e-05,4.20035514582095e-05,4.57665603595982e-05,2.9137260050167e-05,7.38926842027724e-05,0.000116263234131422,9.75516714473492e-05,6.74282243493614e-05,-1.08516461672288e-06,0.00172797736166433,0.00272866667227635,0.00153903272985571,0.00165840816168876,0.0021996404542326,0.00117400361246909,0.00154625288647669,0.00132160891708679,0.000920912392802694,0.00108767538844369,0.000898394436532309,-0.888981985756179,-0.314201927105153,-0.0913280268118974,-0.938695712889261,0
2.56767605960365e-05,5.12842427397146e-05,1.61667808267311e-05,3.96645025451409e-05,4.09268203990141e-05,2.58299166090389e-05,7.16498964909657e-05,0.000114932582205882,0.000102866612380326,5.85627826154072e-05,1.02569176148051e-05,0.00175365412226037,0.00277995091501607,0.00155519951068244,0.00169807266423391,0.00224056727463161,0.00119983352907813,0.00161790278296765,0.00143654149929267,0.00102377900518302,0.0011462381710591,0.000908651354147114,-0.895126378997346,-0.312526183493926,-0.0946795140343524,-0.940371456500489,0
2.45448131338435e-05,4.88130423272589e-05,1.39788519489452e-05,3.71824984044338e-05,3.59119686335909e-05,2.22850144283356e-05,6.8803743364106e-05,0.000112342711651145,0.000107022622676196,4.721697262191e-05,2.30929841747253e-05,0.00177819893539421,0.00282876395734333,0.00156917836263138,0.00173525516263834,0.0022764792432652,0.00122211854350647,0.00168670652633176,0.00154888421094381,0.00113080162785922,0.00119345514368101,0.00093174433832184,-0.891774891774892,-0.311967602290183,-0.0980310012568074,-0.940930037704231,0
2.33687458195369e-05,4.6268948564862e-05,1.17120027185945e-05,3.45724015513504e-05,3.0743906538106e-05,1.85373111324398e-05,6.5386669115869e-05,0.000108616918081861,0.000110159185498919,3.44221383076207e-05,3.63355875854504e-05,0.00180156768121375,0.00287503290590819,0.00158089036534998,0.00176982756418969,0.00230722314980331,0.00124065585463891,0.00175209319544763,0.00165750112902567,0.00124096081335814,0.00122787728198863,0.00096807992590729,-0.888981985756179,-0.313643345901411,-0.0941209328306099,-0.940930037704231,1
2.21515043311701e-05,4.36570250847987e-05,9.37630721761459e-06,3.18494987631762e-05,2.54454038849947e-05,1.46238773564525e-05,6.14330022303778e-05,0.000103832571812816,0.000112365926671412,2.08801512397916e-05,4.8897596628776e-05,0.00182371918554492,0.00291868993099299,0.00159026667256759,0.00180167706295287,0.0023326685536883,0.00125527973199536,0.00181352619767801,0.00176133370083849,0.00135332674002955,0.00124875743322842,0.00101697752253607,-0.887306242144951,-0.312526183493926,-0.08965228320067,-0.943164362519201,1
2.08959414438545e-05,4.09822335957306e-05,6.98206211440476e-06,2.90294720081878e-05,2.00400576848285e-05,1.05838914425645e-05,5.69790605199651e-05,9.80538345892899e-05,0.000113697202747698,7.17061548727023e-06,5.9918495772749e-05,0.00184461512698878,0.00295967216458872,0.001597248734682,0.00183070653496105,0.00235270861137313,0.00126586362343793,0.00187050525819797,0.00185938753542778,0.00146702394277725,0.00125592804871569,0.00107689601830882,-0.891216310571149,-0.309733277475213,-0.0913280268118974,-0.943164362519201,1
1.96048298912136e-05,3.82494503176826e-05,4.53978992362848e-06,2.61283642476187e-05,1.45522376860953e-05,6.45836863832341e-06,5.20632483660866e-05,9.13436658207633e-05,0.000114184748372557,-6.16956597806399e-06,6.88767988215075e-05,0.00186421995687999,0.0029979216149064,0.00160178852460562,0.00185683489920867,0.00236726084905923,0.00127232199207625,0.00192256850656406,0.00195073120124854,0.0015812086911498,0.00124975848273763,0.00114577281713032,-0.888981985756179,-0.311409021086441,-0.0913280268118974,-0.943722943722944,1
1.8280873551816e-05,3.54634791051365e-05,2.06023655337012e-06,2.31625405416292e-05,9.00702119687943e-06,2.28983981549486e-06,4.67261257558027e-05,8.37687004074444e-05,0.000113846492199864,-1.86209378107254e-05,7.55788348345257e-05,0.00188250083043181,0.00303338509401154,0.00160384876115899,0.0018799974397503,0.00237626787025611,0.00127461183189174,0.00196929463231986,0.00203449990165599,0.00169505518334967,0.0012311375449269,0.00122135165196485,-0.877810361681329,-0.299678815807848,-0.0985895824605499,-0.942047200111716,1
1.69267171687346e-05,3.26290617339519e-05,-4.45634003650103e-07,2.01486448951384e-05,3.43011950233296e-06,-1.87801054617122e-06,4.10104374472136e-05,7.54012827294515e-05,0.000112692430051499,-2.96861162520372e-05,8.00773453898472e-05,0.00189942754760054,0.00306601415574549,0.00160340312715534,0.00190014608464544,0.00237969798975844,0.00127273382134557,0.00201030506976707,0.00210990118438544,0.00180774761340117,0.00120145142867487,0.0013014289973547,-0.879486105292557,-0.281804217288088,-0.0762463343108501,-0.977237815947494,1
1.55449547842672e-05,2.97508857723082e-05,-2.96664507920714e-06,1.7103553268427e-05,-2.15220224354749e-06,-6.00074103128119e-06,3.49610969601079e-05,6.63202087488671e-05,0.000110728637038087,-3.89154111261698e-05,8.25779740922302e-05,0.00191497250238481,0.0030957650415178,0.00160043648207614,0.00191724963791387,0.00237754578751489,0.00126673308031429,0.00204526616672718,0.00217622139313431,0.00191847625043925,0.0011625360175487,0.00138400697144693,-0.949867336964111,-0.322022063957548,0.0779220779220781,-0.971093422706326,1
1.41381370503115e-05,2.68335904070583e-05,-5.49140998086202e-06,1.40443231482256e-05,-7.71321009950931e-06,-1.00335810659547e-05,2.86251245915315e-05,5.66108040164202e-05,0.000107960194227221,-4.59436100477568e-05,8.33648545904995e-05,0.00192911063943512,0.00312259863192485,0.00159494507209528,0.00193129396106209,0.00236983257741538,0.00125669949924834,0.00207389129131871,0.00223283219715073,0.00202643644466647,0.00111659240750094,0.00146737182603743,-0.954894567797793,-0.34939254294093,0.0617232230135458,-0.975003491132524,1
1.27087775567694e-05,2.38817705541872e-05,-8.00832869383723e-06,1.09881400185659e-05,-1.32257901130375e-05,-1.39318878472855e-05,2.20515418356835e-05,4.63646174186224e-05,0.000104393503726378,-5.05123955329033e-05,8.27516534107882e-05,0.00194181941699189,0.00314648040247904,0.00158693674340144,0.00194228210108066,0.00235660678730234,0.00124276761140105,0.0020959428331544,0.00227919681456935,0.00213082994839285,0.00106608001196804,0.00155012347944821,-0.915793883535819,-0.316994833123866,-0.0449657869012705,-0.999022482893451,1
1.1259358304696e-05,2.08999795453207e-05,-1.05055748255709e-05,7.95226096981551e-06,-1.86625397427475e-05,-1.76516311020914e-05,1.52912269187162e-05,3.56788683029742e-05,0.000100038249908755,-5.24184975908332e-05,8.10526963186341e-05,0.00195307877529658,0.00316738038202436,0.00157643116857587,0.00195023436205047,0.0023379442475596,0.00122511598029896,0.00211123406007311,0.00231487568287232,0.00223086819830161,0.0010136615143772,0.00163117617576685,-0.858260019550342,-0.242144951822371,-0.043290043290043,-0.915235302332076,0
9.79233443729015e-06,1.78927306507363e-05,-1.29710680015105e-05,4.95395551075627e-06,-2.39958610743097e-05,-2.11499036556963e-05,8.39673801817948e-06,2.46557229736663e-05,9.49091235768391e-05,-5.12549869781603e-05,7.85666425932626e-05,0.00196287110973387,0.0031852731126751,0.00156346010057436,0.00195518831756123,0.00231394838648529,0.00120396607664326,0.00211963079809129,0.00233953140584599,0.00232577732187845,0.000962406527399043,0.00170974281836011,-0.907973746683424,-0.203044267560396,-0.105851138109202,-0.963273285853931,0
8.3101383299808e-06,1.48644976724261e-05,-1.53924254408192e-05,2.01044335869892e-06,-2.91980551401418e-05,-2.43854528834281e-05,1.42211241736107e-06,1.34014489561467e-05,8.90273392420904e-05,-4.55983773342541e-05,7.55668751884573e-05,0.00197118124806385,0.00320013761034752,0.00154806767513354,0.00195719876091993,0.00228475033134515,0.00117958062375984,0.00212105291050865,0.00235293285480214,0.00241480466112054,0.000916808150064788,0.00178530969354857,-0.916352464739561,-0.126518642647675,-0.104175394497975,-0.958246055020249,0
6.81518313051452e-06,1.18197148181814e-05,-1.77568842764325e-05,-8.61171487604069e-07,-3.42414167846584e-05,-2.73192210575345e-05,-5.57734840774676e-06,2.02548325177855e-06,8.24219271780033e-05,-3.07111778919311e-05,7.22950798250268e-05,0.00197799643119437,0.00321195732516571,0.00153031079085711,0.00195633758943233,0.00225050891456049,0.0011522614027023,0.00211547556210091,0.00235495833805392,0.00249722658829854,0.000886096972172857,0.00185760477337359,-0.949867336964111,-0.10529255690546,-0.0533445049574079,-0.959921798631476,0
5.30986583093277e-06,8.76277604856552e-06,-2.00511830713787e-05,-3.64397182853909e-06,-3.90983296130755e-05,-2.99148671660755e-05,-1.25452957236865e-05,-9.36055386054069e-06,7.51307601743792e-05,4.21361636219878e-06,6.89562720193634e-05,0.0019833062970253,0.00322072010121427,0.00151025960778573,0.00195269361760379,0.00221141058494741,0.00112234653553623,0.00210293026637722,0.00234559778419337,0.00257235734847292,0.000890310588535056,0.00192656104539296,-0.985616534003631,0.0365870688451336,-0.0449657869012705,-0.964390448261416,0
3.79656994561059e-06,5.69803407276647e-06,-2.22613865734583e-05,-6.32130606652401e-06,-4.37413606107456e-05,-3.21392095487736e-05,-1.94245378433758e-05,-2.06438685020948e-05,6.72012717284742e-05,5.95893183330252e-05,6.57146715113096e-05,0.00198710286697091,0.00322641813528704,0.00148799822121227,0.00194637231153726,0.00216766922433667,0.00109020732598745,0.00208350572853385,0.00232495391569128,0.00263955862020139,0.000949899906868081,0.00199227571690427,-0.967741935483871,0.108644044127915,0.0589303169948333,-0.986733696411116,0
2.27766786293181e-06,2.62979915626686e-06,-2.43726316302996e-05,-8.87687897377278e-06,-4.81433539955144e-05,-3.39624559013761e-05,-2.61572136464167e-05,-3.17114932617394e-05,5.86908312496244e-05,0.000104687803878798,6.26904743123201e-05,0.00198938053483384,0.0032290479344433,0.00146362558958197,0.00193749543256349,0.00211952587034115,0.00105624487008608,0.00205734851488743,0.00229324242242954,0.00269824945145102,0.00105458771074688,0.00205496619121659,-0.909649490294652,0.179025275799469,-0.000837871805613485,-0.953218824186566,0
7.55522932542173e-07,-4.37662107289401e-07,-2.63687639964877e-05,-1.12948610463612e-05,-5.22775237147429e-05,-3.53579220588171e-05,-3.26849123287944e-05,-4.24512400287766e-05,4.96667574209548e-05,0.00012595998013416,5.99578950869202e-05,0.00199013605776639,0.00322861027233602,0.00143725682558548,0.00192620057151713,0.00206724834662641,0.00102088694802726,0.00202466360255863,0.00225079118240076,0.00274791620887197,0.00118054769088104,0.00211492408630351,-0.991760927244798,0.0991481636642929,-0.0103337522692359,-0.988409440022343,0
-7.67508654438923e-07,-3.50012791616337e-06,-2.82318255691322e-05,-1.35600262863498e-05,-5.61175436211443e-05,-3.63005467861265e-05,-3.8948709603749e-05,-5.27525605058593e-05,4.02059689369356e-05,0.000132956835761088,5.75449508949089e-05,0.00198936854911195,0.00322511014441985,0.00140902500001635,0.00191264054523078,0.00201113080300526,0.000984586401241132,0.00198571489295488,0.0021980386218949,0.00278812217780891,0.00131350452664213,0.00217246903719842,-0.946515849741656,0.0226225387515712,-0.0555788297723779,-0.942605781315459,0
-2.28907613866606e-06,-6.55342213480353e-06,-2.99413408886599e-05,-1.56579323349366e-05,-5.96376335735577e-05,-3.67625010656731e-05,-4.48890809725164e-05,-6.25072576027619e-05,3.03942893169827e-05,0.000132476511357164,5.54353894783571e-05,0.00198707947297328,0.00321855672228505,0.00137908365912769,0.00189698261289584,0.00195149316943171,0.000947823900175459,0.00194082581198237,0.00213553136429214,0.00281851646712589,0.00144598103799929,0.00222790442667677,-0.938695712889261,0.0337941628264211,-0.0427314620863005,-0.952101661779082,0
-3.8068325686042e-06,-9.59341478929407e-06,-3.14733459897186e-05,-1.75751615588001e-05,-6.28126381808185e-05,-3.67013608326541e-05,-5.0445639134006e-05,-7.16099724997446e-05,2.0325437387979e-05,0.000127227638343337,5.35729702655966e-05,0.00198327264040468,0.00320896330749575,0.00134761031313797,0.00187940745133704,0.00188868053125089,0.000911122539342805,0.00189038017284836,0.0020639213917924,0.00283884190451387,0.00157320867634263,0.00228147739694237,-0.948750174556626,0.00363077782432646,-0.0337941628264206,-0.946515849741656,0
-5.31843323091363e-06,-1.26160220533526e-05,-3.27991171269555e-05,-1.9299646158246e-05,-6.56180920599993e-05,-3.60274181216741e-05,-5.55566237398033e-05,-7.9958342866923e-05,1.00997463294296e-05,0.000118399120907314,5.18680262726655e-05,0.00197795420717376,0.0031963472854424,0.00131481119601101,0.0018601078051788,0.00182306243919089,0.000875095121221131,0.00183482354910856,0.00198396304892547,0.0028489416508433,0.00169160779724994,0.00233334542321504,-0.955453149001536,-0.0315598380114506,-0.039938556067588,-0.957128892612763,0
-6.8215340882547e-06,-1.56172055952347e-05,-3.38836290338538e-05,-2.08211028968907e-05,-6.80302603070996e-05,-3.45050052374041e-05,-6.01580462740549e-05,-8.74526805090426e-05,-1.77338327782099e-07,0.000106664973616323,5.02059257260971e-05,0.00197113267308551,0.00318073007984717,0.00128092756697716,0.00183928670228191,0.00175503217888379,0.000840590115983726,0.0017746655028345,0.00189651036841643,0.00284876431251552,0.00179827277086627,0.00238355134894113,-0.944281524926686,-0.0924451892193824,-0.0645161290322578,-0.946515849741656,0
-8.31379017846587e-06,-1.85929711547525e-05,-3.46839848838312e-05,-2.21316006406684e-05,-7.00261336431425e-05,-3.14205225244049e-05,-6.41823608895406e-05,-9.39949400127712e-05,-1.03969273244331e-05,9.25164217896407e-05,4.84567790091971e-05,0.00196281888290704,0.00316213710869241,0.00124624358209333,0.00181715510164124,0.00168500604524065,0.000809169593459321,0.00171048314194496,0.00180251542840366,0.00283836738519108,0.00189078919265591,0.00243200812795033,-0.972210585113811,-0.150537634408602,-0.044407205697528,-0.957687473816506,0
-9.7928539294597e-06,-2.15393662166452e-05,-3.51485697081444e-05,-2.32262721199909e-05,-7.15833414237351e-05,-2.45388172020115e-05,-6.75564982413458e-05,-9.94866254750337e-05,-2.04484672549098e-05,7.63802105504887e-05,4.64855604609218e-05,0.00195302602897758,0.00314059774247577,0.00121109501238519,0.00179392882952125,0.00161342270381691,0.00078463077625731,0.00164292664370362,0.00170302880292863,0.00281791891793617,0.00196716940320639,0.00247849368841125,-0.899595028627287,-0.0935623516268675,0.00642368384303893,-0.967183354280129,0
-1.12563733439749e-05,-2.4452476641396e-05,-3.52187013290118e-05,-2.41041550041276e-05,-7.26799172935532e-05,-9.92350584127762e-06,-7.0199081714905e-05,-0.000103825083701243,-3.02215761774365e-05,5.86647533946973e-05,4.41617743544538e-05,0.00194176965563361,0.00311614526583437,0.00117587631105617,0.00176982467451712,0.00154074278652336,0.000774707270416032,0.00157272756198871,0.00159920371922738,0.00278769734175874,0.00202583415660109,0.00252265546276571,-0.995670995670996,-0.197458455522972,0.0276497695852537,-0.996229576874738,0
-1.27019900077617e-05,-2.73284221070681e-05,-3.4836114399611e-05,-2.47691026646762e-05,-7.32938030371705e-05,8.06222399738269e-06,-7.2016696308571e-05,-0.000106897331688079,-3.96078821503906e-05,3.97791712437403e-05,4.13678943531953e-05,0.00192906766562585,0.0030888168437273,0.00114104019665656,0.00174505557185244,0.00146744898348619,0.000782769494413415,0.00150071086568014,0.00149230638753931,0.00274808945960835,0.00206561332784483,0.0025640233571189,-0.942047200111716,-0.189638318670577,0.0164781455104038,-0.971652003910068,0
-1.41273368738798e-05,-3.01633502055657e-05,-3.39606808299516e-05,-2.52306435155221e-05,-7.34018913470837e-05,1.88011651451432e-05,-7.28993340634162e-05,-0.000108570176783127,-4.85028136333436e-05,2.01411402184874e-05,3.8006015586324e-05,0.00191494032875197,0.00305865349352174,0.00110707951582661,0.00171982492833692,0.0013940470921391,0.000801570659558558,0.00142781153161673,0.00138373621075618,0.002699586645975,0.00208575446806332,0.00260202937270522,-0.940930037704231,-0.166177908113392,0.0321184192151936,-0.992319508448541,0
-1.55300357746731e-05,-3.29534290235385e-05,-3.259984542086e-05,-2.5504601898374e-05,-7.29782629962706e-05,2.33736267471419e-05,-7.27159069988409e-05,-0.000108675134978483,-5.68072920489439e-05,1.79929921680783e-07,3.40024251572449e-05,0.00189941029297729,0.0030257000644982,0.00107447967040575,0.00169432032643855,0.00132106882914283,0.0008249442863057,0.00135509562461788,0.00127506107577769,0.00264277935392606,0.002085934397985,0.00263603179786247,-0.926406926406926,-0.228180421728809,0.0343527440301636,-0.966066191872643,0
-1.69076946117926e-05,-3.5694838021494e-05,-3.08396281392131e-05,-2.56132494215425e-05,-7.19910282286022e-05,2.54068229167004e-05,-7.13126251191986e-05,-0.000106987565379279,-6.44292765391596e-05,-1.96623602454838e-05,2.93100626958059e-05,0.0018825025983655,0.00299000522647671,0.00104364004226654,0.001668707077017,0.00124907780091423,0.0008503511092224,0.00128378299949869,0.00116807351039842,0.0025783500773869,0.00206627203773952,0.00266534186055828,-0.940371456500489,-0.202485686356654,-0.0181538891216308,-0.971652003910069,0
-1.82579041736321e-05,-3.83837570042105e-05,-2.8851110112804e-05,-2.55847690596128e-05,-7.03967785642731e-05,2.62841890023822e-05,-6.85210322950254e-05,-0.000103205061848415,-7.12851080784315e-05,-3.89295871298283e-05,2.39090615482252e-05,0.00186424469419187,0.0029516214694725,0.00101478893215373,0.00164312230795739,0.00117868102234996,0.000876635298224783,0.00121526196720366,0.00106486844855,0.00250706496930847,0.00202734245060969,0.0026892509221065,-0.924731182795699,-0.206954335986594,-0.0270911883815107,-0.958804636223991,0
-1.95782345289159e-05,-4.10163529504719e-05,-2.68498228171935e-05,-2.5451913292496e-05,-6.81310420517949e-05,2.6447757852613e-05,-6.41889120153944e-05,-9.69498668950353e-05,-7.7300593639501e-05,-5.71489796226646e-05,1.78057082168359e-05,0.00184466645966295,0.00291060511652202,0.00098793910933654,0.00161767039466489,0.00111054998029816,0.000903083056077396,0.00115107305518827,0.000967918581654965,0.00242976437566897,0.00197019347098702,0.00270705663032334,-0.928641251221896,-0.213657310431504,-0.0276497695852532,-0.970534841502584,0
-2.08662309452723e-05,-4.35887644403207e-05,-2.50236856327421e-05,-2.52499180377283e-05,-6.50924104605127e-05,2.60599381015817e-05,-5.82519577537956e-05,-8.78669605365469e-05,-8.24117602594527e-05,-7.38258069554456e-05,1.10302287544099e-05,0.00182380022871768,0.0028670163520817,0.000962915423703798,0.00159242047662717,0.00104545756983765,0.000929142994178977,0.00109282109743447,0.000880051621118418,0.00234735261540951,0.00189636766403158,0.00271808685907775,-0.933668482055579,-0.227621840525066,-0.038821393660103,-0.979472140762463,0
-2.21194092828885e-05,-4.60970833826417e-05,-2.3478725782107e-05,-2.50139444180697e-05,-6.11180313859448e-05,2.51970680813011e-05,-5.08511375697713e-05,-7.5932538494375e-05,-8.6565193513142e-05,-8.84337972334125e-05,3.63381749435071e-06,0.00180168081943479,0.00282091926869906,0.000939436697921691,0.0015674065322091,0.000984339538451706,0.000954340062260279,0.0010419699598647,0.000804119082624043,0.00226078742189637,0.00180793386679817,0.0027217206765721,-0.918586789554531,-0.211981566820276,-0.0326770004189356,-0.953777405390309,0
-2.33352508162497e-05,-4.85373337047608e-05,-2.22328009546807e-05,-2.47764752574656e-05,-5.59526825116318e-05,2.39094690030818e-05,-4.24471451202395e-05,-6.19291527689728e-05,-8.97178565790447e-05,-0.000100399820809097,-4.31471515358961e-06,0.00177834556861854,0.0027723819349943,0.00091720389696701,0.00154263005695163,0.000928386855940074,0.00097824953126336,0.00099952281474446,0.000742189929855071,0.00217106956531733,0.00170753404598907,0.00271740596141851,-0.925848345203184,-0.191872643485547,-0.0282083507889957,-0.965507610668901,0
-2.45111964420743e-05,-5.09054466186812e-05,-2.12433761204253e-05,-2.45651188681185e-05,-4.92346321322794e-05,2.22420473990274e-05,-3.38121986153469e-05,-4.75366502557246e-05,-9.18362696529329e-05,-0.000109082182046949,-1.2732363263171e-05,0.00175383437217647,0.00272147648837562,0.000895960520846585,0.00151806493808351,0.000879152223807795,0.00100049157866239,0.000965710616129113,0.000694653279599346,0.0020792332956644,0.00159845186394212,0.00270467359815534,-0.926965507610669,-0.213657310431504,-0.0332355816226781,-0.965507610668901,0
-2.56446402395977e-05,-5.31972320259545e-05,-2.04399289757129e-05,-2.44011541610713e-05,-4.05808728868312e-05,2.0241774317802e-05,-2.58127124524268e-05,-3.4510530712801e-05,-9.2894926226759e-05,-0.00011374521278049,-2.15251750332116e-05,0.00172818973193687,0.00266827925634967,0.000875520591870872,0.00149366378392244,0.000838571350920963,0.00102073335298019,0.000939897903676686,0.000660142748886545,0.00198633836943764,0.00148470665116163,0.00268314842312213,-0.926965507610669,-0.214215891635246,-0.0371456500488756,-0.964390448261416,0
-2.67329223606553e-05,-5.54083455658783e-05,-1.9744929831054e-05,-2.42989431633288e-05,-2.99239180686847e-05,1.79604650384873e-05,-1.90936928313734e-05,-2.37130391596816e-05,-9.28738556583827e-05,-0.00011354263770419,-3.05911634188864e-05,0.00170145680957622,0.00261287091078379,0.000855775662039818,0.00146936484075911,0.000808647432852279,0.00103869381801868,0.000920804210845313,0.000636429709726863,0.00189346451377925,0.00137116401345744,0.00265255725970324,-0.925848345203184,-0.218684541265186,-0.045524368105013,-0.964390448261416,0
-2.77733212423103e-05,-5.75342507521752e-05,-1.90821809094768e-05,-2.4266129083372e-05,-1.80619405071674e-05,1.54559442208811e-05,-1.39031133873083e-05,-1.50876783762172e-05,-9.17553537609871e-05,-0.000107545374170775,-3.98227722234802e-05,0.00167368348833391,0.00255533666003161,0.000836693481130342,0.00144509871167574,0.000790585492345111,0.00105414976223956,0.000906901097458005,0.000621342031350646,0.00180170916001827,0.00126361863928666,0.00261273448747976,-0.933109900851836,-0.214774472838989,-0.042172880882558,-0.966624773076386,0
-2.87630451535363e-05,-5.95701755852131e-05,-1.83766809098485e-05,-2.43044019752905e-05,-6.72161425607526e-06,1.27928463554319e-05,-1.01459699971413e-05,-8.26237366863931e-06,-8.95201714244036e-05,-9.48912082139259e-05,-4.91088431423146e-05,0.00164492044318037,0.0024957664844464,0.000818316800220493,0.00142079430970045,0.000783863878089036,0.00106694260859499,0.000896755127460863,0.000613079657682007,0.00171218898859386,0.00116872743107274,0.00256362564433744,-0.928641251221896,-0.219243122468929,-0.0360284876413906,-0.961597542242704,0
-2.96992231086119e-05,-6.15110629771055e-05,-1.75497757627493e-05,-2.44105734526952e-05,2.43746289234359e-06,1.00435452228423e-05,-7.5519799961893e-06,-2.99575432133564e-06,-8.61440001629352e-05,-7.51701370433995e-05,-5.83360679715797e-05,0.00161522122007176,0.00243425542146929,0.000800767024457744,0.00139638373624775,0.00078630134098138,0.00107698615381783,0.000889203147464674,0.000610083903360671,0.00162604498843093,0.00109355729402934,0.00250528957636586,-0.933109900851836,-0.214774472838989,-0.0282083507889957,-0.961038961038961,0
-3.05788952000914e-05,-6.33515142963283e-05,-1.65120693012479e-05,-2.45777368785417e-05,8.79337604112087e-06,7.28924894185861e-06,-5.82141426711349e-06,7.24793352973392e-07,-8.15960929914431e-05,-4.90787882912206e-05,-6.73899368130951e-05,0.00158464232487167,0.00237090390717296,0.000784254955156496,0.00137180599936921,0.000795094717022501,0.00108427540275969,0.00088338173319756,0.000610808696713645,0.00154444889543948,0.00104447850573812,0.00243789963955277,-0.931434157240609,-0.221477447283899,-0.0449657869012705,-0.969976260298841,0
-3.13990024163281e-05,-6.50857253433595e-05,-1.51571108859144e-05,-2.47963614400104e-05,1.2629284431018e-05,4.62077497155404e-06,-4.70373176578512e-06,2.78717670407983e-06,-7.58434373865676e-05,-1.90205896508191e-05,-7.61552079030191e-05,0.00155324332245534,0.00230581818182961,0.000769097844270581,0.0013470096379292,0.000807724001453519,0.00108889617773125,0.000878678001431775,0.000613595873417724,0.00146860545805292,0.0010254579160873,0.00236174443164975,-0.916911045943304,-0.210864404412791,-0.0427314620863005,-0.948750174556626,0
-3.21563759989253e-05,-6.67074141344421e-05,-1.33633911507154e-05,-2.50552434280327e-05,1.45186383925097e-05,2.13765823678705e-06,-4.02368341615702e-06,3.10553963943274e-06,-6.88658036076257e-05,1.10856805621458e-05,-8.45159274723631e-05,0.00152108694645641,0.00223911076769516,0.000755734453119866,0.00132195439450117,0.000822242639846028,0.00109103383596803,0.000874654318015618,0.000616701413057157,0.00139973965444529,0.00103654359664945,0.00227722850417739,-0.929758413629381,-0.201927105152911,-0.039938556067588,-0.963831867057674,0
-3.2847726339464e-05,-6.82097400336065e-05,-1.10216794069107e-05,-2.53422966010556e-05,1.49689542965197e-05,-5.71018270547393e-08,-3.67920724713994e-06,1.71885907411474e-06,-6.06877841486165e-05,3.71290500469188e-05,-9.23550177983185e-05,0.00148823922011695,0.00217090102766156,0.000744712773712955,0.00129661209790011,0.000837211594142548,0.00109097673414098,0.000870975110768478,0.000618420272131272,0.00133905187029667,0.00107367264669636,0.00218487348637907,-0.925848345203183,-0.220360284876414,-0.0544616673648929,-0.962156123446446,0
-3.34696312679992e-05,-6.95852140863559e-05,-8.10873202761685e-06,-2.5645200304736e-05,1.43454751432386e-05,-1.87070475257092e-06,-3.62655551379735e-06,-1.19474089961319e-06,-5.14299455178834e-05,5.6351569895737e-05,-9.95534262999737e-05,0.00145476958884895,0.0021013158135752,0.000736604041685338,0.00127096689759538,0.000851557069285787,0.00108910602938841,0.000867348555254681,0.000617225531231659,0.00128762192477879,0.0011300242165921,0.00208532006007909,-0.929758413629381,-0.220360284876414,-0.0650747102360002,-0.959921798631476,0
-3.40185232709637e-05,-7.08256009457437e-05,-4.7892876861936e-06,-2.59519417502704e-05,1.28982706972229e-05,-3.24586318388876e-06,-3.86017166536027e-06,-5.36156126702109e-06,-4.13675040255457e-05,6.78955041159743e-05,-0.000105988785069182,0.00142075106557799,0.00203049021262946,0.000731814753999145,0.00124501495584511,0.000864455339983009,0.00108586016620452,0.000863488383589321,0.000611863969964638,0.00124625442075325,0.00119791972070808,0.00197933127500991,-0.927524088814411,-0.218125960061444,-0.0499930177349529,-0.956570311409021,0
-3.44906745579992e-05,-7.19218136422187e-05,-1.43597865829106e-06,-2.62512928600024e-05,1.08019760892079e-05,-4.19394534735139e-06,-4.39145595528109e-06,-1.04693147578742e-05,-3.09629259806414e-05,7.23020954354076e-05,-0.000111533464738707,0.00138626039101999,0.00195856839898724,0.000730378775340854,0.00121876366298511,0.000875257316072217,0.00108166622085717,0.00085909692763404,0.000601394655206763,0.0012152914947726,0.00127022181614348,0.00186779781027121,-0.923614020388214,-0.196899874319229,-0.0645161290322578,-0.944840106130429,0
-3.48821777381581e-05,-7.28638037604263e-05,1.53086889254203e-06,-2.65332570110123e-05,8.18511752027462e-06,-4.8179797670243e-06,-5.22968161468379e-06,-1.62093492303331e-05,-2.08283248698921e-05,7.07368476923717e-05,-0.000116051815880102,0.00135137821328183,0.00188570459522681,0.000731909644233396,0.00119223040597409,0.000883442433592492,0.00107684824109014,0.000853867246019356,0.00058518530597643,0.00119446316990271,0.00134095866383585,0.0017517459943911,-0.921938276776986,-0.211981566820276,-0.0600474794023178,-0.950984499371596,0
-3.51889177399453e-05,-7.36404515003636e-05,3.85696815020529e-06,-2.67895095324988e-05,5.14845954047009e-06,-5.29948845664346e-06,-6.36767522293785e-06,-2.22976123130322e-05,-1.16042935683408e-05,6.44631425744081e-05,-0.000119396277397041,0.00131618929554188,0.00181206414372645,0.000735766612383601,0.00116544089644159,0.000888590893132962,0.0010715487526335,0.000847499570796418,0.000562887693663398,0.00118285887633437,0.00140542180641026,0.00163234971699406,-0.915793883535819,-0.226504678117581,-0.0539030861611504,-0.939812875296746,0
-3.54065267337445e-05,-7.42394627705511e-05,5.51011591806954e-06,-2.70138387600035e-05,1.77589681062032e-06,-5.84246125853488e-06,-7.77351408295555e-06,-2.84788598056969e-05,-3.80647400336854e-06,5.46153888139592e-05,-0.000121401915804429,0.00128078276880814,0.0017378246809559,0.000741276728301671,0.00113842705768159,0.000890366789943582,0.00106570629137496,0.000839726056713462,0.000534408833857701,0.001179052402331,0.00146003719522422,0.00151094780118963,-0.921379695573244,-0.218684541265186,-0.0656332914397428,-0.951543080575339,0
-3.55303066940423e-05,-7.4647283982768e-05,6.5893106872924e-06,-2.72025716440149e-05,-1.85910458184719e-06,-6.60581931733384e-06,-9.38774679879015e-06,-3.4519695224054e-05,2.27553144655033e-06,4.21474312329525e-05,-0.00012187891797953,0.0012452524621141,0.00166317739697313,0.000747866038988963,0.00111122448603758,0.000888507685361735,0.00105910047205763,0.000830338309914672,0.000499889138633647,0.00118132793377755,0.00150218462645717,0.0013890688832101,-0.932551319648094,-0.227621840525066,-0.0751291719033651,-0.962714704650189,0
-3.55550908881991e-05,-7.48490494884495e-05,7.22501661778909e-06,-2.73549396095549e-05,-5.68956842044962e-06,-7.66664444440748e-06,-1.11243091385485e-05,-4.01922029615897e-05,6.58360194563407e-06,2.78507217987272e-05,-0.000120602813216676,0.0012096973712259,0.00158832834748468,0.000755091055606752,0.00108386954642802,0.000882818116941286,0.00105143382761322,0.000819214000776124,0.000459696935672057,0.00118791153572319,0.0015300353482559,0.00126846606999343,-0.915235302332076,-0.224270353302611,-0.08518363357073,-0.939254294093004,0
-3.54749897184226e-05,-7.48285810044708e-05,7.53102963775175e-06,-2.74733090989184e-05,-9.65240108374171e-06,-9.02569487036303e-06,-1.28728787499254e-05,-4.52426446904446e-05,9.22620357609325e-06,1.23892932076724e-05,-0.000117303315002936,0.00117422238150747,0.00151349976648021,0.000762622085244504,0.0010563962373291,0.000873165715857544,0.00104240813274286,0.000806341122026198,0.000414454290981613,0.00119713773929928,0.00154242464146357,0.00115116275499049,-0.923614020388214,-0.209188660801564,-0.0935623516268674,-0.942605781315459,0
-3.52829139675752e-05,-7.45684611330605e-05,7.59429014133726e-06,-2.75631736401944e-05,-1.36864112405704e-05,-1.06354044129081e-05,-1.45008719521437e-05,-4.93228280306099e-05,1.03963653661746e-05,-3.66778079631319e-06,-0.000111655950207802,0.0011389394675399,0.00143893130534715,0.000770216375385841,0.00102883306368891,0.000859479304616973,0.00103177272832995,0.000791840250074055,0.000365131462951003,0.00120753410466545,0.00153875686066726,0.00103950680478269,-0.914676721128334,-0.228739002932551,-0.0879765395894425,-0.935902806870549,0
-3.49696562963007e-05,-7.40501997699707e-05,7.47932987758728e-06,-2.76327918385885e-05,-1.77305034113705e-05,-1.2427669686392e-05,-1.58544294693542e-05,-5.1807646195181e-05,1.03084537256464e-05,-1.98205166300062e-05,-0.000103288572181311,0.0011039698112436,0.00136488110557718,0.000777695705263428,0.00100120027185032,0.000841748801205603,0.00101934505864356,0.0007759858206047,0.000313323816755822,0.0012178425583911,0.00151893634403725,0.000936218232601381,-0.923614020388214,-0.199692780337941,-0.0874179583857,-0.933668482055579,0
-3.45220548260783e-05,-7.32544924686191e-05,7.23531723306064e-06,-2.76923725787044e-05,-2.17217054323071e-05,-1.43317296019592e-05,-1.67596209775462e-05,-5.12254005351202e-05,9.16266552022558e-06,-3.56169132706805e-05,-9.18303882258488e-05,0.00106944775641752,0.00129162661310856,0.000784931022496489,0.000973507899271615,0.000820027095773296,0.0010050133290416,0.000759226199627154,0.000262098416220702,0.00122700522391133,0.00148331943076657,0.000844387844375532,-0.921938276776986,-0.204720011171624,-0.090769445608155,-0.940371456500489,0
-3.39191265853825e-05,-7.21615093312309e-05,6.90186407520952e-06,-2.77527655970856e-05,-2.55927091651341e-05,-1.62825984698863e-05,-1.70282298547897e-05,-4.36373476995434e-05,7.13122905629006e-06,-5.06319102964046e-05,-7.7051107731661e-05,0.00103552862983214,0.00121946510377733,0.000791832886571699,0.000945755133674529,0.000794434386608162,0.000988730730571714,0.000742197969772365,0.000218461068521158,0.00123413645296762,0.00143268752047017,0.000767336736643871,-0.911883815109621,-0.210305823209049,-0.0907694456081549,-0.927524088814411,0
-3.31233412034066e-05,-7.07509915119705e-05,6.51306073489724e-06,-2.78237101865315e-05,-2.92685482665765e-05,-1.82236322646456e-05,-1.64772575389406e-05,-2.30789753144097e-05,4.35730491592581e-06,-6.4437758883372e-05,-5.91328569205105e-05,0.00100240528862873,0.00114871411226536,0.000798345947306596,0.000917931423487998,0.000765165838341585,0.000970507098307068,0.000725720712233424,0.000195382093206749,0.00123849375788354,0.0013682497615868,0.00070820387972336,-0.918586789554531,-0.203602848764139,-0.0762463343108501,-0.939254294093004,0
-3.20591144128228e-05,-6.90015070919745e-05,6.10012283212835e-06,-2.79118047191964e-05,-3.26619092123161e-05,-2.0106257171106e-05,-1.49754612840124e-05,4.10504890950274e-06,9.59715582986125e-07,-7.65464886377796e-05,-3.90155046502749e-05,0.000970346174215908,0.00107971260517338,0.000804446070138724,0.000890019618768802,0.000732503929129269,0.000950400841135962,0.000710745250949412,0.000199487142116251,0.00123945347346653,0.00129170327294902,0.000669188375073085,-0.918586789554531,-0.197458455522971,-0.0874179583857,-0.936461388074291,0
-3.05542329423908e-05,-6.68870303618505e-05,5.69313154376457e-06,-2.80184446502003e-05,-3.56663702600187e-05,-2.18886085361424e-05,-1.25238615757273e-05,2.4797421391821e-05,-2.96055337916084e-06,-8.6272091677684e-05,-1.85347230308312e-05,0.000939791941273518,0.00101282557481153,0.000810139201682489,0.000862001174118601,0.00069683755886925,0.00092851223259982,0.000698221389373684,0.000224284563508072,0.00123649292008737,0.00120543118127133,0.000650653652042254,-0.926406926406926,-0.192431224689289,-0.090769445608155,-0.935344225666806,0
-2.81685767032997e-05,-6.4365280573611e-05,5.32223852767514e-06,-2.81379938849703e-05,-3.81466083554629e-05,-2.35338693202619e-05,-9.34398669263307e-06,3.97826088243774e-05,-7.31411245842974e-06,-9.23501352932635e-05,-9.7739958346884e-10,0.000911623364570218,0.000948460294237922,0.000815461440210164,0.000833863180233631,0.000658690950513788,0.000904978363279558,0.000688877402681051,0.00026406717233245,0.00122917880762894,0.00111308104597807,0.000650652674642671,-0.930316994833123,-0.188521156263091,-0.0952380952380949,-0.939254294093004,0
-2.37751402641018e-05,-6.13383912023522e-05,5.01857460295102e-06,-2.82563797316101e-05,-3.99244261215948e-05,-2.50085489446515e-05,-5.89699619051444e-06,5.11155255300753e-05,-1.20180413708756e-05,-9.17981086952023e-05,1.46743333274694e-05,0.000887848224306116,0.00088712190303557,0.000820480014813115,0.000805606800502021,0.000618766524392193,0.000879969814334906,0.000682980406490537,0.000315182697862525,0.00121716076625806,0.00102128293728287,0.00066532700797014,-0.930316994833124,-0.196899874319229,-0.103616813294232,-0.935344225666806,0
-1.57511682877687e-05,-5.75023271173212e-05,4.81498654393824e-06,-2.83501399633817e-05,-4.07597575165498e-05,-2.6280652305856e-05,-2.76392003260113e-06,5.85828629246474e-05,-1.6992114979592e-05,-7.71217159283041e-05,2.46344182777414e-05,0.000872097056018347,0.000829619575918248,0.000825295001357053,0.000777256660538639,0.000578006766875643,0.00085368916202905,0.000680216486457936,0.000373765560787173,0.00120016865127847,0.000944161221354564,0.000689961426247881,-0.925848345203184,-0.204161429967881,-0.114788437369082,-0.936461388074291,0
-5.86781918524145e-06,-5.16336362639631e-05,4.74662330475592e-06,-2.838571909167e-05,-4.03278394697107e-05,-2.73175145220396e-05,-4.36313077034818e-07,6.24778557225724e-05,-2.21563206919539e-05,-3.83695073994268e-05,3.00667762588462e-05,0.000866229236833106,0.000777985939654285,0.000830041624661809,0.000748870941446969,0.000537678927405932,0.000826371647507011,0.000679780173380901,0.000436243416509745,0.00117801233058652,0.000905791713955137,0.000720028202506728,-0.921938276776986,-0.217008797653959,-0.110319787739142,-0.931434157240609,0
1.26969403674033e-06,-3.85394670106971e-05,4.85128430157853e-06,-2.83184879592953e-05,-3.82003726742191e-05,-2.80829471023988e-05,8.31538636222504e-07,6.36590185533401e-05,-2.74294704893476e-05,1.03274030488566e-05,3.17658028453064e-05,0.000867498930869846,0.000739446472643588,0.000834892908963388,0.000720552453487674,0.000499478554731713,0.000798288700404612,0.000680611712017123,0.000499902435063085,0.00115058286009717,0.000916119117003994,0.000751794005352034,-0.913559558720849,-0.225387515710096,-0.110878368942885,-0.934785644463064,0
5.52463850506048e-06,-7.60450515003121e-06,5.16931077803576e-06,-2.80903800552077e-05,-3.38544606393213e-05,-2.85332946418395e-05,1.02660392490444e-06,6.29096771141661e-05,-3.27286590744501e-05,3.97723672460295e-05,3.07058835766412e-05,0.000873023569374907,0.000731841967493557,0.000840062219741423,0.000692462073432466,0.000465624094092392,0.000769755405762772,0.000681638315942028,0.000562812112177251,0.00111785420102272,0.000955891484250023,0.000782499888928675,-0.913559558720849,-0.236000558581204,-0.110878368942885,-0.936461388074291,0
8.60505176547501e-06,3.53853546565252e-05,5.7426394848675e-06,-2.76236294261744e-05,-2.67590416957706e-05,-2.86123860997044e-05,2.9064287902932e-07,6.07634655828179e-05,-3.79693092010078e-05,5.06198524119399e-05,2.78057002318783e-05,0.000881628621140382,0.000767227322150082,0.000845804859226291,0.000664838444006292,0.000438865052396621,0.000741143019663068,0.000681928958821057,0.000623575577760069,0.00107988489182171,0.00100651133666196,0.000810305589160554,-0.905739421868454,-0.254992319508449,-0.119257086999022,-0.934785644463064,0
1.14039056434363e-05,5.26314525274203e-05,6.61246592947124e-06,-2.68040507566964e-05,-1.65982213676394e-05,-2.82474923355247e-05,-1.16948234130175e-06,5.75646725227796e-05,-4.30655505656318e-05,5.28095354428112e-05,2.38481767416068e-05,0.000893032526783818,0.000819858774677502,0.000852417325155762,0.000638034393249595,0.000422266831028982,0.000712895527327543,0.000680759476479755,0.000681140250282849,0.00103681934125608,0.00105932087210477,0.00083415376590216,-0.910766652702136,-0.241027789414886,-0.117022762184052,-0.934227063259321,0
1.42645914554632e-05,5.81773295429432e-05,7.81485847997784e-06,-2.54345196219122e-05,-3.60892422143761e-06,-2.73558689288703e-05,-3.13559293550986e-06,5.35473494322125e-05,-4.7930679979868e-05,5.1059428413098e-05,1.94753247585235e-05,0.000907297118239281,0.000878036104220446,0.00086023218363574,0.000612599873627683,0.000418657906807544,0.000685539658398673,0.000677623883544246,0.000734687599715061,0.000988888661276211,0.00111038030051787,0.000853629090660684,-0.909090909090909,-0.226504678117581,-0.108085462924172,-0.928082670018154,0
1.72715870271183e-05,6.19284386712036e-05,9.3737926236718e-06,-2.30961039462509e-05,1.11963751060018e-05,-2.58885464328233e-05,-5.39868620274891e-06,4.8887157040406e-05,-5.24774260438003e-05,4.71658089611783e-05,1.52049170940296e-05,0.0009245687052664,0.000939964542891649,0.000869605976259412,0.000589503769681432,0.000429854281913546,0.00065965111196585,0.000672225197341497,0.000783574756755467,0.000936411235232411,0.00115754610947905,0.000868834007754714,-0.918028208350789,-0.243262114229856,-0.110319787739142,-0.940371456500489,0
2.03385535671874e-05,6.49886868584994e-05,1.12917105271034e-05,-1.87202238852428e-05,2.62454165735855e-05,-2.39449297042327e-05,-7.76001557240046e-06,4.3730612083802e-05,-5.66176562247437e-05,4.19051414851203e-05,1.14454297882126e-05,0.000944907258833587,0.00100495322975015,0.000880897686786515,0.000570783545796189,0.000456099698487131,0.000635706182261617,0.000664465181769096,0.000827305368839269,0.000879793579007667,0.00119945125096417,0.000880279437542926,-0.912442396313364,-0.241027789414886,-0.119257086999022,-0.935902806870549,0
2.32775340849082e-05,6.75824513457187e-05,1.35391387665871e-05,-9.68004109976528e-06,4.00356148455155e-05,-2.18953733415769e-05,-1.00230061518666e-05,3.82108429931659e-05,-6.02609456485949e-05,3.569517816917e-05,8.50197051180108e-06,0.000968184792918495,0.00107253568109587,0.000894436825553102,0.000561103504696424,0.000496135313332647,0.00061381080892004,0.00065444217561723,0.000865516211832435,0.000819532633359072,0.00123514642913334,0.000888781408054727,-0.905180840664711,-0.239910627007401,-0.11422985616534,-0.926965507610669,0
2.59043248007403e-05,6.97791106890914e-05,1.60470253974826e-05,6.36079976348478e-06,5.16786274003827e-05,-2.02588088972519e-05,-1.19807459345488e-05,3.24556834266885e-05,-6.33109010219773e-05,2.8821601243436e-05,6.57321715823102e-06,0.000994089117719235,0.00114231479178496,0.000910483850950585,0.000567464304459909,0.00054781394073303,0.000593552000022788,0.000642461429682681,0.000897971895259124,0.000756221732337095,0.00126396803037678,0.000895354625212958,-0.914118139924591,-0.231531908951264,-0.0997067448680349,-0.938137131685519,0
2.8120174843818e-05,7.16093471344785e-05,1.87071014757105e-05,2.30761367154243e-05,6.09748046003459e-05,-1.92779874627425e-05,-1.3400309055906e-05,2.65911448278228e-05,-6.56568392840592e-05,2.1521687088587e-05,5.74291083206579e-06,0.00102220929256305,0.00121392413891944,0.000929190952426295,0.000590540441175333,0.000608788745333376,0.000574274012560046,0.000629061120626775,0.000924563040086946,0.000690564893053036,0.00128548971746536,0.000901097536045024,-0.912442396313364,-0.232090490155006,-0.0941209328306099,-0.935344225666806,0
2.99184477648058e-05,7.30938857277747e-05,2.13842988053048e-05,3.33764763972439e-05,6.81499469648181e-05,-1.86205823998087e-05,-1.40041235857459e-05,2.07416914644876e-05,-6.71550346106813e-05,1.40142043382706e-05,5.97171397318191e-06,0.00105212774032786,0.00128701802464721,0.0009505752512316,0.000623916917572577,0.000676938692298194,0.000555653430160237,0.000615056997041029,0.000945304731551434,0.000623409858442355,0.00129950392180363,0.000907069250018206,-0.904622259460969,-0.232090490155006,-0.10529255690546,-0.934227063259321,0
3.13444988221442e-05,7.4251592081884e-05,2.39396052585499e-05,3.90728798691608e-05,7.35730986420392e-05,-1.72609083140283e-05,-1.34511691197506e-05,1.50279225221569e-05,-6.75841898945631e-05,6.50424675687042e-06,7.09656905807491e-06,0.00108347223915,0.0013612696167291,0.00097451485649015,0.000662989797441738,0.000750511790940233,0.000538392521846209,0.000601605827921278,0.000960332654073591,0.000555825668547791,0.0013060081685605,0.000914165819076281,-0.914676721128334,-0.249965088674766,-0.113671274961597,-0.937578550481776,0
3.24572866167248e-05,7.51014849268512e-05,2.62548152234041e-05,4.28099919136156e-05,7.75978672385719e-05,-1.28534559944749e-05,-1.13314784545168e-05,9.56197144607381e-06,-6.65314173669299e-05,-8.26233096303105e-07,8.84411872410697e-06,0.00111592952576673,0.00143637110165595,0.00100076967171355,0.000705799789355353,0.000828109658178805,0.000525539065851734,0.000590274349466762,0.000969894625519665,0.000489294251180862,0.0013051819354642,0.000923009937800388,-0.920262533165759,-0.237676302192431,-0.102499650886747,-0.940930037704231,0
3.33099671040271e-05,7.56628371105983e-05,2.82488578520945e-05,4.56494931386591e-05,8.05084051521534e-05,-1.47867883111064e-06,-7.21315134878751e-06,4.44104637284859e-06,-6.3091436202131e-05,-7.83524258355143e-06,1.08613090965915e-05,0.00114923949287076,0.00151203393876655,0.00102901852956565,0.000751449282494012,0.000908618063330958,0.000524060387020623,0.000583061198117974,0.000974335671892513,0.000426202814978731,0.00129734669288065,0.000933871246896979,-0.921379695573244,-0.231531908951264,-0.0952380952380949,-0.939254294093004,0
3.39445316499519e-05,7.59547555694521e-05,2.9880930560558e-05,4.79572003667942e-05,8.25165100461502e-05,1.46618208958524e-05,-8.10005335158273e-07,-2.6001111402081e-07,-5.53043444214443e-05,-1.44365706612329e-05,1.27604686126465e-05,0.00118318402452071,0.001587988694336,0.00105889946012621,0.000799406482860807,0.000991134573377108,0.000538722207916475,0.000582251192782816,0.000974075660778492,0.000370898470557286,0.00128291012221942,0.000946631715509626,-0.918586789554532,-0.238793464599916,-0.0991481636642924,-0.942047200111716,0
