dfreq810,dfreq1012,dfreq1214,dfreq1416,dfreq1618,dfreq1820,dfreq2022,dfreq2224,dfreq2426,dfreq2628,dfreq2830,freq810,freq1012,freq1214,freq1416,freq1618,freq1820,freq2022,freq2224,freq2426,freq2628,freq2830,allAccBX,allAccBY,allAccTX,allAccTY,pcd
0,0,0,0,0,0,0,0,0,0,0,0.000792515378028073,0.00118603887270125,0.00140686053618195,0.00181489293174979,0.00116849127281944,0.00190894608370171,0.00119870952559087,0.000674578059948375,0.000335126317022437,0.00157763974442473,0.00167596362179409,-0.898780431038495,0.0199692780337944,-0.163315179444211,-0.8970348647768,0
2.10305426271457e-05,4.07269840214596e-05,6.2921970150679e-05,0.000109576963138116,-4.942794820194e-05,5.12563769627823e-05,-4.19963703872589e-06,-3.82571119565108e-05,-6.39149087968668e-06,-2.78760493727581e-06,4.27163708771048e-05,0.000813545920655219,0.00122676585672271,0.00146978250633263,0.0019244698948879,0.0011190633246175,0.00196020246066449,0.00119450988855214,0.000636320947991864,0.000328734826142751,0.00157485213948746,0.00171867999267119,-0.888423404552436,0.0265326071777687,-0.136573104315039,-0.890099148163664,0
2.14021460913958e-05,4.20257525298284e-05,6.92880243794124e-05,0.000111255399366378,-5.22510290306396e-05,5.08628030931229e-05,-3.89918533435303e-06,-2.95612710335466e-05,7.28936165221214e-07,6.61225250991621e-06,3.80846605908291e-05,0.000834948066746614,0.00126879160925254,0.00153907053071204,0.00203572529425428,0.00106681229558686,0.00201106526375761,0.00119061070321779,0.000606759676958318,0.000329463762307972,0.00158146439199737,0.00175676465326202,-0.890657729367407,0.0304426756039662,-0.148303309593632,-0.888423404552437,0
2.12619665041079e-05,4.21570524939054e-05,7.37660657289026e-05,0.000110126288055254,-5.33244232482064e-05,4.9395002755903e-05,-2.20013433323328e-06,-1.76589882130547e-05,1.7709117318921e-05,1.91941424164425e-05,3.17773718802551e-05,0.000856210033250722,0.00131094866174644,0.00161283659644095,0.00214585158230954,0.00101348787233866,0.00206046026651352,0.00118841056888456,0.000589100688745263,0.000347172879626893,0.00160065853441381,0.00178854202514228,-0.911883815109621,0.0315598380114511,-0.137131685518782,-0.907973746683424,0
2.1062496398806e-05,4.20574468540035e-05,7.74242918626124e-05,0.000108541545987412,-5.34606061416945e-05,4.79094333088073e-05,1.09283982617763e-06,-5.06429530203883e-08,5.07842478350512e-05,3.3736999470462e-05,2.5095864034679e-05,0.000877272529649528,0.00135300610860045,0.00169026088830356,0.00225439312829695,0.000960027266196964,0.00210836969982232,0.00118950340871073,0.000589050045792243,0.000397957127461944,0.00163439553388428,0.00181363788917696,-0.904063678257226,0.0282083507889962,-0.144393241167434,-0.902387934645999,0
2.08077506012607e-05,4.17678679074582e-05,8.02359989342334e-05,0.000106515342401419,-5.19824263147212e-05,4.63206622096706e-05,6.16523625870404e-06,2.64226619713392e-05,7.82316441936276e-05,4.86817490476894e-05,1.84302501316648e-05,0.000898080280250789,0.0013947739765079,0.00177049688723779,0.00236090847069837,0.000908044839882242,0.00215469036203199,0.00119566864496944,0.000615472707763582,0.000476188771655571,0.00168307728293197,0.00183206813930862,-0.897360703812317,0.0315598380114511,-0.134338779500069,-0.901829353442256,0
2.05012628353543e-05,4.13130490969043e-05,8.22670546471748e-05,0.000104060987015368,-4.51060969790965e-05,4.45242427482913e-05,1.29611090840484e-05,5.61573761986476e-05,9.0520892164593e-05,6.24453436839771e-05,1.22189772295864e-05,0.000918581543086143,0.00143608702560481,0.00185276394188497,0.00246496945771373,0.000862938742903146,0.00219921460478028,0.00120862975405349,0.000671630083962229,0.000566709663820165,0.00174552262661594,0.00184428711653821,-0.915793883535819,0.0259740259740262,-0.147186147186147,-0.902387934645999,0
2.01462018493652e-05,4.07105127509175e-05,8.36116043598197e-05,0.000101191746033927,-7.24870090089446e-06,4.24122252543828e-05,2.10486959925098e-05,7.74491728707208e-05,9.62109423335195e-05,7.38789609280089e-05,6.92425776911763e-06,0.000938727744935509,0.00147679753835573,0.00193637554624479,0.00256616120374766,0.000855690042002251,0.00224162683003467,0.001229678450046,0.00074907925683295,0.000662920606153684,0.00181940158754395,0.00185121137430733,-0.897360703812316,0.0410557184750735,-0.147186147186147,-0.890099148163664,0
1.97454495846431e-05,3.99741709044281e-05,8.43586878905838e-05,9.79213534816623e-05,6.87226802017063e-05,3.98897065215791e-05,2.96414667974791e-05,8.77974129052734e-05,9.93849474256386e-05,8.24256532949634e-05,2.99977244195703e-06,0.000958473194520152,0.00151677170926015,0.00202073423413537,0.00266408255722932,0.000924412722203958,0.00228151653655625,0.00125931991684347,0.000836876669738223,0.000762305553579323,0.00190182724083892,0.00185421114674928,-0.899595028627286,0.0444072056975285,-0.142717497556207,-0.894567797793604,0
1.93016561182777e-05,3.91158349960033e-05,8.45810606738655e-05,9.42643314444979e-05,0.000101409285324051,3.68880314544173e-05,3.78396511884016e-05,9.1102325560659e-05,0.000101158589699137,8.79971850828087e-05,8.49110373894518e-07,0.000977774850638429,0.00155588754425616,0.00210531529480924,0.00275834688867382,0.00102582200752801,0.00231840456801066,0.00129715956803188,0.000927978995298882,0.00086346414327846,0.00198982442592172,0.00185506025712318,-0.901270772238514,0.040497137271331,-0.139924591537494,-0.904063678257226,0
1.88172800320854e-05,3.81458866966532e-05,8.43346371739843e-05,9.02361867232086e-05,0.000110829423213173,3.33718448794948e-05,4.49398097437852e-05,9.04789725974021e-05,0.00010183676850648,9.07635651514827e-05,7.75020475228235e-07,0.000996592130670515,0.00159403343095281,0.00218964993198322,0.00284858307539703,0.00113665143074118,0.00235177641289016,0.00134209937777566,0.00101845796789628,0.00096530091178494,0.00208058799107321,0.00185583527759841,-0.896243541404832,0.0321184192151936,-0.146627565982404,-0.894567797793604,0
1.82946193430203e-05,3.70736080872818e-05,8.36615597489153e-05,8.58535250798419e-05,0.000116153557598993,2.93397011021305e-05,5.05880943327721e-05,8.74978938065058e-05,0.000101490216570038,9.09909319720108e-05,2.92310174515348e-06,0.00101488675001354,0.00163110703904009,0.00227331149173213,0.00293443660047687,0.00125280498834017,0.00238111611399229,0.00139268747210843,0.00110595586170279,0.00106679112835498,0.00217157892304522,0.00185875837934356,-0.899595028627286,0.0259740259740262,-0.143276078759949,-0.895684960201089,0
1.77358360802262e-05,3.59073733999188e-05,8.25937976603555e-05,8.11341088324661e-05,0.000119978927594167,2.48199083746647e-05,5.47321504422904e-05,8.29300675292445e-05,0.000100117628739498,8.89556724774769e-05,7.22897161949945e-06,0.00103262258609376,0.00166701441244001,0.00235590528939249,0.00301557070930934,0.00137278391593434,0.00240593602236695,0.00144741962255072,0.00118888592923203,0.00116690875709448,0.00226053459552269,0.00186598735096306,-0.904622259460969,0.0136852394916913,-0.148861890797374,-0.897919285016059,0
1.71429763922853e-05,3.46547837437453e-05,8.1156223089766e-05,7.60968742980848e-05,0.000122767579452689,1.98639887438855e-05,5.74887083185673e-05,7.71921632201497e-05,9.77005829684509e-05,8.49122755173697e-05,1.33834860124654e-05,0.00104976556248605,0.00170166919618376,0.00243706151248226,0.00309166758360742,0.00149555149538703,0.00242580001111084,0.00150490833086929,0.00126607809245218,0.00126460934006293,0.00234544687104006,0.00187937083697552,-0.913559558720849,0.0086580086580089,-0.147186147186147,-0.904622259460969,0
1.6517987360238e-05,3.33227763563081e-05,7.93689596893174e-05,7.07619199081968e-05,0.000124623857835737,1.45397755593321e-05,5.90330984094061e-05,7.05409593059936e-05,9.42253319256791e-05,7.90883467382516e-05,2.0832505158574e-05,0.00106628354984628,0.00173499197254006,0.00251643047217157,0.00316242950351562,0.00162017535322277,0.00244033978667017,0.0015639414292787,0.00133661905175818,0.00135883467198861,0.00242453521777832,0.0019002033421341,-0.901270772238514,0.0215053763440863,-0.136573104315039,-0.900712191034772,0
1.58627312725477e-05,3.19177196867041e-05,7.72490858678338e-05,6.51504722721037e-05,0.00012556997821365,8.9253670615139e-06,5.95400554123016e-05,6.315745163976e-05,8.96923706395871e-05,7.16900078961539e-05,2.88219566828018e-05,0.00108214628111883,0.00176690969222677,0.00259367955803941,0.00322757997578772,0.00174574533143642,0.00244926515373169,0.001623481484691,0.00139977650339794,0.00144852704262819,0.00249622522567447,0.0019290252988169,-0.901829353442257,0.0220639575478287,-0.145510403574919,-0.899595028627287,0
1.51789978678318e-05,3.04454978619117e-05,7.48118385171287e-05,5.9284835203613e-05,0.000125610320767556,3.10440668518973e-06,5.91625124150841e-05,5.51852555990195e-05,8.41206938126185e-05,6.29095624506302e-05,3.64850590027085e-05,0.00109732527898666,0.00179735519008868,0.00266849139655654,0.00328686481099134,0.00187135565220397,0.00245236956041688,0.00168264399710608,0.00145496175899696,0.00153264773644081,0.0025591347881251,0.00196551035781961,-0.900153609831029,0.0276497695852537,-0.142158916352464,-0.897360703812316,0
1.44685149000231e-05,2.89115854713402e-05,7.20714513911622e-05,5.31883252663018e-05,0.000124750024363971,-2.83732068389643e-06,5.80294820253472e-05,4.67492704332177e-05,7.75493696609714e-05,5.29322310984771e-05,4.29524387842791e-05,0.00111179379388669,0.00182626677556002,0.0027405628479477,0.00334005313625764,0.00199610567656794,0.00244953223973298,0.00174067347913143,0.00150171102943018,0.00161019710610178,0.00261206701922358,0.00200846279660389,-0.897919285016059,0.0360284876413911,-0.133780198296327,-0.897919285016059,0
1.37329572876073e-05,2.7321112981167e-05,6.90417328796534e-05,4.688519643592e-05,0.000123000688808728,-8.81420580534911e-06,5.62509222814501e-05,3.79652584416993e-05,7.00375625592197e-05,4.19410423543177e-05,4.74570391651445e-05,0.00112552675117429,0.00185358788854119,0.00280960458082735,0.00338693833269356,0.00211910636537667,0.00244071803392763,0.00179692440141288,0.00153967628787187,0.001680234668661,0.00265400806157789,0.00205591983576903,-0.900153609831029,0.0337941628264211,-0.143276078759949,-0.897360703812317,0
1.29739550497672e-05,2.56789231395276e-05,6.57364595945818e-05,4.04005558462773e-05,0.000120381833599324,-1.47423157337355e-05,5.39238853386353e-05,2.89449588428646e-05,6.16635567855523e-05,3.01198694269665e-05,4.94097339989287e-05,0.00113850070622406,0.00187926681168071,0.00287534104042193,0.00342733888853984,0.00223948819897599,0.00242597571819389,0.00185084828675152,0.00156862124671474,0.00174189822544655,0.00268412793100486,0.00210532956976796,-0.903505097053484,0.0175953079178888,-0.150537634408602,-0.902387934645999,1
1.21931001935277e-05,2.3989618933665e-05,6.21696398537008e-05,3.37602721644918e-05,0.000116920868331573,-2.05402937628238e-05,5.11378349021901e-05,1.97988697327363e-05,5.25230876186214e-05,1.76548976424939e-05,4.84351604073722e-05,0.00115069380641759,0.00190325643061438,0.00293751068027563,0.00346109916070433,0.00235640906730757,0.00240543542443107,0.00190198612165371,0.00158842011644748,0.00179442131306518,0.00270178282864735,0.00215376473017533,-0.908532327887166,0.00754084625052392,-0.153330540427314,-0.904063678257226,1
1.1391952689256e-05,2.225760382883e-05,5.83556848464005e-05,2.69908778627627e-05,0.000112652560763326,-2.6129773486528e-05,4.79786084236239e-05,1.06377478330884e-05,4.27271735545867e-05,4.73485826634271e-06,4.43716434025574e-05,0.00116208575910685,0.00192551403444321,0.00299586636512203,0.00348809003856709,0.00246906162807089,0.00237930565094454,0.00194996473007733,0.00159905786428056,0.00183714848661976,0.0027065176869137,0.00219813637357789,-0.911883815109621,0.00474794023181145,-0.155006284038542,-0.901829353442256,1
1.05720456522952e-05,2.0487115112448e-05,5.43095137865734e-05,2.01194664709303e-05,0.000107618371910198,-3.14352867267519e-05,4.45310769576039e-05,1.57337812401164e-06,3.2399588574109e-05,-8.44966397156501e-06,3.72472997748814e-05,0.00117265780475914,0.00194600114955566,0.00305017587890861,0.00350820950503802,0.00257667999998109,0.00234787036421779,0.00199449580703493,0.00160063124240458,0.00186954807519387,0.00269806802294213,0.00223538367335277,-0.906856584275939,0.00698226504678142,-0.146627565982404,-0.902387934645999,1
9.73488983343367e-06,1.86822511914807e-05,5.00466114003186e-05,1.31735857788651e-05,0.000101865790811421,-3.6383451240627e-05,4.08806993270651e-05,-7.28107154825022e-06,2.1674084978918e-05,-2.17075875542003e-05,2.72453193508096e-05,0.00118239269459257,0.00196468340074714,0.00310022249030893,0.00352138309081689,0.00267854579079251,0.00231148691297716,0.002035376506362,0.00159335017085633,0.00189122216017279,0.00267636043538793,0.00226262899270358,-0.914118139924591,0.0136852394916913,-0.147744728389889,-0.921938276776986,1
8.88197750874178e-06,1.68469936662674e-05,4.55830506171958e-05,6.18112789088675e-06,9.54477069108396e-05,-4.09008938199256e-05,3.71141507984735e-05,-1.58109075284747e-05,1.06914615211125e-05,-3.48491327832575e-05,1.46679390755455e-05,0.00119127467210132,0.00198153039441341,0.00314580554092612,0.00352756421870777,0.00277399349770335,0.00227058601915724,0.00207249065716047,0.00157753926332785,0.0019019136216939,0.00264151130260467,0.00227729693177913,-0.929199832425639,0.043848624493786,-0.130987292277614,-0.929199832425639,1
8.01478584914182e-06,1.49852249494041e-05,4.09354895643775e-05,-8.29782994759675e-07,8.84218211800172e-05,-4.49097073311022e-05,3.33191439506938e-05,-2.38998186667416e-05,-4.03438169661744e-07,-4.76878684989726e-05,-9.58119357884375e-08,0.00119928945795046,0.00199651561936281,0.0031867410304905,0.00352673443571301,0.00286241531888337,0.00222567631182614,0.00210580980111117,0.00155363944466111,0.00190151018352424,0.0025938234341057,0.00227720111984334,-0.866080156402737,0.0466415305124985,-0.126518642647675,-0.878927524088814,1
7.13477984141475e-06,1.31007421289081e-05,3.61211493652368e-05,-7.83090420656152e-06,8.0850084888871e-05,-4.83177764311073e-05,2.95834957226315e-05,-3.14296692761171e-05,-1.14647187636396e-05,-6.00428295610129e-05,-1.65969262682039e-05,0.00120642423779187,0.00200961636149172,0.00322286217985574,0.00351890353150645,0.00294326540377224,0.00217735853539503,0.0021353932968338,0.00152220977538499,0.0018900454647606,0.00253378060454469,0.00226060419357513,-0.901270772238514,0.0388213936601036,-0.125960061443932,-0.886747660941209,1
6.24341482488534e-06,1.11972677010971e-05,3.11577774473617e-05,-1.47939887148738e-05,7.27981530787456e-05,-5.09977382263773e-05,2.59934488241386e-05,-3.82799520125591e-05,-2.23483456975393e-05,-7.1740532505507e-05,-3.43480287352711e-05,0.00121266765261676,0.00202081362919281,0.0032540199573031,0.00350410954279158,0.00301606355685099,0.00212636079716865,0.00216138674565794,0.00148392982337243,0.00186769711906306,0.00246204007203918,0.00222625616483986,-0.900712191034772,0.044965786901271,-0.194106968300516,-0.878368942885072,1
5.34213870156605e-06,9.27845772699405e-06,2.60635998175934e-05,-2.16908987747894e-05,6.43348419731462e-05,-5.27389082093156e-05,2.26312399557349e-05,-4.43265423842592e-05,-3.29149101133874e-05,-8.26167092783589e-05,-5.28407467180283e-05,0.00121800979131832,0.00203009208691981,0.00328008355712069,0.00348241864401679,0.00308039839882413,0.00207362188895934,0.00218401798561367,0.00143960328098817,0.00183478220894967,0.00237942336276082,0.00217341541812184,-0.913000977517107,0.0673090350509707,-0.205837173579109,-0.894567797793604,0
4.43239387198924e-06,7.34790790011272e-06,2.0857264892329e-05,-2.84937180329539e-05,5.55315829369662e-05,-5.31297609869101e-05,1.95719336877238e-05,-4.9439136443806e-05,-4.30321849970142e-05,-9.25175567153005e-05,-7.15598332723553e-05,0.00122244218519031,0.00203743999481992,0.00330094082201302,0.00345392492598383,0.0031359299817611,0.00202049212797243,0.00220358991930139,0.00139016414454437,0.00179175002395266,0.00228690580604552,0.00210185558484948,-0.862728669180282,0.087976539589443,-0.190196899874319,-0.897919285016059,0
3.51561894419965e-06,5.40915795516116e-06,1.5557780863542e-05,-3.51748608915306e-05,4.64618689506313e-05,-5.12516528196768e-05,1.68796211827966e-05,-5.3476275757905e-05,-5.25774167868557e-05,-0.000101300257432392,-8.99947396633947e-05,0.00122595780413451,0.00204284915277508,0.00331649860287656,0.0034187500650923,0.00318239185071173,0.00196924047515275,0.00222046954048419,0.00133668786878646,0.0017391726071658,0.00218560554861313,0.00201186084518609,-0.852674207512917,0.128752967462645,-0.181259600614439,-0.884513336126239,0
2.59325025938738e-06,3.46569479687826e-06,1.01844481553925e-05,-4.17071777169481e-05,3.72006924413007e-05,-4.4898335251711e-05,1.46032227575535e-05,-5.62760353325217e-05,-6.14393018659714e-05,-0.000108832457418618,-0.000107648904459279,0.0012285510543939,0.00204631484757196,0.00332668305103196,0.00337704288737536,0.00321959254315303,0.00192434213990104,0.00223507276324174,0.00128041183345394,0.00167773330529983,0.00207677309119451,0.00190421194072681,-0.861052925569054,0.180701019410697,-0.142158916352464,-0.856025694735371,0
1.66672327432779e-06,1.52095468603473e-06,4.75678822887309e-06,-4.80640541866296e-05,2.78239755910378e-05,-2.94489226589571e-05,1.27723211281044e-05,-5.76391711227468e-05,-6.95196012639801e-05,-0.000114990273930351,-0.000124046501679344,0.00123021777766823,0.002047835802258,0.00333143983926083,0.00332897883318873,0.00324741651874407,0.00189489321724208,0.00224784508436985,0.00122277266233119,0.00160821370403585,0.00196178281726416,0.00178016543904746,-0.875576036866359,0.222036028487642,-0.157240608853512,-0.827538053344505,0
7.3747383814082e-07,-4.2167521503364e-07,-7.05530214767641e-07,-5.42195026437668e-05,1.84079959457241e-05,-1.73541540921299e-06,1.13936477355607e-05,-5.73001923211635e-05,-7.67343481124715e-05,-0.000119654237365718,-0.000138735663369451,0.00123095525150637,0.00204741412704296,0.00333073430904606,0.00327475933054496,0.00326582451468979,0.00189315780183287,0.00225923873210541,0.00116547247001003,0.00153147935592338,0.00184212857989844,0.00164142977567801,-0.847088395475492,0.234883396173719,-0.148861890797374,-0.802960480379835,0
-1.93060601195831e-07,-2.35885566274643e-06,-6.18276672213584e-06,-6.01482427163139e-05,9.02881135008077e-06,2.74041053299988e-05,1.04489741325838e-05,-5.4883318973118e-05,-8.30145983173264e-05,-0.000122702327814587,-0.000151285940716638,0.00123076219090517,0.00204505527138022,0.00332455154232393,0.00321461108782865,0.00327485332603987,0.00192056190716287,0.00226968770623799,0.00111058915103691,0.00144846475760605,0.00171942625208386,0.00149014383496137,-0.841502583438067,0.225387515710096,-0.160033514872224,-0.81971791649211,0
-1.12343982658185e-06,-4.28729426512958e-06,-1.16551854506867e-05,-6.58257675550896e-05,-2.38310992529533e-07,4.43638468729821e-05,9.89513196713535e-06,-4.98566066321623e-05,-8.83066606720067e-05,-0.000123998963903922,-0.000161275198376248,0.00122963875107859,0.00204076797711509,0.00331289635687324,0.00314878532027356,0.00327461501504734,0.00196492575403585,0.00227958283820513,0.00106073254440475,0.00136015809693405,0.00159542728817993,0.00132886863658513,-0.840944002234325,0.229297584136294,-0.155006284038542,-0.819159335288367,0
-2.05221968478967e-06,-6.20374428961191e-06,-1.71031316462036e-05,-7.12283907055209e-05,-9.31945613392169e-06,5.05447725659457e-05,9.66662879157976e-06,-4.15625919452233e-05,-9.25717083664096e-05,-0.00012337856671432,-0.000168255216343942,0.0012275865313938,0.00203456423282547,0.00329579322522703,0.00307755692956804,0.00326529555891342,0.00201547052660179,0.00228924946699671,0.00101916995245953,0.00126758638856764,0.00147204872146561,0.00116061342024118,-0.862170087976539,0.207512917190337,-0.151096215612344,-0.840385421030582,0
-2.97795089013024e-06,-8.10500311853452e-06,-2.25071075012368e-05,-7.63332666040709e-05,-1.81426084009551e-05,5.1234996019577e-05,9.68084925724718e-06,-2.95463675892577e-05,-9.57845975906345e-05,-0.000120622664529745,-0.000171670471269825,0.00122460858050367,0.00202645922970694,0.0032732861177258,0.00300122366296396,0.00324715295051247,0.00206670552262137,0.00229893031625396,0.000989623584870269,0.001171801790977,0.00135142605693587,0.000988942948971359,-0.864962993995252,0.183493925429409,-0.168412232928362,-0.844854070660522,0
-3.89917776617691e-06,-9.98791013076842e-06,-2.78478466627179e-05,-8.11183745873306e-05,-2.66381788193372e-05,4.92077390610289e-05,9.8452476608008e-06,-1.43843982334303e-05,-9.79315473100171e-05,-0.000115432034441891,-0.000170665185063685,0.00122070940273749,0.00201647131957617,0.00324543827106308,0.00292010528837663,0.00322051477169313,0.0021159132616824,0.00230877556391476,0.000975239186636839,0.00107387024366699,0.00123599402249398,0.000818277763907674,-0.863845831587767,0.195224130708002,-0.166177908113392,-0.835916771400642,0
-4.81443689246243e-06,-1.18493437888741e-05,-3.31063866346082e-05,-8.55624514615374e-05,-3.47395085610958e-05,4.56277166973277e-05,1.00654457728527e-05,1.65326968042177e-06,-9.9005926116824e-05,-0.000107404364298924,-0.000163607040965111,0.00121589496584503,0.0020046219757873,0.00321233188442847,0.0028345428369151,0.00318577526313203,0.00216154097837973,0.00231884100968761,0.000976892456317261,0.000974864317550163,0.00112858965819505,0.000654670722942563,-0.869431643625192,0.188521156263092,-0.181818181818181,-0.831448121770702,0
-5.72225562212102e-06,-1.36862177080362e-05,-3.82641382744181e-05,-8.96448499902746e-05,-4.2383345071582e-05,4.10164531357612e-05,1.02529391813539e-05,1.55946073864264e-05,-9.90003409976805e-05,-9.60518431790817e-05,-0.000146915639246186,0.00121017271022291,0.00199093575807926,0.00317406774615405,0.00274489798692482,0.00314339191806045,0.00220255743151549,0.00232909394886896,0.000992487063703687,0.000875863976552482,0.00103253781501597,0.000507755083696377,-0.857142857142857,0.1544477028348,-0.194106968300516,-0.83312386538193,0
-6.62115043516764e-06,-1.54954754755334e-05,-4.33029515069282e-05,-9.33452881997235e-05,-4.95102890766654e-05,3.564334119292e-05,1.03312656647603e-05,2.57149737218443e-05,-9.78902419409789e-05,-8.09372628911067e-05,-0.000112941887844189,0.00120355155978774,0.00197544028260373,0.00313076479464713,0.0026515526987251,0.00309388162898379,0.00223820077270841,0.00233942521453372,0.00101820203742553,0.000777973734611503,0.000951600552124866,0.000394813195852188,-0.847646976679234,0.164502164502165,-0.187403993855606,-0.843178327049294,0
-7.50962509038933e-06,-1.72740839779525e-05,-4.82051762678176e-05,-9.664343379257e-05,-5.60652128568234e-05,2.96734309129681e-05,1.0239926482602e-05,3.19733007596587e-05,-9.55947561940596e-05,-6.20292345068254e-05,-5.25222813724683e-05,0.00119604193469735,0.00195816619862578,0.00308255961837931,0.00255490926493253,0.00303781641612696,0.00226787420362138,0.00234966514101633,0.00105017533818519,0.000682378978417444,0.000889571317618041,0.00034229091447972,-0.852674207512917,0.141600335148722,-0.194106968300516,-0.847646976679235,0
-8.38616853686761e-06,-1.90190249776897e-05,-5.29537175346507e-05,-9.95182331170932e-05,-6.19976531728624e-05,2.32265199193098e-05,9.93589550612236e-06,3.50922844681151e-05,-9.18654008236236e-05,-4.0215828907605e-05,2.21786601708351e-05,0.00118765576616049,0.00193914717364809,0.00302960590084466,0.00245539103181544,0.0029758187629541,0.00229110072354069,0.00235960103652245,0.00108526762265331,0.00059051357759382,0.000849355488710436,0.000364469574650555,-0.854349951124144,0.12987012987013,-0.191314062281804,-0.850439882697947,0
-9.24925254379406e-06,-2.07272846605294e-05,-5.75320830864968e-05,-0.000101946833876333,-6.72621862332417e-05,1.64024349581658e-05,9.39301487874874e-06,3.58189721461444e-05,-8.58976920931349e-05,-1.74912909185868e-05,7.50528138147892e-05,0.00117840651361669,0.00191841988898756,0.00297207381775816,0.0023534441979391,0.00290855657672086,0.00230750315849885,0.0023689940514012,0.00112108659479945,0.000504615885500685,0.000831864197791849,0.000439522388465344,-0.863845831587767,0.0963552576455804,-0.200251361541684,-0.845971233068007,0
-1.00973290047895e-05,-2.23958408522684e-05,-6.1924422335209e-05,-0.000103902844164855,-7.18187972962975e-05,9.2924090056676e-06,8.59984895250918e-06,3.47110491105106e-05,-7.4643053005863e-05,3.71840459980005e-06,9.60884534003023e-05,0.0011683091846119,0.00189602404813529,0.00291014939542295,0.00224954135377425,0.00283673777942456,0.00231679556750452,0.00237759390035371,0.00115579764390996,0.000429972832494822,0.000835582602391649,0.000535610841865646,-0.875576036866359,0.0756877531071081,-0.204720011171624,-0.861611506772797,0
-1.0928826870169e-05,-2.40216475746672e-05,-6.61155541576896e-05,-0.000105353477872606,-7.56332640150254e-05,1.98431180212059e-06,7.55663925457043e-06,3.21582347596893e-05,-4.63771492205259e-05,2.1645813776456e-05,9.8098773707245e-05,0.00115738035774173,0.00187200240056062,0.00284403384126526,0.00214418787590164,0.00276110451540954,0.00231877987930664,0.00238515053960828,0.00118795587866965,0.000383595683274296,0.000857228416168105,0.000633709615572891,-0.880603267700042,0.0527859237536659,-0.203044267560396,-0.872224549643904,0
-1.17421486577997e-05,-2.56016165795148e-05,-7.00909810822706e-05,-0.000106254783056195,-7.86775803575421e-05,-5.4350026611927e-06,6.27192943815965e-06,2.84443780892573e-05,9.59826622729502e-06,3.56323950365731e-05,9.11169152397641e-05,0.00114563820908393,0.00184640078398111,0.00277394286018299,0.00203793309284545,0.00268242693505199,0.00231334487664545,0.00239142246904644,0.00121640025675891,0.000393193949501591,0.000892860811204678,0.000724826530812655,-0.891774891774892,0.0365870688451336,-0.224270353302611,-0.876134618070101,0
-1.25356664902381e-05,-2.71325954647873e-05,-7.38368863735534e-05,-0.000106543498401903,-8.09304563201565e-05,-1.28787625129447e-05,4.75928825735767e-06,2.37950528723173e-05,5.29831587217343e-05,4.57991486235354e-05,7.99055207208442e-05,0.0011331025425937,0.00181926818851632,0.00270010597380944,0.00193138959444354,0.00260149647873184,0.0023004661141325,0.00239618175730379,0.00124019530963122,0.000446177108223326,0.000938659959828213,0.000804732051533499,-0.873900293255132,0.0494344365312109,-0.195224130708001,-0.864962993995252,0
-1.33077176027096e-05,-2.86113419388551e-05,-7.734010941468e-05,-0.000106122911705757,-8.23779363067476e-05,-2.0260060230684e-05,3.03441308763816e-06,1.84064472781443e-05,6.85717215599967e-05,5.25689971581701e-05,6.67529324292818e-05,0.00111979482499099,0.00179065684657746,0.00262276586439476,0.00182526668273779,0.00251911854242509,0.00228020605390182,0.00239921617039143,0.00125860175690937,0.000514748829783322,0.000991228956986383,0.000871484983962781,-0.892333472978634,0.0522273425499234,-0.208071498394079,-0.866638737606479,0
-1.40565992629951e-05,-3.00344937575988e-05,-8.0588093148256e-05,-0.000104838201873947,-8.30141832302818e-05,-2.7492007836125e-05,1.11278020400443e-06,1.24614632654961e-05,7.40983035631441e-05,5.64024305161734e-05,5.29343934359871e-05,0.00110573822572799,0.00176062235281986,0.0025421777712465,0.00172042848086384,0.00243610435919481,0.00225271404606569,0.00240032895059544,0.00127106322017486,0.000588847133346467,0.00104763138750256,0.000924419377398768,-0.861052925569054,0.0511101801424384,-0.176790950984499,-0.878368942885071,0
-1.47805630399107e-05,-3.13985338140227e-05,-8.35687949705486e-05,-0.000102434831797714,-8.284247138761e-05,-3.44880972603439e-05,-9.92071021570576e-07,6.13843365620073e-06,7.64783639341366e-05,5.77138124701025e-05,3.92802901024201e-05,0.00109095766268808,0.00172922381900584,0.00245860897627595,0.00161799364906613,0.0023532618878072,0.00221822594880535,0.00239933687957387,0.00127720165383107,0.000665325497280603,0.00110534519997266,0.000963699667501188,-0.884513336126239,0.0527859237536659,-0.194106968300516,-0.882837592515011,0
-1.54778083507974e-05,-3.26997498069621e-05,-8.6270549016183e-05,-9.84976473463062e-05,-8.18764118940434e-05,-4.11626917663291e-05,-3.26958259142104e-06,-3.8406708803649e-07,7.74435521801388e-05,5.68594617201493e-05,2.63944465853243e-05,0.00107547985433728,0.00169652406919888,0.00237233842725977,0.00151949600171982,0.00227138547591316,0.00217706325703902,0.00239606729698244,0.00127681758674303,0.000742769049460742,0.00116220466169281,0.000990094114086513,-0.889540566959922,0.043848624493786,-0.171763720150817,-0.894567797793604,0
-1.61464752081806e-05,-3.39341878455766e-05,-8.86818626618228e-05,-9.24056305569032e-05,-8.01413909502103e-05,-4.74316308928585e-05,-5.71254822110626e-06,-6.92431183072482e-06,7.75294921982203e-05,5.4142881023973e-05,1.47383142238974e-05,0.0010593333791291,0.0016625898813533,0.00228365656459795,0.00142709037116292,0.00219124408496294,0.00212963162614616,0.00239035474876134,0.0012698932749123,0.000820298541658962,0.00121634754271678,0.00100483242831041,-0.906298003072196,0.0326770004189361,-0.189638318670576,-0.882279011311269,0
-1.67846360680868e-05,-3.50975992383512e-05,-9.07911224421422e-05,-8.34768373503072e-05,-7.76761248849813e-05,-5.32129723306669e-05,-8.31683936615641e-06,-1.32953077497066e-05,7.69470395545419e-05,4.98229252238491e-05,4.65996366889529e-06,0.00104254874306102,0.00162749228211495,0.00219286544215581,0.00134361353381261,0.00211356796007796,0.0020764186538155,0.00238203790939518,0.0012565979671626,0.000897245581213504,0.00126617046794063,0.00100949239197931,-0.897360703812317,0.0332355816226786,-0.175673788577014,-0.875017455662616,0
-1.73902866507469e-05,-3.61853795247578e-05,-9.2586173032861e-05,-7.16656618921742e-05,-7.45341241106257e-05,-5.84279305415078e-05,-1.1080555150434e-05,-1.93029144738305e-05,7.57992934062806e-05,4.41230785624225e-05,-3.60175140436386e-06,0.00102515845641027,0.00159130690259019,0.00210027926912294,0.00127194787192043,0.00203903383596734,0.00201799072327399,0.00237095735424475,0.00123729505268877,0.000973044874619785,0.00131029354650305,0.00100589064057494,-0.902387934645999,0.0315598380114511,-0.177349532188241,-0.895684960201089,0
-1.79613355475621e-05,-3.71924984435233e-05,-9.4053715339893e-05,-5.8584021552085e-05,-7.07847230288438e-05,-6.30021091881025e-05,-1.4002709047591e-05,-2.47439757124191e-05,7.41475426207408e-05,3.72412612178491e-05,-9.92458877223552e-06,0.00100719712086271,0.00155411440414667,0.00200622555378305,0.00121336385036835,0.00196824911293849,0.00195498861408589,0.00235695464519716,0.00121255107697635,0.00104719241724053,0.0013475348077209,0.000995966051802706,-0.906856584275939,0.042731462086301,-0.166177908113392,-0.899595028627286,0
-1.84955923271625e-05,-3.81134188149293e-05,-9.51784426192499e-05,-4.70110825975315e-05,-6.65132113921265e-05,-6.68671632791361e-05,-1.70816096287797e-05,-2.94045574821145e-05,7.20344256214414e-05,2.93591996341387e-05,-1.43141510223746e-05,0.000988701528535544,0.00151600098533174,0.0019110471111638,0.00116635276777082,0.00190173590154637,0.00188812145080675,0.00233987303556838,0.00118314651949423,0.00111922684286197,0.00137689400735504,0.000981651900780331,-0.900712191034772,0.043848624493786,-0.157799190057254,-0.899036447423544,0
-1.89907536758419e-05,-3.89420008992964e-05,-9.59417916340504e-05,-3.86601848121242e-05,-6.18195591052749e-05,-6.99630619539001e-05,-2.03131262448797e-05,-3.30587957904586e-05,6.94929141623604e-05,2.06505201420324e-05,-1.69121865278788e-05,0.000969710774859702,0.00147705898443244,0.00181510531952975,0.00112769258295869,0.00183991634244109,0.00181815838885285,0.0023195599093235,0.00115008772370377,0.00118871975702433,0.00139754452749707,0.000964739714252452,-0.897360703812317,0.0505515989386959,-0.157799190057254,-0.900712191034772,0
-1.94443867994514e-05,-3.96713860191364e-05,-9.6320121226982e-05,-3.33942806587002e-05,-5.68153373151324e-05,-7.224113921091e-05,-2.36890422964076e-05,-3.54695227428132e-05,6.65500595632474e-05,1.1287159396645e-05,-1.79946588824544e-05,0.000950266388060251,0.00143738759841331,0.00171878519830277,0.00109429830229999,0.00178310100512596,0.00174591724964194,0.00229587086702709,0.00111461820096096,0.00125526981658757,0.00140883168689372,0.000946745055369998,-0.899595028627286,0.0505515989386959,-0.159474933668482,-0.897919285016059,0
-1.98539087839472e-05,-4.02938478430439e-05,-9.62820326601743e-05,-3.02964435582086e-05,-5.16187508483343e-05,-7.36680892910297e-05,-2.71956821814526e-05,-3.63929420651959e-05,6.32286657291908e-05,1.44407811627514e-06,-1.79526076083418e-05,0.000930412479276304,0.00139709375057026,0.00162250316564259,0.00106400185874178,0.00173148225427763,0.00167224916035091,0.00226867518484564,0.00107822525889577,0.00131849848231677,0.00141027576500999,0.000928792447761656,-0.902946515849742,0.0421728808825585,-0.152771959223572,-0.905180840664711,0
-2.02165597074437e-05,-4.08005893446576e-05,-9.57844038418829e-05,-2.85346466087897e-05,-4.63481741313624e-05,-7.42309425671786e-05,-3.08129537229564e-05,-3.55912674003141e-05,5.95481279369609e-05,-8.69749917087282e-06,-1.72519423380356e-05,0.00091019591956886,0.00135629316122561,0.00152671876180071,0.001035467212133,0.00168513408014626,0.00159801821778373,0.00223786223112268,0.00104263399149545,0.00137804661025373,0.00140157826583912,0.000911540505423621,-0.905180840664711,0.0332355816226786,-0.161150677279709,-0.897919285016059,0
-2.05293657599771e-05,-4.11814435278914e-05,-9.47665250805175e-05,-2.75524149469712e-05,-4.11150777861261e-05,-7.39427969198047e-05,-3.45138837953007e-05,-3.28590793699012e-05,5.55249729564616e-05,-1.89479973467764e-05,-1.63747319536081e-05,0.000889666553808883,0.00131511171769772,0.00143195223672019,0.00100791479718602,0.00164401900236014,0.00152407542086393,0.00220334834732738,0.00100977491212555,0.00143357158321019,0.00138263026849234,0.000895165773470013,-0.907973746683424,0.0270911883815112,-0.160033514872224,-0.900153609831029,0
-2.07890860196183e-05,-4.1424397796957e-05,-9.31415561418278e-05,-2.7005728251449e-05,-3.60175330873791e-05,-7.28486513611399e-05,-3.82646535176103e-05,-2.80695505527051e-05,5.11733580910194e-05,-2.91082274737156e-05,-1.57521203266315e-05,0.000868877467789265,0.00127368731990076,0.00133881068057837,0.000980909068934575,0.00160800146927276,0.00145122676950279,0.00216508369380977,0.000981705361572845,0.00148474494130121,0.00135352204101863,0.000879413653143381,-0.906856584275939,0.0304426756039662,-0.155564865242284,-0.902946515849741,0
-2.09921321013513e-05,-4.15147882140219e-05,-9.07846154807096e-05,-2.66805777287125e-05,-3.11354215939467e-05,-7.10301421612983e-05,-4.20250735739345e-05,-2.12416377322941e-05,4.65056643760714e-05,-3.89686669431282e-05,-1.57035491669139e-05,0.000847885335687913,0.00123217253168674,0.00124802606509766,0.000954228491205862,0.00157686604767881,0.00138019662734149,0.00212305862023584,0.000960463723840551,0.00153125060567728,0.0013145533740755,0.000863710103976467,-0.907973746683424,0.0315598380114511,-0.163943583298422,-0.902946515849742,0
-2.11344423266417e-05,-4.14338667187883e-05,-8.75178815254098e-05,-2.64395753797838e-05,-2.65280538897827e-05,-6.86074995027877e-05,-4.57493890863919e-05,-1.26138356000703e-05,4.15332542922475e-05,-4.83091047051869e-05,-1.63953266296867e-05,0.000826750893361272,0.00119073866496795,0.00116050818357225,0.000927788915826079,0.00155033799378903,0.0013115891278387,0.00207730923114944,0.000947849888240481,0.00157278385996953,0.00126624426937031,0.00084731477734678,-0.900153609831029,0.0382628124563611,-0.161150677279709,-0.899595028627287,0
-2.12112790503393e-05,-4.11561629266948e-05,-8.3096718275863e-05,-2.6194331850996e-05,-2.22342897790036e-05,-6.57369310769589e-05,-4.93872702004251e-05,-2.68657253683132e-06,3.6267420203703e-05,-5.68986522123801e-05,-1.78244862325139e-05,0.000805539614310932,0.00114958250204125,0.00107741146529638,0.000901594583975083,0.00152810370401003,0.00124585219676174,0.00202792196094902,0.000945163315703649,0.00160905128017323,0.00120934561715793,0.000829490291114266,-0.897919285016059,0.043848624493786,-0.163385002094679,-0.899036447423544,0
-2.12168952528508e-05,-4.06445050311797e-05,-7.72087128263496e-05,-2.58945824364241e-05,-1.82747051834548e-05,-6.26021416116451e-05,-5.2884826253769e-05,7.81428522987875e-06,3.07205132521525e-05,-6.44964312954634e-05,-1.98255732000497e-05,0.000784322719058081,0.00110893799701007,0.00100020275247003,0.000875700001538659,0.00150982899882657,0.0011832500551501,0.00197503713469525,0.000952977600933528,0.00163977179342538,0.00114484918586247,0.000809664717914217,-0.899036447423544,0.043848624493786,-0.161150677279709,-0.900712191034771,0
-2.11439773511201e-05,-3.9840477596373e-05,-6.95050534024815e-05,-2.55261781473503e-05,-1.46550544744429e-05,-5.93994566948941e-05,-5.61854704021747e-05,1.80664517893604e-05,2.4907210168034e-05,-7.08537686356404e-05,-2.20928428261644e-05,0.000763178741706961,0.0010690975194137,0.000930697699067553,0.000850173823391308,0.00149517394435213,0.0011238505984552,0.00191885166429307,0.000971044052722889,0.00166467900359342,0.00107399541722683,0.000787571875088052,-0.902387934645999,0.041614299678816,-0.155006284038542,-0.904622259460969,0
-2.09827036690677e-05,-3.86461513157612e-05,-5.96706844057277e-05,-2.51095030311026e-05,-1.1370268823399e-05,-5.63136013341484e-05,-5.92304469230493e-05,2.73207729436448e-05,1.88458479356013e-05,-7.57194964873351e-05,-2.42100822003289e-05,0.000742196038037894,0.00103045136809794,0.000871027014661825,0.000825064320360206,0.00148380367552873,0.00106753699712105,0.00185962121737003,0.000998364825666533,0.00168352485152902,0.000998275920739495,0.000763361792887724,-0.902946515849742,0.0326770004189361,-0.156123446446027,-0.900712191034771,0
-2.07191460678311e-05,-3.68906243028791e-05,-4.75262300825288e-05,-2.46887340249668e-05,-8.40842122003032e-06,-5.34251058252472e-05,-6.19588017001713e-05,3.50277198704267e-05,1.25597354244942e-05,-7.88507775616822e-05,-2.56840181448352e-05,0.000721476891970063,0.000993560743795061,0.000823500784579297,0.000800375586335239,0.0014753952543087,0.00101411189129581,0.00179766241566985,0.00103339254553696,0.00169608458695351,0.000919425143177812,0.000737677774742888,-0.911325233905879,0.0142438206954338,-0.165060745705907,-0.910766652702136,0
-2.03325792017774e-05,-3.42792593935403e-05,-3.3341032478815e-05,-2.43052347550636e-05,-5.75433955254251e-06,-3.96606658731494e-05,-6.43065111690156e-05,4.08758379660753e-05,6.0783389800468e-06,-8.00314884185762e-05,-2.59833270725492e-05,0.000701144312768285,0.00095928148440152,0.000790159752100482,0.000776070351580175,0.00146964091475616,0.000974451225422658,0.00173335590450084,0.00107426838350304,0.00170216292593356,0.000839393654759236,0.000711694447670339,-0.913559558720849,0.0254154447702837,-0.170087976539589,-0.909649490294651,0
-1.97911263982153e-05,-3.03697092362256e-05,-1.85646700658384e-05,-2.39575115656949e-05,-3.39275040610256e-06,1.88650214380275e-05,-6.62043651154902e-05,4.47587032771167e-05,-5.61763220824915e-07,-7.90922328017694e-05,-2.45918908840247e-05,0.00068135318637007,0.000928911775165295,0.000771595082034643,0.00075211284001448,0.00146624816435005,0.000993316246860685,0.00166715153938535,0.00111902708678015,0.00170160116271273,0.000760301421957467,0.000687102556786314,-0.895126378997347,0.0382628124563611,-0.142158916352464,-0.894567797793604,0
-1.90455367700949e-05,-2.47776840414243e-05,-5.5925793568378e-06,-2.35594728942283e-05,-1.31093832596665e-06,3.18319703407548e-05,-6.75739973602036e-05,4.67132818253824e-05,-7.31625545545892e-06,-7.58556088142178e-05,-2.10890324641291e-05,0.000662307649599975,0.00090413409112387,0.000766002502677805,0.000728553367120252,0.00146493722602409,0.00102514821720144,0.00159957754202514,0.00116574036860553,0.00169428490725727,0.000684445813143249,0.000666013524322185,-0.910766652702136,0.0511101801424384,-0.136014523111297,-0.910766652702136,0
-1.80235720496017e-05,-1.78440575392126e-05,4.2228019266243e-06,-2.29095654102411e-05,4.99086195654072e-07,3.21765006421144e-05,-6.83211501697519e-05,4.68618432296498e-05,-1.41328682515883e-05,-6.73501934776305e-05,-1.52636512200008e-05,0.000644284077550373,0.000886290033584658,0.00077022530460443,0.000705643801710011,0.00146543631221974,0.00105732471784355,0.00153125639185539,0.00121260221183518,0.00168015203900569,0.000617095619665619,0.000650749873102184,-0.900153609831029,0.0589303169948333,-0.128194386258902,-0.909649490294651,0
-1.66368870632849e-05,-1.09736942828758e-05,1.1132766321656e-05,-2.16807419490055e-05,2.03896376075804e-06,3.14891206490207e-05,-6.83248595124892e-05,4.53697768411853e-05,-2.09516294818251e-05,4.08613088714199e-06,-7.24296229270751e-06,0.000627647190487088,0.000875316339301782,0.000781358070926086,0.000683963059761005,0.0014674752759805,0.00108881383849258,0.0014629315323429,0.00125797198867637,0.00165920040952386,0.000621181750552761,0.000643506910809477,-0.910208071498394,0.0516687613461809,-0.143834659963692,-0.920262533165759,0
-1.4828383296041e-05,-5.47828087169792e-06,1.58464344117512e-05,-1.94571274156353e-05,3.30301703698648e-06,2.99251246812296e-05,-6.74209703042782e-05,4.24193144956092e-05,-2.77056136371709e-05,6.8633573961578e-05,2.42795251303985e-06,0.000612818807191047,0.000869838058430084,0.000797204505337837,0.00066450593234537,0.00147077829301749,0.00111873896317381,0.00139551056203863,0.00130039130317198,0.00163149479588669,0.000689815324514339,0.000645934863322517,-0.905739421868454,0.0377042312526186,-0.148303309593632,-0.910766652702136,0
-1.2669930757388e-05,-1.57103740250613e-06,1.89010765947802e-05,-1.58857479035138e-05,4.27806754820675e-06,2.75775156867227e-05,-6.53791359510633e-05,3.8194981963264e-05,-3.4322192059818e-05,7.67131759118816e-05,1.28420828546014e-05,0.000600148876433659,0.000868267021027578,0.000816105581932617,0.000648620184441856,0.00147505636056569,0.00114631647886053,0.00133013142608756,0.00133858628513524,0.00159717260382687,0.00076652850042622,0.000658776946177118,-0.907415165479681,0.0237397011590562,-0.157240608853512,-0.905739421868454,0
-1.04041812123819e-05,1.16763767928009e-06,2.06600086906074e-05,-1.09874914139019e-05,4.94413762025525e-06,2.45510771274082e-05,-6.18771760522267e-05,3.28765207853387e-05,-4.07247596142706e-05,8.12928790626329e-05,2.29493942542142e-05,0.000589744695221277,0.000869434658706858,0.000836765590623225,0.000637632693027954,0.00148000049818595,0.00117086755598794,0.00126825425003534,0.00137146280592058,0.0015564478442126,0.000847821379488853,0.000681726340431332,-0.910766652702136,0.0203882139366013,-0.150537634408602,-0.910208071498394,0
-8.29644949893013e-06,3.16814514691392e-06,2.1407005711412e-05,-5.39131337915616e-06,5.27604730382646e-06,2.09690991383365e-05,-5.64929529502593e-05,2.66361451054351e-05,-4.6834887660866e-05,8.41593683959501e-05,3.18444410697071e-05,0.000581448245722347,0.000872602803853772,0.000858172596334637,0.000632241379648798,0.00148527654548977,0.00119183665512627,0.00121176129708508,0.00139809895102602,0.00150961295655174,0.000931980747884803,0.00071357078150104,-0.921379695573244,0.0220639575478287,-0.141600335148722,-0.922496857980729,0
-6.44923012994261e-06,4.71061161595883e-06,2.13876165454644e-05,-3.20373286204082e-08,5.24579028879477e-06,1.69792759119782e-05,-4.87733783643162e-05,1.96381307885414e-05,-5.25748286794615e-05,8.52151192011943e-05,3.89699446009979e-05,0.000574999015592405,0.000877313415469731,0.000879560212880101,0.000632209342320178,0.00149052233577857,0.00120881593103825,0.00116298791872076,0.00141773708181456,0.00145703812787227,0.001017195867086,0.000752540726102037,-0.913559558720849,0.0259740259740262,-0.153330540427314,-0.914676721128334,0
-4.79751353996008e-06,5.95847623742029e-06,2.08175337863331e-05,4.51423110363574e-06,4.82544716168157e-06,1.2768993872748e-05,-3.8488600426795e-05,1.20395727155771e-05,-5.78702720463284e-05,8.44272546441055e-05,4.41589717723457e-05,0.000570201502052445,0.000883271891707151,0.000900377746666434,0.000636723573423814,0.00149534778294025,0.001221584924911,0.00112449931829396,0.00142977665453014,0.00139916785582595,0.0011016231217301,0.000796699697874383,-0.905180840664711,0.0298840944002237,-0.155564865242284,-0.910208071498394,0
-3.19936029381264e-06,7.00796205826309e-06,1.98855970108179e-05,8.299803400769e-06,3.99030823220511e-06,8.60403196898925e-06,-2.6102862718453e-05,3.99169936007859e-06,-6.26532185013084e-05,8.18769174298797e-05,4.75541920369635e-05,0.000567002141758632,0.000890279853765414,0.000920263343677252,0.000645023376824583,0.00149933809117246,0.00123018895687999,0.00109839645557551,0.00143376835389021,0.00133651463732464,0.00118350003915998,0.000844253889911347,-0.909090909090909,0.0371456500488761,-0.155564865242284,-0.909649490294651,0
-1.48383797421946e-06,7.91949329331679e-06,1.87611282319203e-05,1.18061691833943e-05,2.72185860685078e-06,4.92689685852358e-06,-1.30922246084975e-05,-4.35851799006261e-06,-6.68647946161518e-05,7.77275261167314e-05,4.94866174709198e-05,0.000565518303784412,0.000898199347058731,0.000939024471909172,0.000656829546007977,0.00150205994977931,0.00123511585373851,0.00108530423096701,0.00142940983590015,0.00126964984270849,0.00126122756527671,0.000893740507382266,-0.903505097053484,0.0399385560675885,-0.148861890797374,-0.911325233905879,0
5.46591043804859e-07,8.73475637132054e-06,1.76067049738443e-05,1.57522408807361e-05,1.01032922007424e-06,2.61465031980361e-06,-1.45816756046808e-06,-1.28665036097462e-05,-7.045775462977e-05,7.21903222872301e-05,5.03693578271748e-05,0.000566064894828217,0.000906934103430051,0.000956631176883016,0.000672581786888713,0.00150307027899938,0.00123773050405832,0.00108384606340655,0.0014165433322904,0.00119919208807872,0.00133341788756394,0.000944109865209441,-0.903505097053484,0.0410557184750735,-0.148303309593632,-0.906298003072197,0
3.0932837476621e-06,9.48571743852726e-06,1.6596451259305e-05,2.11144907065529e-05,-1.14338030398199e-06,3.60868840700566e-06,7.35940290044887e-06,-2.13878549622808e-05,-7.33982924256888e-05,6.54999466086106e-05,5.06222725455848e-05,0.000569158178575879,0.000916419820868579,0.000973227628142321,0.000693696277595266,0.0015019268986954,0.00124133919246532,0.001091205466307,0.00139515547732812,0.00112579379565303,0.00139891783417255,0.000994732137755026,-0.906856584275939,0.0321184192151936,-0.141600335148722,-0.909090909090909,0
6.22684389943006e-06,1.01995774878819e-05,1.59407878016144e-05,2.92032931840762e-05,-3.72648093034515e-06,1.15847734222635e-05,1.30257005060419e-05,-2.97755307057473e-05,-7.56665696644233e-05,5.79001479817109e-05,5.0622308245173e-05,0.000575385022475309,0.000926619398356461,0.000989168415943936,0.000722899570779342,0.00149820041776505,0.00125292396588758,0.00110423116681304,0.00136537994662238,0.0010501272259886,0.00145681798215427,0.0010453544460002,-0.915793883535819,0.0254154447702837,-0.148861890797374,-0.915235302332076,0
9.67104996876626e-06,1.09019499443189e-05,1.59160476309104e-05,4.1216435326868e-05,-6.71374420799079e-06,2.83106062315963e-05,1.59772206525769e-05,-3.787610701234e-05,-7.72549760397929e-05,4.96367895403329e-05,5.06704101733194e-05,0.000585056072444076,0.000937521348300779,0.00100508446357485,0.00076411600610621,0.00149148667355706,0.00128123457211918,0.00112020838746561,0.00132750383961004,0.00097287224994881,0.0015064547716946,0.00109602485617352,-0.918028208350789,0.0203882139366013,-0.149420472001117,-0.916352464739561,0
1.28644947338099e-05,1.16198751354094e-05,1.68807316801532e-05,5.65970076293011e-05,-1.00675223402894e-05,4.58865996305078e-05,1.68819205379222e-05,-4.55246553063529e-05,-7.81624044452547e-05,4.0955457210891e-05,5.09692839607743e-05,0.000597920567177886,0.000949141223436189,0.001021965195255,0.000820713013735511,0.00148141915121677,0.00132712117174969,0.00113709030800354,0.00128197918430368,0.000894709845503555,0.00154741022890549,0.00114699414013429,-0.912442396313364,0.0209467951403438,-0.154447702834799,-0.910208071498394,0
1.54021083865741e-05,1.23866360572388e-05,1.92120121525793e-05,7.21145647607615e-05,-1.37382110670641e-05,5.63322239570943e-05,1.63425734529547e-05,-5.25377512042057e-05,-7.83813760757765e-05,3.21019062637427e-05,5.16105258884247e-05,0.00061332267556446,0.000961527859493428,0.00104117720740758,0.000892827578496273,0.00146768094014971,0.00138345339570678,0.00115343288145649,0.00122944143309948,0.000816328469427779,0.00157951213516923,0.00119860466602272,-0.907973746683424,0.0276497695852537,-0.151654796816087,-0.911883815109621,0
1.72492520253502e-05,1.32524462125878e-05,2.30537604660849e-05,8.4641375613244e-05,-1.76650383937711e-05,6.07653357982143e-05,1.48216651255611e-05,-5.87043248785701e-05,-7.78718840886513e-05,2.33244732432553e-05,5.25722378660932e-05,0.00063057192758981,0.000974780305706015,0.00106423096787366,0.000977468954109517,0.00145001590175594,0.001444218731505,0.00116825454658205,0.00117073710822091,0.000738456585339128,0.00160283660841249,0.00125117690388881,-0.909649490294651,0.0321184192151936,-0.154447702834799,-0.916352464739561,0
1.85622386587174e-05,1.43118938030092e-05,2.79684294987696e-05,9.35792534650399e-05,-2.1777097558249e-05,6.21621680827237e-05,1.26585001828359e-05,-6.37749921331067e-05,-7.65098331111339e-05,1.48782353143815e-05,5.37286477528714e-05,0.000649134166248527,0.000989092199509025,0.00109219939737243,0.00107104820757456,0.00142823880419769,0.00150638089958772,0.00118091304676489,0.0011069621160878,0.000661946752227994,0.00161771484372687,0.00130490555164168,-0.906298003072196,0.0343527440301636,-0.155564865242284,-0.913000977517106,0
1.95037078188388e-05,1.57796393814092e-05,3.30411263688517e-05,9.97843681182547e-05,-2.59945900880146e-05,6.2102945931824e-05,1.01054501862345e-05,-6.74532450085396e-05,-7.39879542386327e-05,7.03111796271859e-06,5.48717966713176e-05,0.000668637874067366,0.00100487183889043,0.00112524052374129,0.00117083257569281,0.00140224421410967,0.00156848384551954,0.00119101849695112,0.00103950887107926,0.000587958797989361,0.00162474596168959,0.001359777348313,-0.905180840664711,0.0371456500488761,-0.151654796816087,-0.912442396313364,0
2.01878683670961e-05,1.81882618762461e-05,3.75907452192731e-05,0.000104155737039191,-3.02302926419795e-05,6.12877388474749e-05,7.35948668853861e-06,-6.93982386512895e-05,-6.9646442104548e-05,7.23256688443721e-08,5.5742936852526e-05,0.000688825742434462,0.00102306010076668,0.00116283126896056,0.001274988312732,0.00137201392146769,0.00162977158436702,0.00119837798363966,0.000970110632427972,0.000518312355884813,0.00162481828735843,0.00141552028516553,-0.910766652702136,0.0265326071777687,-0.154447702834799,-0.917469627147046,0
2.0686134030927e-05,2.26056865863249e-05,4.15968376834236e-05,0.000107275358791876,-3.43912980983907e-05,6.00507447045663e-05,4.58539201334289e-06,-6.92598075480813e-05,-6.23224946836744e-05,-5.67676203913734e-06,5.60691130742277e-05,0.000709511876465389,0.001045665787353,0.00120442810664398,0.00138226367152388,0.0013376226233693,0.00168982232907159,0.001202963375653,0.000900850824879891,0.000455989861201139,0.00161914152531929,0.00147158939823975,-0.912442396313364,0.0170367267141463,-0.153330540427314,-0.910766652702136,0
2.10422672562851e-05,2.93220228066403e-05,4.54595335366498e-05,0.000109476482041146,-3.83810918969658e-05,5.85761007405553e-05,1.93265440796343e-06,-6.67743796812376e-05,-5.08454134168915e-05,-9.85021498417222e-06,5.55994837681023e-05,0.000730554143721674,0.00107498781015965,0.00124988764018063,0.00149174015356502,0.00129924153147234,0.00174839842981214,0.00120489603006097,0.000834076445198653,0.000405144447784247,0.00160929131033512,0.00152718888200786,-0.916352464739561,0.0114509146767214,-0.157799190057254,-0.913000977517106,0
2.1283665972303e-05,3.54984067337607e-05,4.96176779490381e-05,0.00011094682999277,-4.2101982435584e-05,5.69812144061987e-05,-4.51235418067906e-07,-6.19264800483402e-05,-3.6142606368028e-05,-1.20277852035575e-05,5.41365972377037e-05,0.000751837809693977,0.00111048621689341,0.00129950531812967,0.00160268698355779,0.00125713954903675,0.00180537964421834,0.0012044447946429,0.000772149965150313,0.000369001841416219,0.00159726352513156,0.00158132547924556,-0.916352464739561,0.0198296327328588,-0.152771959223572,-0.914676721128334,0
