dfreq810,dfreq1012,dfreq1214,dfreq1416,dfreq1618,dfreq1820,dfreq2022,dfreq2224,dfreq2426,dfreq2628,dfreq2830,freq810,freq1012,freq1214,freq1416,freq1618,freq1820,freq2022,freq2224,freq2426,freq2628,freq2830,allAccBX,allAccBY,allAccTX,allAccTY,pcd
0,0,0,0,0,0,0,0,0,0,0,0.0004474887150547,0.000154165061100356,0.000840703241910986,0.000541502492302736,0.000425744888411163,0.000675843673470553,0.000222249499468324,0.000202266425878136,0.000155990143154625,0.000475179434411387,0.00032605921165983,0.503491132523391,0.494181445794349,1.08941954103244,0.0799003863519995,0
-7.80281300460169e-07,2.38404288243778e-06,-1.2204447275813e-05,-9.85336966753095e-06,-9.9230037315679e-06,-1.43768633993137e-05,2.46864891170454e-05,3.04182667787317e-06,1.10478958392852e-05,-1.42673352996188e-06,-2.23491416504864e-05,0.00044670843375424,0.000156549103982793,0.000828498794635173,0.000531649122635205,0.000415821884679595,0.000661466810071239,0.000246935988585369,0.00020530825255601,0.000167038038993911,0.000473752700881425,0.000303710070009344,0.510822510822511,0.533165758972211,1.0733137829912,0.0840664711632456,1
-1.0843856455701e-06,2.56844261295661e-06,-1.29660215586708e-05,-1.08158467321453e-05,-1.09010486139617e-05,-1.61070791367166e-05,2.56411464790707e-05,4.56397565954585e-06,1.2526769357373e-05,-3.53899136060302e-06,-2.20173657299411e-05,0.00044562404810867,0.00015911754659575,0.000815532773076502,0.00052083327590306,0.000404920836065633,0.000645359730934522,0.00027257713506444,0.000209872228215555,0.000179564808351284,0.000470213709520822,0.000281692704279403,0.503002373970116,0.504119536377601,1.08392682586231,0.0807149839407906,1
-1.37204684091719e-06,2.65027930166243e-06,-1.34227093568678e-05,-1.15478607791715e-05,-1.16187274507907e-05,-1.74508495185368e-05,2.53640348539048e-05,6.19791737283996e-06,1.34433578745878e-05,-5.67560597906279e-06,-2.00852517700946e-05,0.000444252001267753,0.000161767825897413,0.000802110063719634,0.000509285415123888,0.000393302108614843,0.000627908881415985,0.000297941169918345,0.000216070145588395,0.000193008166225871,0.000464538103541759,0.000261607452509308,0.501885211562631,0.529814271749756,1.07945817623237,0.0851836335707306,1
-1.65489064588785e-06,2.68766722919707e-06,-1.38255532676395e-05,-1.22408331907272e-05,-1.22683995888965e-05,-1.8688102335546e-05,2.45757851386946e-05,7.80702686944455e-06,1.40528320285578e-05,-7.80685895473277e-06,-1.70236217386219e-05,0.000442597110621865,0.00016445549312661,0.000788284510451995,0.000497044581933161,0.000381033709025946,0.000609220779080439,0.000322516955057039,0.00022387717245784,0.000207060998254429,0.000456731244587027,0.000244583830770686,0.497975143136434,0.510822510822511,1.07610668900991,0.0863007959782155,1
-1.93201436184234e-06,2.68950147707869e-06,-1.41738955362246e-05,-1.28872618535765e-05,-1.28431870481923e-05,-1.98152610642889e-05,2.34078984701504e-05,9.22847051612692e-06,1.43793273851748e-05,-9.9018814621165e-06,-1.2983091308768e-05,0.000440665096260023,0.000167144994603688,0.00077411061491577,0.000484157320079584,0.000368190521977754,0.000589405518016151,0.00034592485352719,0.000233105642973967,0.000221440325639604,0.00044682936312491,0.000231600739461918,0.503002373970116,0.525345622119816,1.07554810780617,0.0823907275520181,1
-2.20244860790335e-06,2.66320289982617e-06,-1.44673532826813e-05,-1.34793635221818e-05,-1.33365907599831e-05,-2.08297978473104e-05,2.19477305722758e-05,1.03647620103334e-05,1.44369936466868e-05,-1.19301634673018e-05,-8.32742526276245e-06,0.000438462647652119,0.000169808197503514,0.000759643261633089,0.000470677956557403,0.000354853931217771,0.00056857572016884,0.000367872584099466,0.0002434704049843,0.000235877319286291,0.000434899199657608,0.000223273314199156,0.496299399525206,0.516966904063679,1.08783689428851,0.0812735651445331,1
-2.46514354605509e-06,2.61473152229303e-06,-1.47058161932099e-05,-1.40090518511579e-05,-1.37424400497668e-05,-2.17301763095103e-05,2.02569076389368e-05,1.11848354523251e-05,1.42365726829806e-05,-1.38618638930872e-05,-3.61478685604531e-06,0.000435997504106064,0.000172422929025807,0.000744937445439879,0.000456668904706245,0.000341111491168004,0.00054684554385933,0.000388129491738402,0.000254655240436625,0.000250113891969271,0.000421037335764521,0.000219658527343111,0.503002373970116,0.523111297304846,1.07778243262114,0.0818321463482756,1
-2.71895282470539e-06,2.54877405004721e-06,-1.48894410545138e-05,-1.44678892088245e-05,-1.40547980396482e-05,-2.25157653919731e-05,1.83813909969813e-05,1.17003784472633e-05,1.37891902371562e-05,-1.56681599854977e-05,5.36802868789473e-07,0.000433278551281359,0.000174971703075855,0.000730048004385365,0.00044220101549742,0.000327056693128356,0.000524329778467357,0.000406510882735384,0.000266355618883889,0.000263903082206428,0.000405369175779023,0.0002201953302119,0.494623655913979,0.511939673229996,1.07498952660243,0.0812735651445331,1
-2.96261500677778e-06,2.4689732109684e-06,-1.50186434812817e-05,-1.48469867031619e-05,-1.42678126751195e-05,-2.31867221014814e-05,1.63572857930127e-05,1.19416553915159e-05,1.31081957820565e-05,-1.73216251660767e-05,3.63924406577375e-06,0.000430315936274581,0.000177440676286823,0.000715029360904084,0.000427354028794258,0.000312788880453236,0.000501143056365875,0.000422868168528396,0.000278297274275405,0.000277011277988484,0.000388047550612947,0.000223834574277674,0.502443792766374,0.529255690546013,1.07834101382489,0.0885351207931855,1
-3.19473235802008e-06,2.37814158909281e-06,-1.50940877321429e-05,-1.51368026732595e-05,-1.43755031106772e-05,-2.3743841662913e-05,1.42143243683461e-05,1.19425527793933e-05,1.22099024798485e-05,-1.87966212507004e-05,5.45436455897562e-06,0.000427121203916561,0.000179818817875916,0.000699935273171941,0.000412217226120999,0.000298413377342559,0.000477399214702962,0.000437082492896743,0.000290239827054798,0.000289221180468333,0.000369250929362246,0.000229288938836649,0.491830749895266,0.513056835637481,1.08001675743611,0.0829493087557606,0
-3.41374709475083e-06,2.27844094633959e-06,-1.51166762521713e-05,-1.53267427395207e-05,-1.43714759076338e-05,-2.41883743020836e-05,1.19780104338465e-05,1.17339320699093e-05,1.11137583185897e-05,-2.00696854474746e-05,5.98635455231213e-06,0.00042370745682181,0.000182097258822255,0.000684818596919769,0.000396890483381478,0.000284041901434925,0.000453210840400879,0.000449060503330589,0.000301973759124707,0.000300334938786922,0.000349181243914772,0.000235275293388962,0.497975143136434,0.527021365731044,1.09118838151096,0.0851836335707305,0
-3.61791560132038e-06,2.17152519870772e-06,-1.50875414918534e-05,-1.54043697906877e-05,-1.42485819848323e-05,-2.45218087003939e-05,9.67096042278013e-06,1.13417444489511e-05,9.84223210514579e-06,-2.11198824262989e-05,5.39611147834824e-06,0.00042008954122049,0.000184268784020963,0.000669731055427916,0.000381486113590791,0.000269793319450093,0.000428689031700485,0.000458731463753369,0.000313315503573658,0.000310177170892068,0.000328061361488473,0.00024067140486731,0.512498254433739,0.496857980728949,1.06772797095378,0.0807149839407906,0
-3.80528183990781e-06,2.05865169007236e-06,-1.5008043514419e-05,-1.53538345460232e-05,-1.39985684246621e-05,-2.47456229309701e-05,7.31374820320583e-06,1.07872391978451e-05,8.42055379025029e-06,-2.19290717440529e-05,3.91226294222671e-06,0.000416284259380582,0.000186327435711036,0.000654723011913497,0.000366132279044767,0.000255794751025431,0.000403943408769515,0.000466045211956575,0.000324102742771503,0.000318597724682318,0.00030613228974442,0.000244583667809536,0.503560955173859,0.519759810082391,1.08504398826979,0.0807149839407906,0
-3.97365236074398e-06,1.94076701380699e-06,-1.48797776459014e-05,-1.51527067915255e-05,-1.36118774567781e-05,-2.48610042467778e-05,4.92543487037698e-06,1.00878627023766e-05,6.87637382572987e-06,-2.24819999617165e-05,1.7740902101034e-06,0.000412310607019838,0.000188268202724843,0.000639843234267596,0.000350979572253242,0.000242182873568653,0.000379082404522737,0.000470970646826952,0.00033419060547388,0.000325474098508048,0.000283650289782703,0.00024635775801964,0.497975143136434,0.501326630358889,1.07778243262114,0.0851836335707305,0
-4.12057723082437e-06,1.81857327472308e-06,-1.47045964615366e-05,-1.4765419744254e-05,-1.30779429828873e-05,-2.48685391795375e-05,2.52389524970758e-06,9.25825190508322e-06,5.23937044022362e-06,-2.27660406909577e-05,-7.94568246853685e-07,0.000408190029789014,0.000190086775999566,0.000625138637806059,0.000336214152508988,0.000229104930585766,0.000354213865343199,0.00047349454207666,0.000343448857378963,0.000330713468948272,0.000260884249091746,0.000245563189772786,0.501326630358889,0.527579946934786,1.08280966345482,0.086859377181958,0
-4.24334418124863e-06,1.69257969390906e-06,-1.44846490165368e-05,-1.41293928173262e-05,-1.23866732714766e-05,-2.47678743347529e-05,1.26012076236636e-07,8.31111968811819e-06,3.54081772316198e-06,-2.27702192496747e-05,-3.59271253954122e-06,0.000403946685607765,0.000191779355693475,0.000610653988789522,0.000322084759691662,0.000216718257314289,0.000329445991008447,0.000473620554152896,0.000351759977067081,0.000334254286671434,0.000238114029842071,0.000241970477233245,0.492389331099009,0.510822510822511,1.08392682586231,0.0795978215333056,0
-4.33899775664651e-06,1.56314339528504e-06,-1.42224365533944e-05,-1.312593930458e-05,-1.15322195909684e-05,-2.45573435979183e-05,-2.25221523171196e-06,7.25799137689116e-06,1.81312053731324e-06,-2.24827398509929e-05,-6.44091741952945e-06,0.000399607687851118,0.00019334249908876,0.000596431552236128,0.000308958820387082,0.000205186037723321,0.000304888647410528,0.000471368338921184,0.000359017968443973,0.000336067407208747,0.000215631289991078,0.000235529559813716,0.506912442396314,0.524787040916074,1.07275520178746,0.0874179583857005,0
-4.40440162425133e-06,1.43050227688042e-06,-1.39208772681408e-05,-1.1527964926785e-05,-1.05201687082778e-05,-2.42335399140153e-05,-4.59561455689418e-06,6.10980582170111e-06,8.93188781202984e-08,-2.18852603600869e-05,-9.17673642537666e-06,0.000395203286226867,0.00019477300136564,0.000582510674967987,0.000297430855460297,0.000194665869015043,0.000280655107496513,0.00046677272436429,0.000365127774265674,0.000336156726086867,0.000193746029630991,0.000226352823388339,0.501326630358889,0.508029604803799,1.08448540706605,0.0829493087557606,0
-4.43637041180927e-06,1.29480211107796e-06,-1.35833632258959e-05,-8.97055037821329e-06,-9.37783620770169e-06,-2.37907425607429e-05,-6.88981339109281e-06,4.87740529391592e-06,-1.5974385917199e-06,-2.09398777204448e-05,-1.16487595992681e-05,0.000390766915815058,0.000196067803476718,0.000568927311742091,0.000288460305082083,0.000185288032807341,0.00025686436493577,0.000459882910973197,0.00037000517955959,0.000334559287495147,0.000172806151910546,0.000214704063789071,0.497416561932691,0.527021365731044,1.06940371456501,0.0795978215333056,0
-4.43190597679174e-06,1.15611942687422e-06,-1.32137819618212e-05,-5.21875596622048e-06,-8.1632605598045e-06,-2.32198345130625e-05,-9.12121917915557e-06,3.57193449797999e-06,-3.21445606429887e-06,-1.95599685714262e-05,-1.37095323653263e-05,0.000386335009838266,0.000197223922903592,0.00055571352978027,0.000283241549115863,0.000177124772247537,0.000233644530422707,0.000450761691794042,0.00037357711405757,0.000331344831430849,0.00015324618333912,0.000200994531423745,0.494065074710236,0.507471023600056,1.08336824465857,0.0818321463482756,0
-4.38857684351455e-06,1.01448127655141e-06,-1.28164676617163e-05,-8.6313992031723e-07,-6.96386679557899e-06,-2.25050331787118e-05,-1.12769884237006e-05,2.20516220159522e-06,-4.7300972850266e-06,-1.75521849568802e-05,-1.52068519227105e-05,0.000381946432994752,0.000198238404180144,0.000542897062118554,0.000282378409195546,0.000170160905451958,0.000211139497243996,0.000439484703370341,0.000375782276259165,0.000326614734145822,0.00013569399838224,0.000185787679501034,0.506353861192571,0.530372852953499,1.08616115067728,0.084625052366988,0
-4.30506731660462e-06,8.69882650927955e-07,-1.23960476528902e-05,2.9485359723853e-06,-5.87812376574501e-06,-2.16084862093115e-05,-1.33449633096804e-05,7.89733697151816e-07,-6.11445564559796e-06,-1.45674054545073e-05,-1.59734207149327e-05,0.000377641365678147,0.000199108286831072,0.000530501014465663,0.000285326945167931,0.000164282781686213,0.000189531011034684,0.000426139740060661,0.000376572009956317,0.000320500278500224,0.000121126592927733,0.000169814258786101,0.498533724340176,0.513056835637481,1.08560256947354,0.0846250523669881,0
-4.18187603282589e-06,7.22302057873191e-07,-1.1957163952094e-05,5.8115238498991e-06,-4.98688658047904e-06,-2.03367938054242e-05,-1.53135490648264e-05,-6.60640262400427e-07,-7.34011560314787e-06,-1.03992401827691e-05,-1.58178869807661e-05,0.000373459489645321,0.000199830588888945,0.000518543850513569,0.00029113846901783,0.000159295895105733,0.00016919421722926,0.000410826190995834,0.000375911369693916,0.000313160162897076,0.000110727352744964,0.000153996371805335,0.494623655913979,0.531490015360984,1.07443094539869,0.087976539589443,0
-4.0220463263379e-06,5.71715599690281e-07,-1.15040768752806e-05,8.01244200499652e-06,-4.33248674676359e-06,-1.53400586743463e-05,-1.71714945346179e-05,-2.13105232057663e-06,-8.38304239886338e-06,-5.92974231825213e-06,-1.45297176163422e-05,0.000369437443318983,0.000200402304488635,0.000507039773638289,0.000299150911022826,0.00015496340835897,0.000153854158554914,0.000393654696461216,0.00037378031737334,0.000304777120498213,0.000104797610426711,0.000139466654188993,0.504678117581344,0.513615416841224,1.08895405669599,0.086859377181958,0
-3.83167794283927e-06,4.18109762586954e-07,-1.10401909895095e-05,9.86086914414456e-06,-3.91701164806761e-06,-2.2112157541942e-07,-1.89075192146155e-05,-3.60531713473812e-06,-9.22364007445073e-06,-2.7533335095879e-06,-1.19299578503402e-05,0.000365605765376144,0.000200820414251222,0.000495999582648779,0.000309011780166971,0.000151046396710902,0.000153633036979494,0.000374747177246601,0.000370175000238601,0.000295553480423762,0.000102044276917123,0.000127536696338653,0.508029604803799,0.519201228878649,1.08057533863985,0.083507889959503,0
-3.61988425332942e-06,2.61493055488652e-07,-1.0567570075562e-05,1.15084341056041e-05,-3.71484774400988e-06,5.3800030913466e-06,-2.05096958119547e-05,-5.06592754454232e-06,-9.84800482480106e-06,-1.25377597918332e-06,-8.01330250537114e-06,0.000361985881122814,0.000201081907306711,0.000485432012573217,0.000320520214272575,0.000147331548966892,0.000159013040070841,0.000354237481434646,0.000365109072694059,0.000285705475598961,0.00010079050093794,0.000119523393833282,0.499092305543919,0.507471023600056,1.0811339198436,0.0874179583857005,0
-3.39795457670049e-06,1.01906597995126e-07,-1.00865151733705e-05,1.29947082762022e-05,-3.68772052050377e-06,6.51590598216634e-06,-2.19644356990809e-05,-6.49402983394386e-06,-1.02493567749292e-05,-8.58810466792322e-07,-3.15697716584418e-06,0.000358587926546114,0.000201183813904706,0.000475345497399847,0.000333514922548777,0.000143643828446389,0.000165528946053007,0.000332273045735565,0.000358615042860115,0.000275456118824032,9.99316904711479e-05,0.000116366416667438,0.513056835637481,0.514732579248709,1.08504398826979,0.0851836335707305,0
-3.17781050378425e-06,-6.05662479679714e-08,-9.59526440374016e-06,1.43053230342463e-05,-3.79510742017626e-06,7.36588101491457e-06,-2.32548101622573e-05,-7.86939008594117e-06,-1.0429542177368e-05,-1.05213152321622e-06,1.82698177337296e-06,0.00035541011604233,0.000201123247656738,0.000465750232996107,0.000347820245583024,0.000139848721026212,0.000172894827067922,0.000309018235573308,0.000350745652774174,0.000265026576646664,9.88795589479316e-05,0.00011819339844081,0.504678117581344,0.510822510822511,1.08336824465857,0.0829493087557606,0
-2.97023506638816e-06,-2.25791086460328e-07,-9.08984225191794e-06,1.54120076468284e-05,-3.99915584663676e-06,8.12613206108641e-06,-2.43577213341484e-05,-9.17030771196606e-06,-1.04003551928578e-05,-1.53492653076925e-06,6.02564350112448e-06,0.000352439880975942,0.000200897456570278,0.000456660390744189,0.000363232253229852,0.000135849565179576,0.000181020959129008,0.000284660514239159,0.000341575345062208,0.000254626221453806,9.73446324171624e-05,0.000124219041941935,0.495182237117721,0.520876972489876,1.07443094539869,0.0851836335707305,0
-2.78349313806572e-06,-3.93574374727584e-07,-8.56405298477989e-06,1.62952017814811e-05,-4.26593934565336e-06,8.79388825554062e-06,-2.52390040159673e-05,-1.03734033890972e-05,-1.01842637448149e-05,-2.1190882828279e-06,8.88999344897037e-06,0.000349656387837876,0.00020050388219555,0.000448096337759409,0.000379527455011333,0.000131583625833922,0.000189814847384549,0.000259421510223192,0.000331201941673111,0.000244441957708991,9.52255441343345e-05,0.000133109035390905,0.492947912302751,0.511939673229996,1.08616115067728,0.0812735651445331,0
-2.62272509290919e-06,-5.63655763524131e-07,-8.00958998255523e-06,1.69515484057224e-05,-4.56491303411972e-06,9.34732038044504e-06,-2.58446597700379e-05,-1.14531533810822e-05,-9.81402318011017e-06,-2.65218571027649e-06,1.03578981562122e-05,0.000347033662744967,0.000199940226432026,0.000440086747776854,0.000396479003417056,0.000127018712799803,0.000199162167764994,0.000233576850453154,0.000319748788292029,0.000234627934528881,9.2573358424058e-05,0.000143466933547118,0.494065074710236,0.524228459712331,1.07498952660243,0.0823907275520181,0
-2.49009217042885e-06,-7.35700581546008e-07,-7.41622510523474e-06,1.7391581743038e-05,-4.8676891733411e-06,9.76788142519126e-06,-2.60846044263819e-05,-1.23809326246224e-05,-9.33075300658438e-06,-2.9847814297525e-06,1.0654366596654e-05,0.000344543570574538,0.00019920452585048,0.000432670522671619,0.000413870585160094,0.000122151023626461,0.000208930049190185,0.000207492246026772,0.000307367855667406,0.000225297181522296,8.95885769943055e-05,0.000154121300143772,0.495182237117721,0.511939673229996,1.07554810780617,0.0807149839407906,0
-2.38538150813963e-06,-9.0929205276793e-07,-6.77204769314099e-06,1.76339221733318e-05,-5.14663189257663e-06,1.00445417761685e-05,-2.58016107902547e-05,-1.31231059847408e-05,-8.78042461733409e-06,-2.97201095744564e-06,1.00765314944857e-05,0.000342158189066398,0.000198295233797712,0.000425898474978478,0.000431504507333425,0.000117004391733885,0.000218974590966354,0.000181690635236518,0.000294244749682665,0.000216516756904962,8.66165660368599e-05,0.000164197831638257,0.495182237117721,0.519759810082391,1.08169250104734,0.0784806591258206,0
-2.30674618037252e-06,-1.08392271150362e-06,-6.06373597144161e-06,1.77000808835352e-05,-5.37340799525903e-06,1.01731513418301e-05,-2.4711604261899e-05,-1.36372444103959e-05,-8.2092853082584e-06,-2.52094780503474e-06,8.89156963932133e-06,0.000339851442886026,0.000197211311086208,0.000419834739007036,0.00044920458821696,0.000111630983738626,0.000229147742308184,0.000156979030974619,0.000280607505272269,0.000208307471596704,8.40956182318251e-05,0.000173089401277579,0.499650886747661,0.508029604803799,1.07387236419494,0.0795978215333056,0
-2.25136705192563e-06,-1.25898432875153e-06,-5.27686085860437e-06,1.76112137930417e-05,-5.51743232959263e-06,1.01544669166609e-05,-2.22978606865922e-05,-1.38645766557467e-05,-7.65924092894357e-06,-1.67456743066571e-06,7.31380464800518e-06,0.0003376000758341,0.000195952326757457,0.000414557878148432,0.000466815802010002,0.000106113551409033,0.000239302209224845,0.000134681170288026,0.000266742928616523,0.00020064823066776,8.24210508011594e-05,0.000180403205925584,0.496299399525206,0.515291160452451,1.07834101382488,0.0773634967183356,0
-2.21595131434638e-06,-1.43375547629913e-06,-4.3962471298951e-06,1.73866003985673e-05,-5.54399336508279e-06,9.99234489030149e-06,-1.7698331537627e-05,-1.37148430057881e-05,-7.16430229131762e-06,-6.33529621361963e-07,5.51111590402692e-06,0.000335384124519754,0.000194518571281158,0.000410161631018537,0.00048420240240857,0.00010056955804395,0.000249294554115146,0.000116982838750399,0.000253028085610735,0.000193483928376443,8.17875211797974e-05,0.000185914321829611,0.496857980728949,0.509705348415026,1.0811339198436,0.0835078899595031,0
-2.19706533208995e-06,-1.60738562070232e-06,-3.40646665804349e-06,1.70432030829936e-05,-5.41165616579504e-06,9.69258961711728e-06,-9.97354593029044e-06,-1.30365021865819e-05,-6.74876632890582e-06,3.803722508048e-07,3.61654407756524e-06,0.000333187059187664,0.000192911185660455,0.000406755164360493,0.000501245605491563,9.51579018781553e-05,0.000258987143732263,0.000107009292820109,0.000239991583424153,0.000186735162047537,8.21678934306022e-05,0.000189530865907176,0.501885211562631,0.516966904063679,1.07498952660243,0.0835078899595031,0
-2.19133444372664e-06,-1.77887434392413e-06,-2.29264721540278e-06,1.65957663917145e-05,-5.06837852413748e-06,9.26240905977375e-06,4.75375519493632e-07,-1.15647573133689e-05,-6.42709913517903e-06,1.29313805880602e-06,1.73790981227351e-06,0.000330995724743937,0.000191132311316531,0.00040446251714509,0.000517841371883278,9.00895233540178e-05,0.000268249552792037,0.000107484668339603,0.000228426826110784,0.000180308062912358,8.34610314894083e-05,0.00019126877571945,0.496299399525206,0.509705348415026,1.08057533863985,0.0812735651445331,0
-2.19554841662676e-06,-1.94704391701133e-06,-1.04198218017722e-06,1.60571252962469e-05,-4.44630989113775e-06,8.71024220114194e-06,1.098229045372e-05,-8.87258824775882e-06,-6.20491913238302e-06,2.19636069203126e-06,-3.54050396800547e-08,0.00032880017632731,0.00018918526739952,0.000403420534964913,0.000533898497179525,8.56432134628801e-05,0.000276959794993179,0.000118466958793323,0.000219554237863025,0.000174103143779975,8.56573921814395e-05,0.000191233370679769,0.504119536377601,0.513056835637481,1.07443094539869,0.0851836335707305,1
-2.20670513975679e-06,-2.11050299689513e-06,3.53428461965588e-07,1.54385541278331e-05,-3.45899982518967e-06,8.04573948269858e-06,1.91374770223825e-05,-4.51449997216022e-06,-6.08029884723165e-06,3.24303952695552e-06,-1.62776239854783e-06,0.000326593471187554,0.000187074764402625,0.000403773963426879,0.000549337051307358,8.21842136376904e-05,0.000285005534475878,0.000137604435815705,0.000215039737890865,0.000168022844932743,8.8900431708395e-05,0.000189605608281222,0.500768049155146,0.507471023600056,1.08448540706605,0.0790392403295631,1
-2.22201617799413e-06,-2.26759867311978e-06,1.89180997249149e-06,1.47500842133875e-05,-2.01664285797427e-06,7.27976749662979e-06,2.4604865795844e-05,1.28527323292778e-06,-6.04478559047125e-06,4.51879468613915e-06,-2.97382677968318e-06,0.000324371455009559,0.000184807165729505,0.00040566577339937,0.000564087135520745,8.01675707797161e-05,0.000292285301972507,0.000162209301611549,0.000216325011123793,0.000161978059342272,9.34192263945342e-05,0.000186631781501538,0.501326630358889,0.513056835637481,1.07163803937997,0.0807149839407906,1
-2.23888972872115e-06,-2.41635347761172e-06,3.55544214232989e-06,1.40007671735159e-05,-8.9268692840037e-08,6.42439401240879e-06,2.80692144733707e-05,7.09215786955997e-06,-6.0838759624681e-06,5.94370213490417e-06,-4.01585581267611e-06,0.000322132565280838,0.000182390812251893,0.0004092212155417,0.000578087902694261,8.00783020868761e-05,0.000298709695984916,0.00019027851608492,0.000223417168993353,0.000155894183379804,9.93629285294383e-05,0.000182615925688862,0.494623655913978,0.509146767211284,1.07889959502863,0.0801564027370481,1
-2.25490017831956e-06,-2.554383324057e-06,5.30573254008837e-06,1.3198882649698e-05,2.19059451734706e-06,5.49285967798338e-06,3.02318129128809e-05,1.14723744844434e-05,-6.17694856542891e-06,7.2856219308418e-06,-4.7016170483327e-06,0.000319877665102519,0.000179836428927836,0.000414526948081789,0.000591286785343959,8.22688966042232e-05,0.0003042025556629,0.000220510328997801,0.000234889543477796,0.000149717234814375,0.00010664855046028,0.00017791430864053,0.494623655913979,0.519759810082391,1.07778243262114,0.0801564027370481,1
-2.26774855499091e-06,-2.67879169589148e-06,7.08459569080476e-06,1.23520973724397e-05,4.51790303904126e-06,4.49955939568655e-06,3.15646655449975e-05,1.42094226839608e-05,-6.2967410670272e-06,8.30491123689981e-06,-4.98332527617621e-06,0.000317609916547528,0.000177157637231945,0.000421611543772593,0.000603638882716399,8.67867996432644e-05,0.000308702115058586,0.000252074994542798,0.000249098966161757,0.000143420493747348,0.00011495346169718,0.000172930983364353,0.494623655913979,0.511381092026254,1.07387236419494,0.0795978215333056,1
-2.27521401653902e-06,-2.78603465429014e-06,8.82495515221367e-06,1.14675844121273e-05,6.59024835061662e-06,3.46005243525053e-06,3.23481910858518e-05,1.57584150806106e-05,-6.40834158227845e-06,8.88502616547389e-06,-4.81856645600167e-06,0.000315334702530989,0.000174371602577655,0.000430436498924807,0.000615106467128526,9.3377047993881e-05,0.000312162167493837,0.00028442318562865,0.000264857381242367,0.000137012152165069,0.000123838487862654,0.000168112416908352,0.491830749895266,0.524228459712331,1.07778243262114,0.0812735651445331,1
-2.27509220135776e-06,-2.87174977966917e-06,1.04662250277826e-05,1.05521108851913e-05,8.27115199644159e-06,2.3911085888254e-06,3.27435668290479e-05,1.65480685009363e-05,-6.4674283489056e-06,9.03789964418124e-06,-4.1746363780482e-06,0.000313059610329631,0.000171499852797985,0.00044090272395259,0.000625658578013717,0.000101648199990323,0.000314553276082662,0.000317166752457698,0.000281405449743304,0.000130544723816164,0.000132876387506835,0.000163937780530304,0.492947912302751,0.509705348415026,1.07834101382488,0.0807149839407906,1
-2.26511060636922e-06,-2.93053798572875e-06,1.19660034794025e-05,9.61210102874547e-06,9.57271687474858e-06,1.310785688718e-06,3.28435807019353e-05,1.68369525766801e-05,-6.41731429653781e-06,8.84148582009424e-06,-3.03752560236326e-06,0.000310794499723262,0.000168569314812257,0.000452868727431992,0.000635270679042463,0.000111220916865071,0.00031586406177138,0.000350010333159633,0.000298242402319984,0.000124127409519626,0.000141717873326929,0.00016090025492794,0.495740818321464,0.518642647674906,1.07219662058372,0.0807149839407906,1
-2.24280225701425e-06,-2.95567546341764e-06,1.33028113035776e-05,8.65368012427446e-06,1.05631866169861e-05,2.38524069879134e-07,3.27023474640683e-05,1.67659954792137e-05,-6.18470769130678e-06,8.39027354181753e-06,-1.42503137548096e-06,0.000308551697466248,0.000165613639348839,0.00046617153873557,0.000643924359166737,0.000121784103482057,0.000316102585841259,0.000382712680623702,0.000315008397799197,0.000117942701828319,0.000150108146868747,0.000159475223552459,0.495182237117721,0.508029604803799,1.08169250104734,0.0807149839407906,1
-2.20530346071215e-06,-2.93870654253251e-06,1.44717654151802e-05,7.68270350385626e-06,1.13111097249293e-05,-8.04764443424334e-07,3.23519292035716e-05,1.6413173293671e-05,-5.67639002353784e-06,7.77552673600766e-06,6.00241368433555e-07,0.000306346394005535,0.000162674932806307,0.00048064330415075,0.000651607062670594,0.000133095213206987,0.000315297821397835,0.000415064609827273,0.000331421571092868,0.000112266311804781,0.000157883673604755,0.000160075464920893,0.503002373970116,0.514732579248709,1.07498952660243,0.0846250523669881,0
-2.14901300330466e-06,-2.86883079936236e-06,1.54780568365546e-05,6.70477387194229e-06,1.18698472884903e-05,-1.79664283267211e-06,3.18116816682015e-05,1.58249027566833e-05,-4.78639169727412e-06,7.08228047691312e-06,2.92604728880137e-06,0.000304197381002231,0.000159806102006944,0.000496121360987304,0.000658311836542536,0.000144965060495477,0.000313501178565163,0.000446876291495475,0.000347246473849552,0.000107479920107507,0.000164965954081668,0.000163001512209694,0.498533724340176,0.516408322859936,1.07889959502863,0.0823907275520181,0
-2.0689962030778e-06,-2.73203127500375e-06,1.63315593997584e-05,5.72524940682109e-06,1.22782104263859e-05,-2.71316654684863e-06,3.10936410978181e-05,1.50320795248907e-05,-3.43669724555825e-06,6.39168181864561e-06,5.40117489454433e-06,0.000302128384799153,0.00015707407073194,0.000512452920387063,0.000664037085949357,0.000157243270921863,0.000310788012018314,0.000477969932593293,0.000362278553374442,0.000104043222861949,0.000171357635900313,0.000168402687104239,0.496857980728949,0.517525485267421,1.08839547549225,0.0818321463482756,0
-1.95791348017656e-06,-2.51036257932892e-06,1.70434737365017e-05,4.7492445304474e-06,1.25643526394438e-05,-3.52900910808207e-06,3.02057264857555e-05,1.40581034531348e-05,-1.66970580913175e-06,5.78317885245198e-06,7.86084871165117e-06,0.000300170471318976,0.000154563708152612,0.000529496394123565,0.000668786330479804,0.000169807623561307,0.000307259002910232,0.000508175659079048,0.000376336656827577,0.000102373517052817,0.000177140814752765,0.00017626353581589,0.500209467951404,0.510263929618768,1.07275520178746,0.0818321463482756,0
-1.80405748319794e-06,-2.18366528727034e-06,1.7624625547565e-05,3.78162481382536e-06,1.2749169064567e-05,-4.217714480141e-06,2.91537019810666e-05,1.29228961628803e-05,2.71980343699108e-07,5.3337350623801e-06,1.01558657666346e-05,0.000298366413835778,0.000152380042865341,0.00054712101967113,0.00067256795529363,0.000182556792625874,0.000303041288430091,0.000537329361060115,0.000389259552990457,0.000102645497396516,0.000182474549815145,0.000186419401582524,0.506912442396314,0.504119536377601,1.07778243262114,0.0829493087557606,0
-1.58775380221856e-06,-1.73956090162802e-06,1.80847786177941e-05,2.82699718407884e-06,1.28486766623981e-05,-4.75203438685199e-06,2.79424104609088e-05,1.16449050607754e-05,2.02876402501784e-06,5.11166672561124e-06,1.21721769670089e-05,0.00029677866003356,0.000150640481963713,0.000565205798288924,0.000675394952477709,0.000195405469288272,0.000298289254043239,0.000565271771521024,0.000400904458051233,0.000104674261421534,0.000187586216540757,0.000198591578549533,0.503002373970116,0.511381092026254,1.08057533863985,0.0768049155145931,0
-1.27506940698126e-06,-1.19597455045537e-06,1.84324738670925e-05,1.88969639263305e-06,1.28755877596265e-05,-5.10416563600537e-06,2.65765620697912e-05,1.02420826346455e-05,3.34055175103329e-06,5.16325550764047e-06,1.38353887394522e-05,0.000295503590626579,0.000149444507413258,0.000583638272156016,0.000677284648870342,0.000208281057047898,0.000293185088407234,0.000591848333590815,0.000411146540685878,0.000108014813172567,0.000192749472048397,0.000212426967288985,0.491272168691524,0.521435553693619,1.08280966345482,0.0745705906996231,0
-8.08871650606439e-07,-6.18073840536197e-07,1.86751047866609e-05,9.73768572416897e-07,1.28403419714967e-05,-5.24542593398759e-06,2.50612403556578e-05,8.73234066608243e-06,4.14661832254082e-06,5.49377823048144e-06,1.51040905722673e-05,0.000294694718975972,0.000148826433572722,0.000602313376942677,0.000678258417442758,0.000221121399019395,0.000287939662473246,0.000616909573946473,0.000419878881351961,0.000112161431495108,0.000198243250278878,0.000227531057861253,0.492947912302751,0.516408322859936,1.07387236419495,0.0784806591258206,0
-1.05956583436079e-07,-9.31078338870298e-08,1.88190796693997e-05,8.29526416251886e-08,1.2751787955744e-05,-5.1444506535305e-06,2.34022224432078e-05,7.13373704776677e-06,4.51291611375122e-06,6.05213877037869e-06,1.59594291706592e-05,0.000294588762392536,0.000148733325738835,0.000621132456612077,0.000678341370084384,0.000233873186975139,0.000282795211819716,0.00064031179638968,0.000427012618399728,0.000116674347608859,0.000204295389049257,0.000243490487031912,0.494065074710236,0.519759810082391,1.08225108225108,0.0807149839407906,0
9.0420007256716e-07,3.21714647868266e-07,1.88700007378818e-05,-7.7933970769016e-07,1.26176373465011e-05,-4.76235554894207e-06,2.16061725210404e-05,5.46453006379619e-06,4.53601095039207e-06,6.7339112560869e-06,1.63962931360908e-05,0.000295492962465103,0.000149055040386703,0.000640002457349958,0.000677562030376693,0.00024649082432164,0.000278032856270773,0.000661917968910721,0.000432477148463524,0.000121210358559252,0.000211029300305344,0.000259886780168003,0.492947912302751,0.513056835637481,1.07219662058372,0.0823907275520181,0
2.16175757474294e-06,6.17183765354209e-07,1.88328308991568e-05,-1.61004467366091e-06,1.24447665295963e-05,-4.04267065689411e-06,1.96807464348854e-05,3.74317124881912e-06,4.29902191109445e-06,7.40957294695848e-06,1.64180156391122e-05,0.000297654720039846,0.000149672224152057,0.000658835288249115,0.000675951985703033,0.000258935590851236,0.000273990185613879,0.000681598715345606,0.000436220319712343,0.000125509380470346,0.000218438873252303,0.000276304795807115,0.499092305543919,0.515849741656194,1.07498952660243,0.0812735651445331,0
3.41325175538348e-06,8.11495862525143e-07,1.87120381167752e-05,-2.40646683659406e-06,1.22394129315705e-05,-2.89423448016735e-06,1.76346323830859e-05,1.9882745035202e-06,3.86401127075705e-06,7.96423870957379e-06,1.60342650345114e-05,0.00030106797179523,0.000150483720014582,0.00067754732636589,0.000673545518866439,0.000271175003782807,0.000271095951133712,0.000699233347728692,0.000438208594215863,0.000129373391741103,0.000226403111961876,0.000292339060841626,0.502443792766374,0.519201228878649,1.09007121910348,0.0762463343108506,0
4.40724402084384e-06,9.28233044803346e-07,1.85117159229403e-05,-3.16629855817274e-06,1.20072948861709e-05,-1.17118780688046e-06,1.54775448623481e-05,2.18581721492825e-07,3.2763055653453e-06,8.32507685596181e-06,1.52610352521296e-05,0.000305475215816073,0.000151411953059386,0.000696059042288831,0.000670379220308266,0.000283182298668978,0.000269924763326832,0.00071471089259104,0.000438427175937356,0.000132649697306448,0.000234728188817838,0.000307600096093756,0.497975143136434,0.515291160452451,1.07778243262114,0.0790392403295631,0
5.08674869366589e-06,9.87151016996958e-07,1.82356820113399e-05,-3.88763723762329e-06,1.17536735112156e-05,1.32070104938442e-06,1.32201840648613e-05,-1.5470635538632e-06,2.57002410148413e-06,8.46553442769427e-06,1.41217117946599e-05,0.000310561964509739,0.000152399104076383,0.000714294724300171,0.000666491583070643,0.000294935972180193,0.000271245464376216,0.000727931076655901,0.000436880112383493,0.000135219721407932,0.000243193723245532,0.000321721807888416,0.497975143136434,0.511939673229996,1.07498952660243,0.0835078899595031,0
5.52310985776027e-06,1.00279880811818e-06,1.78875579326952e-05,-4.56899920385685e-06,1.14833687124165e-05,4.71065887652078e-06,1.08741697353291e-05,-3.28972682129571e-06,1.77217449436566e-06,8.39373804993002e-06,1.26485057679657e-05,0.0003160850743675,0.000153401902884501,0.000732182282232866,0.000661922583866786,0.00030641934089261,0.000275956123252737,0.000738805246391231,0.000433590385562197,0.000136991895902298,0.000251587461295462,0.000334370313656382,0.501885211562631,0.513615416841224,1.08895405669599,0.0857422147744731,0
5.79917655991536e-06,9.8553154280362e-07,1.74708329872445e-05,-5.20932878171414e-06,1.12007378863151e-05,8.80151429889613e-06,8.4519563995658e-06,-4.9903711408454e-06,9.05271034116041e-07,8.1374757594941e-06,1.08838471871686e-05,0.000321884250927415,0.000154387434427304,0.00074965311522011,0.000656713255085072,0.000317620078778925,0.000284757637551633,0.000747257202790796,0.000428600014421352,0.000137897166936414,0.000259724937054957,0.00034525416084355,0.500768049155146,0.516966904063679,1.07554810780617,0.0863007959782155,0
5.97157143249894e-06,9.42743302732033e-07,1.69889150889703e-05,-5.80800067714155e-06,1.09096242315929e-05,1.29632824054121e-05,5.96673548698126e-06,-6.62981635291064e-06,-1.10722345749944e-08,7.73276804982582e-06,8.88153456131294e-06,0.000327855822359914,0.000155330177730036,0.000766642030309081,0.00065090525440793,0.000328529703010518,0.000297720919957045,0.000753223938277778,0.000421970198068441,0.000137886094701839,0.000267457705104782,0.000354135695404863,0.501885211562631,0.520318391286133,1.08727831308476,0.0835078899595031,0
6.07381885214049e-06,8.79811493559838e-07,1.64451709443568e-05,-6.36481306089522e-06,1.06132812626463e-05,1.65403176874773e-05,3.43232895355498e-06,-8.188660195941e-06,-9.5917770211057e-07,7.21720264842751e-06,6.70755323687992e-06,0.000333929641212054,0.000156209989223596,0.000783087201253437,0.000644540441347035,0.000339142984273164,0.000314261237644522,0.000756656267231333,0.0004137815378725,0.000136926916999729,0.00027467490775321,0.000360843248641743,0.501885211562631,0.514173998044966,1.08839547549225,0.084625052366988,0
6.1252662848105e-06,8.00744042790967e-07,1.58429574632905e-05,-6.8799669987686e-06,1.03142807890546e-05,1.92806978415965e-05,8.63078426437797e-07,-9.64715032307197e-06,-1.9227104139087e-06,6.6267237158761e-06,4.44051857356943e-06,0.000340054907496865,0.000157010733266387,0.000798930158716728,0.000637660474348266,0.000349457265062219,0.000333541935486119,0.00075751934565777,0.000404134387549428,0.00013500420658582,0.000281301631469086,0.000365283767215313,0.498533724340176,0.514173998044966,1.07443094539869,0.0863007959782155,0
6.13732362757127e-06,7.08611959268017e-07,1.51856459464576e-05,-7.3540234749492e-06,1.00144129669915e-05,2.1266907422007e-05,-1.72626645127756e-06,-1.09849943673925e-05,-2.88630511205768e-06,5.99437485977386e-06,2.17168214325625e-06,0.000346192231124436,0.000157719345225655,0.000814115804663185,0.000630306450873317,0.00035947167802921,0.000354808842908126,0.000755793079206493,0.000393149393182036,0.000132117901473762,0.00028729600632886,0.000367455449358569,0.499092305543919,0.508029604803799,1.07554810780617,0.0773634967183356,0
6.1170238673091e-06,6.05840258810622e-07,1.44766402839442e-05,-7.78781681269733e-06,9.71458870019815e-06,2.2669120592248e-05,-4.32065694683042e-06,-1.2181095611012e-05,-3.83533624773502e-06,5.35001795218775e-06,4.35606380670304e-09,0.000352309254991745,0.000158325185484466,0.00082859244494713,0.00062251863406062,0.000369186266729408,0.000377477963500374,0.000751472422259662,0.000380968297571024,0.000128282565226027,0.000292646024281048,0.000367459805422375,0.500209467951404,0.517525485267421,1.08001675743611,0.0807149839407906,0
6.06895971472791e-06,4.94407437731068e-07,1.37193901506756e-05,-8.18226345534188e-06,9.4147562483167e-06,2.36264021438295e-05,-6.90484788529926e-06,-1.32132087898587e-05,-4.7557927041607e-06,4.72054351618279e-06,-1.94755413998485e-06,0.000358378214706473,0.000158819592922197,0.000842311835097805,0.000614336370605278,0.000378601022977725,0.000401104365644203,0.000744567574374363,0.000367755088781165,0.000123526772521867,0.00029736656779723,0.000365512251282391,0.497416561932691,0.516966904063679,1.07834101382488,0.0818321463482756,0
5.99633523337234e-06,3.75985850687539e-07,1.29173999878653e-05,-8.53785401337085e-06,9.11384488885093e-06,2.42306867000595e-05,-9.46349027369602e-06,-1.40575334738648e-05,-5.63423346080557e-06,4.13038369708341e-06,-3.562483360222e-06,0.000364374549939846,0.000159195578772884,0.000855229235085671,0.000605798516591907,0.000387714867866576,0.000425335052344263,0.000735104084100667,0.0003536975553073,0.000117892539061061,0.000301496951494314,0.000361949767922169,0.488479262672811,0.519201228878649,1.0733137829912,0.0829493087557606,0
5.90154434650575e-06,2.520437276811e-07,1.20742344062251e-05,-8.8528815453614e-06,8.80974834551981e-06,2.45397673360773e-05,-1.19812097587171e-05,-1.46883203236236e-05,-6.45778839715066e-06,3.60226164926314e-06,-4.7165418998679e-06,0.000370276094286351,0.000159447622500566,0.000867303469491896,0.000596945635046545,0.000396524616212096,0.00044987481968034,0.00072312287434195,0.000339009234983676,0.00011143475066391,0.000305099213143577,0.000357233226022301,0.490713587487781,0.517525485267421,1.07945817623237,0.0835078899595031,0
5.78649422261273e-06,1.23922383467036e-07,1.11935205277672e-05,-9.11403256066202e-06,8.49935898491989e-06,2.45907386994909e-05,-1.44426661102019e-05,-1.50776933311183e-05,-7.21409629722227e-06,3.15811620199606e-06,-5.29253843256161e-06,0.000376062588508964,0.000159571544884033,0.000878496990019663,0.000587831602485883,0.000405023975197016,0.000474465558379831,0.000708680208231748,0.000323931541652558,0.000104220654366688,0.000308257329345573,0.000351940687589739,0.494065074710236,0.513615416841224,1.08057533863985,0.0768049155145931,0
5.65278880796245e-06,-7.10218572239638e-09,1.02789476908902e-05,-9.16525467000156e-06,8.17866025706535e-06,2.44089201169788e-05,-1.68325878811122e-05,-1.51961420517318e-05,-7.89071918834354e-06,2.82007022941381e-06,-5.19401692889929e-06,0.000381715377316926,0.00015956444269831,0.000888775937710553,0.000578666347815882,0.000413202635454081,0.00049887447849681,0.000691847620350636,0.000308735399600826,9.63299351783445e-05,0.000311077399574987,0.00034674667066084,0.495740818321464,0.511939673229996,1.0733137829912,0.0773634967183356,0
5.50183443201073e-06,-1.39766723948837e-07,9.33426487213979e-06,-4.74968279108275e-06,7.84287963117024e-06,2.40131310569132e-05,-1.91357747997662e-05,-1.50145570954891e-05,-8.47094746307584e-06,2.6111948853672e-06,-4.36475693174816e-06,0.000387217211748937,0.000159424675974361,0.000898110202582693,0.000573916665024799,0.000421045515085251,0.000522887609553723,0.00067271184555087,0.000293720842505337,8.78589877152686e-05,0.000313688594460354,0.000342381913729092,0.506912442396314,0.506353861192571,1.08280966345482,0.0762463343108506,0
5.33490142643595e-06,-2.7277204203203e-07,8.36327612244343e-06,3.29996685561793e-06,7.4866979043867e-06,2.34187055616595e-05,-2.13370580206937e-05,-1.45091888039884e-05,-8.86302241308572e-06,2.55568423066248e-06,-2.81166915804215e-06,0.000392552113175373,0.000159151903932329,0.000906473478705136,0.000577216631880417,0.000428532212989638,0.000546306315115382,0.000651374787530176,0.000279211653701349,7.89959653021829e-05,0.000316244278691016,0.00033957024457105,0.504678117581344,0.506353861192571,1.07834101382488,0.0801564027370481,0
5.15316070700753e-06,-4.04733860851338e-07,7.36983427221708e-06,3.9867117831245e-06,7.10450417392106e-06,2.26392037917098e-05,-2.34212046581172e-05,-1.36709977256786e-05,-3.4729917215228e-06,2.67792827501569e-06,-6.24836011484337e-07,0.000397705273882381,0.000158747170071478,0.000913843312977353,0.000581203343663542,0.000435636717163559,0.000568945518907092,0.000627953582872059,0.00026554065597567,7.55229735806601e-05,0.000318922206966032,0.000338945408559565,0.496857980728949,0.511381092026254,1.07052087697249,0.0846250523669881,0
4.95770605052999e-06,-5.3412895986528e-07,6.35783312524991e-06,3.7542653176484e-06,6.69068010331281e-06,2.16873848900818e-05,-2.53727473675383e-05,-1.25192687054484e-05,7.33450948423196e-06,2.99992405559463e-06,2.0153667445829e-06,0.000402662979932911,0.000158213041111613,0.000920201146102603,0.00058495760898119,0.000442327397266872,0.000590632903797174,0.000602580835504521,0.000253021387270222,8.28574830648921e-05,0.000321922131021627,0.000340960775304148,0.491272168691524,0.514732579248709,1.08169250104734,0.0823907275520181,0
4.74956820120632e-06,-6.59232163049359e-07,5.33119833375938e-06,3.43837202183232e-06,6.2398934451872e-06,2.05757583182488e-05,-2.71757110665536e-05,-1.11147054564664e-05,7.82220270061483e-06,3.5366301607767e-06,4.85331679997414e-06,0.000407412548134117,0.000157553808948563,0.000925532344436363,0.000588395981003022,0.000448567290712059,0.000611208662115423,0.000575405124437967,0.000241906681813755,9.06796857655069e-05,0.000325458761182403,0.000345814092104122,0.494623655913979,0.516408322859936,1.07834101382488,0.0823907275520181,0
4.52972432546313e-06,-7.78039096125695e-07,4.29387712455435e-06,3.07231570218348e-06,5.74737979706853e-06,1.93168903742392e-05,-2.88131955670406e-05,-9.56132053914687e-06,7.37084876416411e-06,4.28945046375038e-06,7.59619692544856e-06,0.00041194227245958,0.000156775769852438,0.000929826221560917,0.000591468296705206,0.000454314670509128,0.000630525552489662,0.000546591928870926,0.000232345361274608,9.8050534529671e-05,0.000329748211646154,0.000353410289029571,0.497975143136434,0.510263929618769,1.0733137829912,0.0823907275520181,0
4.2991048301852e-06,-8.88168847714885e-07,3.24982702768492e-06,2.66160609865851e-06,5.20919338719639e-06,1.79235649929088e-05,-3.02667524742545e-05,-7.98740674087291e-06,6.78308172575888e-06,5.23914622280078e-06,9.96357365310694e-06,0.000416241377289765,0.000155887601004723,0.000933076048588602,0.000594129902803864,0.000459523863896324,0.000648449117482571,0.000516325176396672,0.000224357954533736,0.00010483361625543,0.000334987357868955,0.000363373862682678,0.500209467951404,0.509705348415026,1.07666527021366,0.0807149839407906,0
4.05859868975129e-06,-9.8673998536253e-07,2.2030037433484e-06,2.20770332142047e-06,4.62241184577403e-06,1.64088551786137e-05,-3.15154636615854e-05,-6.51019032789441e-06,6.09115923034344e-06,6.34081699793851e-06,1.17303962263678e-05,0.000420299975979517,0.00015490086101936,0.00093527905233195,0.000596337606125285,0.000464146275742098,0.000664857972661184,0.000484809712735087,0.000217847764205841,0.000110924775485773,0.000341328174866893,0.000375104258909046,0.503002373970116,0.508029604803799,1.07778243262114,0.0756877531071081,0
3.80905792511492e-06,-1.07021358727142e-06,1.15734826942459e-06,1.71135502825132e-06,3.98528551026156e-06,1.47861377202213e-05,-3.2534582360521e-05,-5.2049231583593e-06,5.31658585514881e-06,7.5241665475182e-06,1.2750162967292e-05,0.000424109033904632,0.000153830647432089,0.000936436400601375,0.000598048961153536,0.00046813156125236,0.000679644110381406,0.000452275130374566,0.000212642841047482,0.000116241361340922,0.000348852341414411,0.000387854421876338,0.494065074710236,0.513056835637481,1.07778243262114,0.0745705906996231,0
3.55130159047538e-06,-1.1341997982605e-06,1.16773400448593e-07,1.17339281101986e-06,3.2973277694627e-06,1.30690705662544e-05,-3.32935319539081e-05,-4.09648872990906e-06,4.48172462469403e-06,8.70089009542081e-06,1.29565948234595e-05,0.000427660335495107,0.000152696447633828,0.000936553174001823,0.000599222353964556,0.000471428889021822,0.00069271318094766,0.000418981598420658,0.000208546352317573,0.000120723085965616,0.000357553231509832,0.000400811016699797,0.490155006284038,0.518642647674906,1.07610668900991,0.0790392403295631,0
3.2861194610885e-06,-1.17323359016678e-06,-9.14850301257978e-07,5.94980619394851e-07,2.55934830760597e-06,1.12715447225173e-05,-3.37529725168261e-05,-3.17259611316996e-06,3.61152587256799e-06,9.77772825883544e-06,1.23510860733569e-05,0.000430946454956195,0.000151523214043661,0.000935638323700566,0.000599817334583951,0.000473988237329428,0.000703984725670178,0.000385228625903831,0.000205373756204403,0.000124334611838184,0.000367330959768668,0.000413162102773154,0.491830749895266,0.519201228878649,1.08001675743611,0.0812735651445331,0
3.01427552719754e-06,-1.1805480607444e-06,-1.93370897029e-06,-2.22975730579042e-08,1.77343520801193e-06,9.40761823036102e-06,-3.38605616773711e-05,-2.40477570699033e-06,2.73419649608341e-06,1.06706297166407e-05,1.09851224205799e-05,0.000433960730483393,0.000150342665982917,0.000933704614730276,0.000599795037010893,0.00047576167253744,0.000713392343900539,0.00035136806422646,0.000202968980497412,0.000127068808334268,0.000378001589485308,0.000424147225193734,0.494623655913979,0.515849741656194,1.07443094539869,0.0835078899595031,0
2.73651135320103e-06,-1.14792198748601e-06,-2.93606025404756e-06,-6.76408759836436e-07,9.4289443537828e-07,7.49143729034368e-06,-3.35450331718196e-05,-1.76532799368268e-06,1.88185093365998e-06,1.13150611744e-05,8.94398290734999e-06,0.000436697241836594,0.000149194743995431,0.000930768554476228,0.000599118628251056,0.000476704566972819,0.000720883781190882,0.000317823031054641,0.00020120365250373,0.000128950659267928,0.000389316650659708,0.000433091208101084,0.501326630358889,0.506912442396314,1.07498952660243,0.0846250523669881,0
2.4535493397856e-06,-1.06576865130847e-06,-3.91824840099487e-06,-1.36486722131235e-06,7.21562915320119e-08,5.53714813446022e-06,-3.27085023378617e-05,-1.23589300676756e-06,1.09151072753778e-06,1.16700220227654e-05,6.33431025315675e-06,0.00043915079117638,0.000148128975344123,0.000926850306075233,0.000597753761029744,0.000476776723264351,0.000726420929325342,0.000285114528716779,0.000199967759496962,0.000130042169995465,0.000400986672682474,0.000439425518354241,0.504119536377601,0.506912442396314,1.0811339198436,0.0784806591258206,0
2.16609591925735e-06,-9.23772230005396e-07,-4.87671954654888e-06,-2.08474319963548e-06,-8.33341685558642e-07,3.55880238302284e-06,-3.12178555598786e-05,-8.08261666922162e-07,4.06874548345874e-07,1.17165294924078e-05,3.27566661302082e-06,0.000441316887095637,0.000147205203114117,0.000921973586528684,0.000595669017830109,0.000475943381578792,0.000729979731708365,0.0002538966731569,0.00019915949783004,0.000130449044543811,0.000412703202174881,0.000442701184967261,0.504678117581344,0.506353861192572,1.0772238514174,0.0779220779220781,0
1.8748447145197e-06,-7.12520336590888e-07,-5.80803712374651e-06,-2.83267798859444e-06,-1.76728685149792e-06,1.5702581022426e-06,-2.88976854304159e-05,-4.79779943154122e-07,-1.18408132901269e-07,1.14530683438445e-05,-1.04817305443604e-07,0.000443191731810157,0.000146492682777526,0.000916165549404938,0.000592836339841514,0.000474176094727294,0.000731549989810608,0.000224998987726484,0.000198679717886886,0.00013033063641091,0.000424156270518726,0.000442596367661818,0.500768049155146,0.508588186007541,1.0772238514174,0.0790392403295631,0
1.58047969668401e-06,-4.26540816054523e-07,-6.70889732497248e-06,-3.60490227619054e-06,-2.72263146319448e-06,-4.14921534709774e-07,-2.55260348748054e-05,-2.46043398361318e-07,-4.14793424776549e-07,1.08904047585154e-05,-3.67570751976719e-06,0.000444772211506841,0.000146066141961472,0.000909456652079965,0.000589231437565324,0.0004714534632641,0.000731135068275898,0.000199472952851679,0.000198433674488525,0.000129915842986133,0.000435046675277241,0.000438920660142051,0.493506493506493,0.513056835637481,1.07778243262114,0.0835078899595031,0
1.28367838332297e-06,-6.85566390595121e-08,-7.57614453681527e-06,-4.39725582929151e-06,-3.69173491329494e-06,-2.38357026628407e-06,-2.08161349338642e-05,-9.33958677437239e-08,-3.87321562558151e-07,1.0047180772846e-05,-7.30321306597047e-06,0.000446055889890164,0.000145997585322412,0.00090188050754315,0.000584834181736032,0.000467761728350805,0.000728751498009614,0.000178656817917815,0.000198340278620781,0.000129528521423575,0.000445093856050087,0.00043161744707608,0.497416561932691,0.515291160452451,1.07610668900991,0.084625052366988,0
9.85115128027884e-07,3.46622826422407e-07,-8.40678666164281e-06,-5.20520725807647e-06,-4.6665039418872e-06,-4.32301982645296e-06,-1.43307569811294e-05,6.95480216537751e-09,9.36260556194831e-08,8.94675367513296e-06,-1.08522814318235e-05,0.000447041005018192,0.000146344208148835,0.000893473720881507,0.000579628974477956,0.000463095224408917,0.000724428478183161,0.000164326060936685,0.000198347233422946,0.000129622147479195,0.00045404060972522,0.000420765165644257,0.492389331099008,0.516966904063679,1.07834101382488,0.0812735651445331,0
6.85464561957477e-07,7.91574586383748e-07,-9.19801022603484e-06,-6.02387298553214e-06,-5.63852775194488e-06,-6.22119852255955e-06,-5.4977410588515e-06,1.02386838125531e-07,1.1779032398734e-06,7.61518696849699e-06,-1.418707484194e-05,0.000447726469580149,0.000147135782735218,0.000884275710655472,0.000573605101492424,0.000457456696656973,0.000718207279660602,0.000158828319877834,0.000198449620261072,0.000130800050719068,0.000461655796693717,0.000406578090802317,0.491830749895266,0.516966904063679,1.07778243262114,0.0812735651445331,0
3.85405259491971e-07,1.23139197247228e-06,-9.94719515680375e-06,-6.84803481128303e-06,-6.59920584874721e-06,-8.0667257308497e-06,5.12955732934393e-06,2.59633872253581e-07,2.94190988728039e-06,6.08009593037849e-06,-1.7170923290991e-05,0.000448111874839641,0.000148367174707691,0.000874328515498669,0.000566757066681141,0.000450857490808225,0.000710140553929752,0.000163957877207178,0.000198709254133325,0.000133741960606348,0.000467735892624096,0.000389407167511326,0.493506493506494,0.513615416841224,1.07554810780617,0.0756877531071081,0
8.56237131964164e-08,1.63293547179969e-06,-1.06519290793439e-05,-7.67215565846758e-06,-7.53986702772824e-06,-9.84900068597681e-06,1.45215714774933e-05,5.61991719639945e-07,5.21838799863802e-06,4.3700448418387e-06,-1.96658470942469e-05,0.000448197498552837,0.00015000011017949,0.000863676586419325,0.000559084911022673,0.000443317623780497,0.000700291553243775,0.000178479448684671,0.000199271245852965,0.000138960348604987,0.000472105937465934,0.000369741320417079,0.492389331099008,0.510822510822511,1.07443094539869,0.0751291719033656,0
