dfreq810,dfreq1012,dfreq1214,dfreq1416,dfreq1618,dfreq1820,dfreq2022,dfreq2224,dfreq2426,dfreq2628,dfreq2830,freq810,freq1012,freq1214,freq1416,freq1618,freq1820,freq2022,freq2224,freq2426,freq2628,freq2830,allAccBX,allAccBY,allAccTX,allAccTY,pcd
0,0,0,0,0,0,0,0,0,0,0,0.0028874713311806,0.00350982692742432,0.00351749376624419,0.00104249740579796,0.00111075034721088,0.00115918457188879,0.000448632353326039,0.000505817971051816,0.00043547179275414,0.00185402633019237,0.00170812874837237,-0.896802122608574,-0.272308336824466,-0.131545873481357,-0.923614020388214,0
4.47534912088291e-05,0.000103710602650838,9.58394247030348e-05,6.82983083522221e-05,4.48675832889164e-05,4.44721874879957e-05,3.05948005658687e-05,-7.11213668363803e-05,-2.908423557523e-05,-2.98326288802962e-05,-0.000147357274843329,0.00293222482238942,0.00361353753007515,0.00361333319094722,0.00111079571415019,0.0011556179304998,0.00120365675937678,0.000479227153891908,0.000434696604215436,0.00040638755717891,0.00182419370131207,0.00156077147352904,-0.894975991750185,-0.263349553672134,-0.128538128538128,-0.923442149248601,0
4.39317103570428e-05,0.000103755495086175,9.65818447740204e-05,6.8345326751312e-05,4.3823660041465e-05,4.37260121050672e-05,4.41565322324846e-05,-6.55230033732219e-05,-3.06584060098637e-05,-2.26541684514633e-05,-0.000152090590009361,0.00297615653274647,0.00371729302516133,0.00370991503572124,0.0011791410409015,0.00119944159054126,0.00124738277148185,0.000523383686124392,0.000369173600842214,0.000375729151169047,0.00180153953286061,0.00140868088351968,-0.900346964863094,-0.277314083765697,-0.131223615094582,-0.928276025050218,0
4.20935007164626e-05,0.000101424521202547,9.48624885484676e-05,6.6674024396939e-05,4.15864432666429e-05,4.11845263595973e-05,6.17146940883586e-05,-4.42752248311995e-05,-3.04413755042651e-05,-1.64320090442198e-05,-0.000150070727179518,0.00301825003346293,0.00381871754636387,0.00380477752426971,0.00124581506529844,0.0012410280338079,0.00128856729784145,0.000585098380212751,0.000324898376011015,0.000345287775664781,0.00178510752381639,0.00125861015634016,-0.890679213259858,-0.265497942917298,-0.125852641981674,-0.919682468069565,0
4.01805291554091e-05,9.88707709382499e-05,9.26702157077277e-05,6.4704978268558e-05,3.91124806560952e-05,3.79490968174644e-05,7.79692702755015e-05,-5.82076794723008e-06,-2.73445132744652e-05,-1.25738875264958e-05,-0.000143267964973675,0.00305843056261834,0.00391758831730212,0.00389744773997744,0.001310520043567,0.001280140514464,0.00132651639465891,0.000663067650488252,0.000319077608063785,0.000317943262390316,0.0017725336362899,0.00111534219136649,-0.894975991750185,-0.263886650983425,-0.120481668868765,-0.926127635805055,0
3.81979960584881e-05,9.61041859205867e-05,9.00260522026844e-05,6.24498388124353e-05,3.64186593333428e-05,3.41662293888046e-05,8.92327332370639e-05,2.49976662142389e-05,-2.16207570352202e-05,-1.14352463936899e-05,-0.00013038902816359,0.00309662855867683,0.00401369250322271,0.00398747379218012,0.00137296988237943,0.00131655917379734,0.00136068262404772,0.000752300383725316,0.000344075274278023,0.000296322505355096,0.00176109838989621,0.0009849531632029,-0.903032451419548,-0.26710923485117,-0.125315544670383,-0.928813122361509,0
3.61508529335935e-05,9.3134139650548e-05,8.69509366237531e-05,5.99206565465187e-05,3.35219610555059e-05,2.9955579867293e-05,9.62629548947892e-05,4.45312700730865e-05,-1.6122799335925e-05,-1.30899667219379e-05,-0.000109920126718815,0.00313277941161042,0.00410682664287326,0.00407442472880387,0.00143289053892595,0.00135008113485285,0.00139063820391501,0.000848563338620105,0.00038860654435111,0.000280199706019171,0.00174800842317427,0.000875033036484084,-0.899809867551803,-0.272480207964079,-0.125315544670383,-0.926664733116346,0
3.4043844659621e-05,8.99696060074938e-05,8.34660530708523e-05,5.7130090752629e-05,3.04395106300317e-05,2.54165487921134e-05,0.00010069233029117,6.21710860322381e-05,-1.24187092604962e-05,-1.74141253108755e-05,-8.07551305754105e-05,0.00316682325627004,0.00419679624888075,0.00415789078187473,0.00149002062967858,0.00138052064548288,0.00141605475270712,0.000949255668911276,0.000450777630383348,0.000267780996758675,0.00173059429786339,0.000794277905908674,-0.892827602505022,-0.26657213753988,-0.116184890378438,-0.924516343871182,0
3.18815445231706e-05,8.66192932613254e-05,7.95930609533823e-05,5.40915396787733e-05,2.71886182237782e-05,2.06331271196765e-05,0.000103514980951516,8.00294238576411e-05,-8.33458591097434e-06,-2.41614523623164e-05,-4.37228422373615e-05,0.00319870480079321,0.00428341554214208,0.00423748384282811,0.00154411216935735,0.00140770926370666,0.0014366878798268,0.00105277064986279,0.000530807054240989,0.000259446410847701,0.00170643284550108,0.000750555063671312,-0.899809867551803,-0.263349553672134,-0.11725908500102,-0.9293502196728,0
2.96683833645255e-05,8.30917505356948e-05,7.53542464024901e-05,5.08192163961067e-05,2.37868084873004e-05,1.5677362813226e-05,0.000105207956965134,9.69049064130345e-05,1.32786022442224e-05,-3.30117675841758e-05,-3.13263960192479e-06,0.00322837318415774,0.00436650729267777,0.0043128380892306,0.00159493138575346,0.00143149607219396,0.00145236524264003,0.00115797860682793,0.000627711960654024,0.000272725013091923,0.0016734210779169,0.000747422424069388,-0.903569548730839,-0.268183429473752,-0.120481668868765,-0.928813122361509,0
2.74086738948948e-05,7.93954520633706e-05,7.07726149510261e-05,4.73281858765593e-05,2.02518335396058e-05,1.06118146691976e-05,0.000105987823105138,0.000111673556560481,8.22862668196114e-05,-4.35927743438304e-05,3.43213131463693e-05,0.00325578185805263,0.00444590274474114,0.00438361070418162,0.00164225957163002,0.00145174790573356,0.00146297705730922,0.00126396642993306,0.000739385517214504,0.000355011279911534,0.00162982830357307,0.000781743737215757,-0.89819857561793,-0.268720526785043,-0.111888111888112,-0.926664733116346,0
2.51066310440738e-05,7.55388633794565e-05,6.58719405080789e-05,4.36343735949079e-05,1.66016693115838e-05,5.49128760344501e-06,0.000105951779659899,0.000124137371832896,0.000124523954451134,-5.54817848189512e-05,6.35391816804429e-05,0.00328088848909671,0.0045214416081206,0.0044494826446897,0.00168589394522493,0.00146834957504515,0.00146846834491267,0.00136991820959296,0.000863522889047401,0.000479535234362668,0.00157434651875412,0.0008452829188962,-0.900346964863094,-0.264423748294716,-0.109739722642948,-0.927738927738928,0
2.27663890377088e-05,7.15304927002532e-05,6.06767818679028e-05,3.97545526699444e-05,1.28544961354132e-05,3.64068237259253e-07,0.000105144216255215,0.000134591566848473,0.000140049322462317,-6.81922268765708e-05,8.34347180250886e-05,0.00330365487813442,0.00459297210082085,0.00451015942655761,0.00172564849789487,0.00148120407118056,0.00146883241314993,0.00147506242584818,0.000998114455895874,0.000619584556824986,0.00150615429187755,0.000928717636921288,-0.905717937976002,-0.262812456360844,-0.11725908500102,-0.926664733116346,1
2.03920157769238e-05,6.73789300565273e-05,5.52124750725948e-05,3.57063144729823e-05,9.02866520512808e-06,-4.72718112640982e-06,0.000103588117761048,0.00014337313040859,0.000150881398903315,-8.11447020966618e-05,9.57819807173957e-05,0.00332404689391134,0.00466035103087738,0.0045653719016302,0.00176135481236785,0.00149023273638569,0.00146410523202352,0.00157865054360923,0.00114148758630446,0.000770465955728301,0.00142500958978089,0.00102449961763868,-0.898735672929221,-0.268183429473752,-0.111351014576821,-0.927201830427637,1
1.79875249929351e-05,6.3092876232327e-05,4.950510777241e-05,3.15080262947196e-05,5.14265288793412e-06,-9.74475645702561e-06,0.000101300429190252,0.000150704749237641,0.000159624116143203,-9.36153459058762e-05,0.000103122232659854,0.00334203441890427,0.00472344390710971,0.00461487700940261,0.00179286283866257,0.00149537538927362,0.00145436047556649,0.00167995097279948,0.00129219233554211,0.000930090071871504,0.00133139424387501,0.00112762185029854,-0.89819857561793,-0.26710923485117,-0.112425209199402,-0.928276025050219,1
1.55568865694371e-05,5.86811631633575e-05,4.35814801415125e-05,2.71787788022209e-05,1.21500500539578e-06,-1.46553911158998e-05,9.82998522134459e-05,0.000156693859496985,0.000166568139395764,-0.000104644252343842,0.000107647144148852,0.00335759130547371,0.00478212507027307,0.00465845848954412,0.00182004161746479,0.00149659039427902,0.00143970508445059,0.00177825082501292,0.00144888619503909,0.00109665821126727,0.00122674999153117,0.00123526899444739,-0.899809867551803,-0.26710923485117,-0.124241350047801,-0.927201830427637,1
1.31040353623223e-05,5.41527671422065e-05,3.74690557672251e-05,2.27383254698093e-05,-2.73572676653044e-06,-1.94298181921038e-05,9.46108843052202e-05,0.000161369369685523,0.000171687200885173,-0.000112872023862583,0.000110933651884375,0.00337069534083603,0.00483627783741527,0.00469592754531135,0.0018427799429346,0.00149385466751249,0.00142027526625849,0.00187286170931814,0.00161025556472461,0.00126834541215244,0.00111387796766858,0.00134620264633176,-0.870269515430806,-0.267646332162461,-0.126389739292965,-0.909477619155038,1
1.06328787957228e-05,4.95168159387015e-05,3.11959051184094e-05,1.82070158288416e-05,-6.69105424229563e-06,-2.40423676520015e-05,9.02658916140172e-05,0.000164715456329398,0.000174897004672797,-0.000116256885125598,0.000113997203650939,0.00338132821963176,0.00488579465335397,0.00472712345042976,0.00186098695876344,0.00148716361327019,0.00139623289860649,0.00196312760093216,0.00177497102105401,0.00144324241682524,0.000997621082542986,0.0014601998499827,-0.882085656279204,-0.269257624096334,-0.101683262973585,-0.949759917501853,1
8.14730347328254e-06,4.47825907572271e-05,2.47906436196136e-05,1.36057241879059e-05,-1.06326256868886e-05,-2.84705582970694e-05,8.53061043581084e-05,0.000166695335004045,0.000176113496873039,-0.000111644517938602,0.000117398873425646,0.00338947552310504,0.0049305772441112,0.00475191409404937,0.00187459268295135,0.0014765309875833,0.00136776234030942,0.00204843370529027,0.00194166635605806,0.00161935591369828,0.000885976564604384,0.00157759872340835,-0.931498608917964,-0.256904385936644,-0.0334719044396461,-0.970706712642196,1
5.65118101198596e-06,3.99595238057306e-05,1.82823659406785e-05,8.95577538837693e-06,-1.45423002189385e-05,-3.26946493541679e-05,7.97820035705011e-05,0.000167266700560607,0.000175271217064014,-9.43752886595502e-05,0.000121338184046846,0.00339512670411702,0.00497053676791693,0.00477019645999005,0.00188354845833973,0.00146198868736437,0.00133506769095525,0.00212821570886077,0.00210893305661866,0.00179462713076229,0.000791601275944834,0.0016989369074552,-0.940092165898618,-0.361101264327071,0.00681039390716835,-0.978226075000269,1
3.14837328086511e-06,3.50571921353135e-05,1.17005777999007e-05,4.27886915855321e-06,-1.84022213356296e-05,-3.66971190675143e-05,7.37533643410861e-05,0.000166391525074527,0.000172330516679895,-5.8953459186615e-05,0.000125730715469965,0.00339827507739789,0.00500559396005224,0.00478189703778995,0.00188782732749828,0.00144358646602874,0.00129837057188774,0.00220196907320186,0.00227532458169319,0.00196695764744219,0.000732647816758219,0.00182466762292516,-0.97285510188736,-0.257978580559226,0.0497781788104371,-0.990579313159959,1
6.42737207881029e-07,3.00853083174289e-05,5.07512632835858e-06,-4.02995297137283e-07,-2.21948868928076e-05,-4.04620391885155e-05,6.72891181385154e-05,0.000164042236434078,0.000167280787890704,-3.41471525760681e-06,0.000130280384869454,0.00339891781460577,0.00503567926836967,0.00478697216411831,0.00188742433220114,0.00142139157913593,0.00125790853269922,0.00226925819134037,0.00243936681812727,0.00213423843533289,0.000729233101500612,0.00195494800779461,-0.905180840664711,-0.247236634333409,-0.0227299582138289,-0.953519598680889,1
-1.8618706961941e-06,2.50537084529254e-05,-1.56387018466608e-06,-5.06759268922461e-06,-2.59032121629965e-05,-4.3974316359626e-05,6.04671430481383e-05,0.000160205576793472,0.000160141895499159,6.28252729279399e-05,0.000134551149852755,0.00339705594390958,0.0050607329768226,0.00478540829393364,0.00188235673951192,0.00139548836697293,0.00121393421633959,0.00232972533438851,0.00259957239492074,0.00229438033083205,0.000792058374428552,0.00208949915764737,-0.878325975100168,-0.250996315512444,-0.11725908500102,-0.931498608917964,0
-4.36158995842807e-06,1.99723379496562e-05,-8.18609258560442e-06,-9.69254099815161e-06,-2.95105811840908e-05,-4.72187764461996e-05,5.33740604940652e-05,0.000154884934309066,0.000150964592546407,0.000121807950588626,0.00013803646861391,0.00339269435395115,0.00508070531477225,0.00477722220134804,0.00187266419851377,0.00136597778578884,0.00116671543989339,0.00238309939488258,0.0027544573292298,0.00244534492337846,0.000913866325017178,0.00222753562626128,-0.851471109535625,-0.220381768768865,-0.142502658631691,-0.908403424532457,0
-6.85255177715425e-06,1.48512354599022e-05,-1.47610909002069e-05,-1.42553644420602e-05,-3.3000878801967e-05,-5.01790797385931e-05,4.61050964376489e-05,0.000148101627113733,0.000139830230949491,0.000163527770793904,0.00014022155641065,0.00338584180217399,0.00509555655023216,0.00476246111044783,0.00185840883407171,0.00133297690698687,0.0011165363601548,0.00242920449132022,0.00290255895634354,0.00258517515432795,0.00107739409581108,0.00236775718267193,-0.862213055761442,-0.100609068351003,-0.164523648394616,-0.904643743353421,0
-9.33087454019687e-06,9.70051533368075e-06,-2.1258354217635e-05,-1.87335472384726e-05,-3.63584900540063e-05,-5.28364798539668e-05,3.8764044781165e-05,0.00013989543080499,0.000126849905476394,0.000189352545120904,0.000140633679688287,0.0033765109276338,0.00510525706556584,0.0047412027562302,0.00183967528683323,0.00129661841693287,0.00106369988030083,0.00246796853610139,0.00304245438714853,0.00271202505980434,0.00126674664093199,0.00250839086236022,-0.895513089061476,-0.0017831630734854,-0.130686517783292,-0.904106646042129,0
-1.17926591004648e-05,4.53034891679215e-06,-2.76473810267713e-05,-2.31045746924314e-05,-3.9568241205731e-05,-5.5168486649601e-05,3.14633419006526e-05,0.000130324530314085,0.000112163102152567,0.000203782207996195,0.000138878055288809,0.00336471826853333,0.00510978741448263,0.00471355537520343,0.0018165707121408,0.00125705017572714,0.00100853139365123,0.00249943187800204,0.00317277891746261,0.00282418816195691,0.00147052884892818,0.00264726891764902,-0.911626008400202,0.106173396495977,-0.0979235817945493,-0.936869582030872,0
-1.42339836796956e-05,-6.49054997328875e-07,-3.38977513372422e-05,-2.73459572456142e-05,-4.26152286939336e-05,-5.71475763406482e-05,2.43242129110079e-05,0.000119465012465468,9.59358967475171e-05,0.000210254773865194,0.000134659643590899,0.00335048428485364,0.0051091383594853,0.00467965762386618,0.00178922475489519,0.0012144349470332,0.000951383817310585,0.00252375609091305,0.00329224392992808,0.00292012405870443,0.00168078362279338,0.00278192856123992,-0.946000236322817,0.124971802391157,0.0014394207942597,-0.936869582030872,0
-1.66508982663406e-05,-5.82747026672912e-06,-3.99792029117151e-05,-3.14352318726524e-05,-4.54844133995279e-05,-5.87402225139848e-05,1.74767672568945e-05,0.000107409978059815,7.83587414572447e-05,0.000210874189387059,0.000127793064808811,0.0033338333865873,0.00510331088921857,0.00463967842095447,0.00175778952302254,0.00116895053363368,0.0008926435947966,0.00254123285816994,0.0033996539079879,0.00299848280016167,0.00189165781218043,0.00290972162604873,-0.95405669599218,0.0943572556475784,-0.0742913000977514,-0.94761152825669,0
-1.90394183664394e-05,-1.09946737640631e-05,-4.58617152867338e-05,-3.53499334665793e-05,-4.81596720815687e-05,-5.99066967222299e-05,1.10597831425585e-05,9.42683309004765e-05,5.96438786475053e-05,0.000206911271021248,0.00011820367049197,0.00331479396822086,0.00509231621545451,0.00459381670566773,0.00172243958955596,0.00112079086155211,0.00083273689807437,0.0025522926413125,0.00349392223888837,0.00305812667880918,0.00209856908320168,0.00302792529654071,-0.987356729292213,0.00627329659587749,-0.125315544670383,-0.967484128774451,0
-2.13955179563211e-05,-1.61404657197219e-05,-5.15156070578122e-05,-3.90675264046313e-05,-5.0621433348243e-05,-6.06022494281371e-05,5.21970389612486e-06,8.01632893568218e-05,4.00224254410377e-05,0.000199187693722954,0.000105922695617031,0.00329339845026454,0.00507617574973479,0.00454230109860992,0.00168337206315132,0.00107016942820386,0.000772134648646233,0.00255751234520863,0.00357408552824519,0.00309814910425021,0.00229775677692464,0.00313384799215774,-0.940092165898617,-0.0597896726928982,-0.155930091413962,-0.920756662692147,0
-2.37151214732508e-05,-2.12546897587944e-05,-5.69116542299963e-05,-4.25652830278497e-05,-5.28400137699504e-05,-6.07802378153031e-05,1.08059540708701e-07,6.5230659975274e-05,1.97411802461606e-05,0.000188294547713067,9.10788321101343e-05,0.00326968332879129,0.00505492105997599,0.00448538944437993,0.00164080678012348,0.00101732941443391,0.00071135441083093,0.00255762040474934,0.00363931618822047,0.00311789028449638,0.0024860513246377,0.00322492682426787,-0.889067921325985,-0.0281009313267375,-0.14841072905589,-0.909477619155038,0
-2.59940946644205e-05,-2.63272523385247e-05,-6.20212403283828e-05,-4.58200908787186e-05,-5.47528279121138e-05,-6.03970468816257e-05,-4.1238536429922e-06,4.96169099990103e-05,-9.40788620355272e-07,0.000174709051765609,7.38878705920814e-05,0.00324368923412686,0.00502859380763747,0.00442336820405154,0.00159498668924476,0.000962576586521799,0.000650957363949305,0.00255349655110634,0.00368893309821948,0.00311694949587602,0.00266076037640331,0.00329881469485995,-0.950297014813144,-0.0608638673154799,-0.118870376934893,-0.942240555143781,0
-2.82282340955393e-05,-3.13481412798711e-05,-6.68165523661718e-05,-4.88081636419336e-05,-5.61579947804224e-05,-5.94162773958298e-05,-7.33453377696567e-06,3.34770750350533e-05,-2.17557012581935e-05,0.000158855966376197,5.46414657445942e-05,0.00321546100003133,0.0049972456663576,0.00435655165168537,0.00154617852560282,0.000906418591741377,0.000591541086553475,0.00254616201732938,0.00372241017325453,0.00309519379461783,0.00281961634277951,0.00335345616060455,-2.21569828021441,-2.1630627437079,-0.10490584684133,-0.943314749766363,0
-3.04132550977762e-05,-3.63074430678196e-05,-7.12708404359587e-05,-5.15046210854435e-05,-5.5835450319957e-05,-5.78034475440539e-05,-9.40754997828504e-06,1.69725386536222e-05,-4.24306873784098e-05,0.000141139307145603,3.36956672115016e-05,0.00318504774493355,0.00496093822328978,0.00428528081124941,0.00149467390451738,0.00085058314142142,0.000533737639009421,0.00253675446735109,0.00373938271190815,0.00305276310723942,0.00296075564992511,0.00338715182781605,-3.71849655720623,-4.737370156725,-0.101683262973585,-0.950297014813144,0
-3.25447779048736e-05,-4.11953585688855e-05,-7.53587620548404e-05,-5.38828900978545e-05,-4.162390934312e-05,-5.54846912535612e-05,-1.02730944757895e-05,2.68721902588372e-07,-6.26913696179579e-05,0.000121957714339904,1.14596168276598e-05,0.00315250296702868,0.00491974286472089,0.00420992204919457,0.00144079101441953,0.0008089592320783,0.00047825294775586,0.0025264813728753,0.00373965143381074,0.00299007173762146,0.00308271336426502,0.00339861144464371,-3.83397247913377,-4.79645086096699,-0.075902592031624,-0.963724447595415,0
-3.46183117008294e-05,-4.60022167798517e-05,-7.90568343918691e-05,-5.59138616865781e-05,-7.68481916030924e-06,-5.21716296604285e-05,-9.93394306195118e-06,-1.64672777236462e-05,-8.22652857566642e-05,0.000101710491879333,-1.16152932117023e-05,0.00311788465532785,0.00487374064794104,0.0041308652148027,0.00138487715273295,0.000801274412917991,0.000426081318095431,0.00251654742981335,0.0037231841560871,0.00290780645186479,0.00318442385614435,0.003386996151432,-3.87156929092413,-4.80074763945732,-0.0538816022686987,-0.994876091650285,0
-3.66292362613354e-05,-5.07184861773891e-05,-8.23440164001389e-05,-5.75647185761814e-05,2.21384296379863e-06,-4.65252713352452e-05,-8.48994682041719e-06,-3.30690565390943e-05,-0.000100884994457674,8.07981042939107e-05,-3.50455179643633e-05,0.00308125541906651,0.00482302216176365,0.00404852119840256,0.00132731243415677,0.000803488255881789,0.000379556046760186,0.00250805748299294,0.003690115099548,0.00280692145740712,0.00326522196043826,0.00335195063346764,-3.88768221026285,-4.80343312601377,-0.0297122232606101,-1.0056180378761,0
-3.85727808284273e-05,-5.53347831817172e-05,-8.52024361643481e-05,-5.87973305789639e-05,2.31425093186861e-06,-3.11204820484266e-05,-6.15108324321509e-06,-4.93732408217156e-05,-0.000118290660512864,5.96192593542463e-05,-5.83243765784518e-05,0.00304268263823808,0.00476768737858193,0.00396331876223822,0.0012685151035778,0.000805802506813658,0.000348435564711759,0.00250190639974972,0.00364074185872629,0.00268863079689426,0.00332484121979251,0.00329362625688919,-3.89734996186609,-4.80397022332506,-0.0119880119880117,-0.987356729292213,0
-4.04439998054605e-05,-5.98418771761066e-05,-8.7618263365943e-05,-5.95661186627734e-05,1.34183401662169e-06,1.35901882830954e-05,-3.22837023277855e-06,-6.52217432157778e-05,-0.000134231838474713,3.85658275465221e-05,-8.09295517340456e-05,0.00300223863843262,0.00470784550140583,0.00387570049887227,0.00120894898491503,0.00080714434083028,0.000362025752994855,0.00249867802951694,0.00357552011551051,0.00255439895841954,0.00336340704733903,0.00321269670515514,-3.90594351884675,-4.80719280719281,0.00358781003942319,-0.966947031463161,0
-4.22377447969326e-05,-6.42306914340196e-05,-8.95826996822778e-05,-5.98153634708985e-05,1.33924699667457e-07,5.85838038159481e-05,-9.79626582726587e-08,-8.04638908341012e-05,-0.000148468046256617,1.80163739460807e-05,-0.000102328496543323,0.00296000089363569,0.00464361480997181,0.00378611779918999,0.00114913362144413,0.000807278265529947,0.000420609556810803,0.00249858006685867,0.00349505622467641,0.00240593091216293,0.00338142342128511,0.00311036820861182,-3.90809190809191,-4.81095248837184,-0.07966227321066,-0.985745437358341,0
-4.39486324408191e-05,-6.8492299192628e-05,-9.10930198043413e-05,-5.94762007355624e-05,-1.14469168308669e-06,7.4346100624443e-05,2.85448326948611e-06,-9.49583726717455e-05,-0.0001607675018755,-1.67118608490179e-06,-0.000121981002916807,0.00291605226119487,0.00457512251077918,0.00369502477938565,0.00108965742070857,0.000806133573846861,0.000494955657435246,0.00250143455012816,0.00340009785200466,0.00224516341028743,0.00337975223520021,0.00298838720569501,-3.91292578389353,-4.81310087761701,-0.117796182312311,-0.964261544906706,0
-4.55710073861094e-05,-7.26179139687224e-05,-9.2153545161996e-05,-5.84642648088882e-05,-2.43255418653186e-06,7.99805051381991e-05,5.29171617719322e-06,-0.000108574948557909,-0.000170903006125347,-2.01674426613253e-05,-0.000139338002256214,0.00287048125380876,0.00450250459681046,0.00360287123422366,0.00103119315589968,0.000803701019660329,0.000574936162573445,0.00250672626630535,0.00329152290344675,0.00207426040416208,0.00335958479253888,0.0028490492034388,-3.91399997851611,-4.81095248837184,-0.100071971039713,-0.962113155661543,0
-4.70988996472497e-05,-7.65988730330536e-05,-9.27763805111115e-05,-5.66805719236868e-05,-3.69191191815915e-06,8.29247868856257e-05,6.96657461073547e-06,-0.000121195854036813,-0.000178643220876557,-3.71795690149914e-05,-0.000153835545383146,0.00282338235416151,0.0044259057237774,0.00351009485371255,0.000974512583975992,0.00080000910774217,0.000657860949459071,0.00251369284091608,0.00317032704940994,0.00189561718328552,0.00332240522352389,0.00269521365805565,-3.91131449195965,-4.80826700181539,-0.0893300248138954,-0.949222820190562,0
-4.85259754108226e-05,-8.04266127313298e-05,-9.29817071848855e-05,-5.40212400634863e-05,-4.88861866696345e-06,8.46329133382636e-05,7.73800618374077e-06,-0.000132716823862532,-0.000183736123710569,-5.24593554225407e-05,-0.000164883055764452,0.00277485637875069,0.00434547911104607,0.00341711314652766,0.000920491343912506,0.000795120489075206,0.000742493862797334,0.00252143084709983,0.00303761022554741,0.00171188105957495,0.00326994586810135,0.0025303306022912,-3.91131449195965,-4.80611861257023,-0.0855703436348594,-0.963187350284125,0
-4.98454801624543e-05,-8.40926340501978e-05,-9.27974282696003e-05,-5.04052538890911e-05,-5.98273254894953e-06,8.55015529450256e-05,7.56388862049179e-06,-0.000143047638922058,-0.00018587820431031,-6.58109134947377e-05,-0.000171845921004132,0.00272501089858824,0.00426138647699588,0.00332431571825806,0.000870086090023415,0.000789137756526257,0.00082799541574236,0.00252899473572032,0.00289456258662535,0.00152600285526464,0.00320413495460661,0.00235848468128707,-3.91507417313869,-4.80611861257023,-0.111351014576821,-0.959427669105089,0
-5.1050172721999e-05,-8.75884564569499e-05,-9.22580196732418e-05,-4.58284191439187e-05,-6.91899797711009e-06,8.567942086519e-05,6.48025004742862e-06,-0.00015211207346773,-0.000184655060393744,-7.70977004992297e-05,-0.000174025579550475,0.00267396072586624,0.00417379802053893,0.00323205769858482,0.000824257670879496,0.000782218758549146,0.00091367483660755,0.00253547498576775,0.00274245051315762,0.0013413477948709,0.00312703725410738,0.0021844591017366,-3.91990804894031,-4.80826700181539,-0.115110695755857,-0.945463139011526,0
-5.21322483907987e-05,-9.09055575673374e-05,-9.14025611913377e-05,-4.04340254027427e-05,-7.61103068818456e-06,8.52370938008967e-05,4.57687087022408e-06,-0.000159847074594696,-0.000179416724004283,-8.62484047216253e-05,-0.000170648140614476,0.00262182847747544,0.00408289246297159,0.00314065513739348,0.000783823645476754,0.000774607727860962,0.000998911930408447,0.00254005185663797,0.00258260343856292,0.00116193107086662,0.00304078884938576,0.00201381096112212,-3.92259353549676,-4.8077299045041,-0.118870376934893,-0.953519598680889,0
-5.30832488809035e-05,-9.40352955846142e-05,-9.02720814027606e-05,-3.45528930598881e-05,-7.91017114304838e-06,8.42149050117186e-05,1.97572579697328e-06,-0.00016620093090904,-0.000168979483679256,-9.32610860962173e-05,-0.000160889505791361,0.00256874522859453,0.00398885716738697,0.00305038305599072,0.000749270752416865,0.000766697556717914,0.00108312683542017,0.00254202758243494,0.00241640250765388,0.000992951587187361,0.00294752776328954,0.00185292145533076,-3.92527902205322,-4.81417507223959,-0.133909101651037,-0.943314749766363,0
-5.38939559494482e-05,-9.69688106609501e-05,-8.89065017563423e-05,-2.86484547406417e-05,-7.54311064410287e-06,8.26399196226643e-05,-1.18522144059883e-06,-0.000171130056631658,-0.00015081435851769,-9.8204802116514e-05,-0.000143993502566898,0.00251485127264509,0.00389188835672602,0.00296147655423438,0.000720622297676224,0.000759154446073811,0.00116576675504283,0.00254084236099434,0.00224527245102223,0.000842137228669671,0.00284932296117303,0.00170892795276386,-3.9263532166758,-4.8136379749283,-0.139280074763945,-0.948148625567981,0
-5.45542646157812e-05,-9.9696900300995e-05,-8.73415508014417e-05,-2.31692597356079e-05,-6.00756049419027e-06,8.05332108157312e-05,-4.76297013893767e-06,-0.000174593777851066,-0.00011907662449111,-0.000101217810505587,-0.000119565516980447,0.0024602970080293,0.00379219145642503,0.00287413500343294,0.000697453037940616,0.00075314688557962,0.00124629996585856,0.00253607939085541,0.00207067867317116,0.000723060604178561,0.00274810515066744,0.00158936243578341,-3.92796450860967,-4.81471216955088,-0.125315544670383,-0.953519598680889,0
-5.5053030382573e-05,-0.000102209862577965,-8.56059975573855e-05,-1.84121731847893e-05,-2.5431887921162e-06,7.79135228576432e-05,-8.61642309048357e-06,-0.000176546043419627,-6.55904535853244e-05,-0.000102501396580538,-8.80850184266444e-05,0.00240524397764673,0.00368998159384706,0.00278852900587555,0.000679040864755827,0.000750603696787504,0.0013242134887162,0.00252746296776492,0.00189413262975153,0.000657470150593237,0.0026456037540869,0.00150127741735677,-3.92313063280805,-4.81148958568314,-0.124778447359092,-0.965335739529288,0
-5.53778828792889e-05,-0.000104497299159075,-8.37194178613461e-05,-1.44894846999644e-05,3.23461194945971e-06,7.47993620220724e-05,-1.26107548503959e-05,-0.000176922026663087,-1.12470008845034e-06,-0.000102308512803104,-5.14700467977326e-05,0.00234986609476744,0.00358548429468799,0.0027048095880142,0.000664551380055862,0.000753838308736964,0.00139901285073828,0.00251485221291453,0.00171721060308845,0.000656345450504786,0.0025432952412838,0.00144980737055904,-3.9204451462516,-4.80880409912668,-0.125315544670383,-0.930424414295382,0
-5.55149956540666e-05,-0.000106547867798432,-8.16904876463952e-05,-1.13845639089904e-05,9.85904104409312e-06,7.12102959841883e-05,-1.66204245213692e-05,-0.000175615479580574,4.53221283122094e-05,-0.000100926822558136,-1.31918380835009e-05,0.00229435109911338,0.00347893642688956,0.00262311910036781,0.000653166816146872,0.000763697349781057,0.00147022314672246,0.00249823178839316,0.00154159512350787,0.000701667578816996,0.00244236841872566,0.00143661553247554,-3.92259353549676,-4.80665570988152,-0.135520393584909,-0.950834112124435,0
-5.54487983552608e-05,-0.000108348970864288,-7.95155288710867e-05,-9.02418413941709e-06,1.47092641790649e-05,6.71677989896905e-05,-2.05317199144755e-05,-0.000172437736488711,7.03171360928595e-05,-9.86564417481827e-05,2.25400638825439e-05,0.00223890230075812,0.00337058745602527,0.00254360357149672,0.000644142632007455,0.000778406613960122,0.00153739094571216,0.00247770006847868,0.00136915738701916,0.000771984714909855,0.00234371197697748,0.00145915559635808,-3.92151934087418,-4.80558151525894,-0.135520393584909,-0.950297014813144,0
-5.51616133154273e-05,-0.000109886362380119,-7.71767212144766e-05,-7.32435843193221e-06,1.69098961657286e-05,6.26958070458752e-05,-2.42454095659428e-05,-0.000167036732436183,8.26328626736116e-05,-9.57836026313432e-05,5.22178352009757e-05,0.00218374068744269,0.00326070109364515,0.00246642685028225,0.000636818273575523,0.000795316510125851,0.00160008675275803,0.00245345465891274,0.00120212065458298,0.000854617577583467,0.00224792837434614,0.00151137343155905,-3.92689031398709,-4.80719280719281,-0.121555863491347,-0.943851847077654,0
-5.46331940163148e-05,-0.000111143650666108,-7.46389613568948e-05,-6.20765096262456e-06,1.72156071140394e-05,5.78210728406461e-05,-2.76798059794265e-05,-0.000158721225530993,8.7059202718408e-05,-9.25524294876504e-05,7.40624110883968e-05,0.00212910749342637,0.00314955744297904,0.00239178788892535,0.000630610622612898,0.00081253211723989,0.00165790782559868,0.00242577485293331,0.00104339942905199,0.000941676780301875,0.00215537594485849,0.00158543584264745,-3.92742741129838,-4.81310087761701,-0.119944571557474,-0.950834112124435,0
-5.38401393690218e-05,-0.000112101666595624,-7.1843587963279e-05,-5.60511803662323e-06,1.64708263660466e-05,5.25733747451184e-05,-3.07742787303191e-05,-0.000146050801619907,8.60339854166428e-05,-8.91377216721782e-05,8.80299784043921e-05,0.00207526735405735,0.00303745577638342,0.00231994430096207,0.000625005504576275,0.000829002943605937,0.00171048120034379,0.00239500057420299,0.000897348627432079,0.00102771076571852,0.00206623822318631,0.00167346582105184,-3.92850160592096,-4.8136379749283,-0.0968493871719675,-0.94761152825669,0
-5.27551582136772e-05,-0.000112737658318409,-6.8695636117588e-05,-5.45370861114371e-06,1.51759142452742e-05,4.69856158832524e-05,-3.3492965124247e-05,-0.000125924233741746,8.1239063522023e-05,-8.56217938398568e-05,9.51569160306546e-05,0.00202251219584367,0.00292471811806501,0.00225124866484448,0.000619551795965131,0.000844178857851211,0.00175746681622705,0.00236150760907875,0.000771424393690333,0.00110894982924054,0.00198061642934645,0.0017686227370825,-3.93011289785483,-4.8136379749283,-0.121555863491347,-0.942240555143781,0
-5.13461692026431e-05,-0.000113024261684956,-6.50381306769253e-05,-5.69407936437292e-06,1.35875439970191e-05,4.10938389056048e-05,-3.58281001596279e-05,-9.26141485856043e-05,7.39580471103773e-05,-8.19778756557209e-05,9.68771031945278e-05,0.00197116602664103,0.00281169385638005,0.00218621053416756,0.000613857716600758,0.00085776640184823,0.00179856065513265,0.00232567950891912,0.000678810245104729,0.00118290787635092,0.00189863855369073,0.00186549984027703,-3.92850160592096,-4.81202668299442,-0.113499403821984,-0.96640993415187,0
-4.95752542435527e-05,-0.000112928181439295,-6.06017048711857e-05,-6.26988856916209e-06,1.18340946551989e-05,3.49371759039922e-05,-3.7802072118153e-05,-4.27238965181179e-05,6.51679043113934e-05,-7.80614385739436e-05,9.46044761507446e-05,0.00192159077239748,0.00269876567494076,0.00212560882929637,0.000607587828031596,0.000869600496503429,0.00183349783103664,0.00228787743680097,0.000636086348586611,0.00124807578066231,0.00182057711511679,0.00196010431642777,-3.92689031398709,-4.80934119643797,-0.1360574908962,-0.943314749766363,0
-4.73975599903085e-05,-0.000112408502201021,-5.49175760286157e-05,-7.1280833202987e-06,9.97834317831943e-06,2.85577490335451e-05,-3.94671213271342e-05,1.04666571555818e-05,5.56064676211026e-05,-7.36095395685833e-05,8.95607018528261e-05,0.00187419321240717,0.00258635717273974,0.00207069125326776,0.000600459744711297,0.000879578839681748,0.00186205558007019,0.00224841031547383,0.000646553005742193,0.00130368224828341,0.0017469675755482,0.0020496650182806,-3.92796450860967,-4.80665570988152,-0.105442944152621,-0.950297014813144,0
-4.47603949961118e-05,-0.000111414532846759,-4.72409986226638e-05,-8.21948112402805e-06,8.04858410768917e-06,2.20005349434653e-05,-4.09017029841638e-05,4.81644586286941e-05,4.58323218843584e-05,-6.8247697680014e-05,8.27400583606258e-05,0.00182943281741106,0.00247494263989298,0.00202345025464509,0.000592240263587269,0.000887627423789437,0.00188405611501365,0.00220750861248967,0.000694717464370887,0.00134951457016777,0.00167871987786819,0.00213240507664122,-3.92742741129838,-4.80665570988152,-0.106517138775203,-0.957279279859925,0
-4.16030454449571e-05,-0.000109883079734825,-3.68345100450235e-05,-9.49920364228083e-06,6.0550687617833e-06,1.53132045385511e-05,-4.22030628164649e-05,6.95476411726447e-05,3.62699812444887e-05,-6.15054268754635e-05,7.49296169441798e-05,0.0017878297719661,0.00236505956015815,0.00198661574460007,0.000582741059944988,0.000893682492551221,0.00189936931955221,0.0021653055496732,0.000764265105543532,0.00138578455141226,0.00161721445099273,0.0022073346935854,-3.93279838441129,-4.81095248837184,-0.114036501133275,-0.946537333634108,0
-3.78582712181636e-05,-0.000107735058550721,-2.42689275878833e-05,-1.09268006340975e-05,3.99974916347754e-06,8.54594857193649e-06,-4.34764996078188e-05,8.11466176381699e-05,2.72396250990193e-05,-5.28477527111956e-05,6.67431972918675e-05,0.00174997150074794,0.00225732450160743,0.00196234681701219,0.000571814259310891,0.000897682241714698,0.00190791526812414,0.00212182905006538,0.000845411723181702,0.00141302417651128,0.00156436669828153,0.00227407789087727,-3.93387257903387,-4.80934119643797,-0.117796182312311,-0.957279279859925,0
-3.34570282138596e-05,-0.000104871424207208,-1.23639938463176e-05,-1.24660616231323e-05,1.88259848267805e-06,1.75129886170505e-06,-4.48228397329034e-05,8.69546269629397e-05,1.89744448254169e-05,-4.17432041430158e-05,5.86529687534236e-05,0.00171651447253408,0.00215245307740022,0.00194998282316587,0.000559348197687759,0.000899564840197376,0.00190966656698585,0.00207700621033248,0.000932366350144641,0.0014319986213367,0.00152262349413852,0.00233273085963069,-3.93655806559032,-4.81256378030572,-0.127463933915546,-0.984671242735759,0
-2.83384825130973e-05,-0.000101168590064518,-3.64218835378926e-06,-1.40845355064961e-05,-2.94265485607315e-07,-5.0160456903797e-06,-4.63263787570749e-05,8.880284410035e-05,1.16292495765762e-05,-2.78044532374384e-05,5.10143908659627e-05,0.00168817599002098,0.00205128448733571,0.00194634063481208,0.000545263662181263,0.000899270574711769,0.00190465052129547,0.00203067983157541,0.00102116919424499,0.00144362787091327,0.00149481904090108,0.00238374525049666,-3.93709516290161,-4.81310087761701,-0.0930897059929315,-0.937406679342163,0
-2.24672215987064e-05,-9.6473949616661e-05,1.94714250013124e-06,-1.57526219645689e-05,-2.52416059345905e-06,-1.16993798634838e-05,-4.80455720866016e-05,8.76739587790719e-05,5.28362304177336e-06,-1.10279206362103e-05,4.40846400451265e-05,0.00166570876842227,0.00195481053771904,0.00194828777731221,0.000529511040216694,0.00089674641411831,0.00189295114143198,0.0019826342594888,0.00110884315302406,0.00144891149395505,0.00148379112026487,0.00242782989054178,-3.93548387096774,-4.8136379749283,-0.0920155113703497,-0.942777652455072,0
-1.58575886657025e-05,-9.06030267025151e-05,5.65265448231327e-06,-1.74413925725541e-05,-4.79478293780207e-06,-1.82401324713814e-05,-5.00080231924862e-05,8.42350815943695e-05,-5.73152392200661e-08,7.9312483192524e-06,3.80359275112849e-05,0.00164985117975657,0.00186420751101653,0.00195394043179452,0.00051206964764414,0.000891951631180508,0.0018747110089606,0.00193262623629632,0.00119307823461843,0.00144885417871583,0.00149172236858412,0.00246586581805307,-3.93333548172258,-4.81310087761701,-0.112425209199402,-0.942240555143781,0
-8.60018449361732e-06,-8.33414723785421e-05,8.49164371464128e-06,-1.91145143513945e-05,-7.08813714628514e-06,-2.45779812024088e-05,-5.22101495441017e-05,7.89965200801142e-05,-4.46142464986896e-06,2.76704366684473e-05,3.29652140082255e-05,0.00164125099526295,0.00178086603863799,0.00196243207550917,0.000492955133292745,0.000884863494034223,0.00185013302775819,0.00188041608675222,0.00127207475469855,0.00144439275406596,0.00151939280525257,0.00249883103206129,-3.93172418978871,-4.81095248837184,-0.12961232316071,-0.936869582030872,0
-8.78787126944083e-07,-7.44577955442498e-05,1.1039123588864e-05,-2.06777703451662e-05,-9.38105819635066e-06,-3.06509403686329e-05,-5.46208059592791e-05,7.23610282778002e-05,-8.0641539549316e-06,4.63610493747304e-05,2.89016136352919e-05,0.00164037220813601,0.00170640824309374,0.00197347119909803,0.000472277362947579,0.000875482435837872,0.00181948208738956,0.00182579528079294,0.00134443578297635,0.00143632860011103,0.0015657538546273,0.00252773264569658,-3.92903870323225,-4.80665570988152,-0.163449453772034,-0.95405669599218,0
7.03732974772857e-06,-6.37357130100645e-05,1.35752635712573e-05,-2.14148857333963e-05,-1.16459784515437e-05,-3.63954256784042e-05,-5.71874933603773e-05,6.46493005173078e-05,-1.10565724660212e-05,6.23578799420375e-05,2.58125487114461e-05,0.00164740953788374,0.00164267253008367,0.00198704646266929,0.000450862477214183,0.000863836457386328,0.00178308666171116,0.00176860778743256,0.00140908508349365,0.001425272027645,0.00162811173456933,0.00255354519440803,-3.93118709247741,-4.80719280719281,-0.138205880141364,-0.956742182548634,0
1.48328729518085e-05,-5.10352946143072e-05,1.62091015611528e-05,-1.96559674890569e-05,-1.38516976992507e-05,-4.17463088599915e-05,-5.98436716786727e-05,5.61204429003089e-05,-1.3665694242082e-05,7.46531613860823e-05,2.36095390892806e-05,0.00166224241083555,0.00159163723546937,0.00200325556423044,0.000431206509725126,0.000849984759687078,0.00174134035285116,0.00170876411575389,0.00146520552639396,0.00141160633340292,0.00170276489595542,0.00257715473349731,-3.93440967634516,-4.80934119643797,-0.134983296273618,-0.94814862556798,0
2.22064884052816e-05,-3.63831623610702e-05,1.89511815931365e-05,-2.02254246134986e-05,-1.59640337740375e-05,-4.66369874812457e-05,-6.25159804015897e-05,4.69891371075817e-05,-1.61284762602715e-05,8.29216003489111e-05,2.21543647579703e-05,0.00168444889924083,0.0015552540731083,0.00202220674582358,0.000410981085111627,0.00083402072591304,0.00169470336536992,0.0016462481353523,0.00151219466350155,0.00139547785714265,0.00178568649630433,0.00259930909825528,-3.93548387096774,-4.81256378030572,-0.131760712405873,-0.944388944388944,0
2.89252367721669e-05,-2.00682772787206e-05,2.17606413594118e-05,-2.29170558951553e-05,-1.79463394954964e-05,-5.09995118111708e-05,-6.51306142022373e-05,3.74390013025438e-05,-1.86634471198769e-05,8.73005034083127e-05,2.12661867382371e-05,0.001713374136013,0.00153518579582958,0.00204396738718299,0.000388064029216472,0.000816074386417544,0.00164370385355875,0.00158111752115006,0.00154963366480409,0.00137681441002277,0.00187298699971264,0.00262057528499352,-3.93655806559032,-4.80987829374926,-0.0979235817945492,-0.97285510188736,0
3.48515893810644e-05,-2.68993951975513e-06,2.45815588322648e-05,-2.53662791031078e-05,-1.97599598181218e-05,-5.47648294969639e-05,-6.76185156661944e-05,2.76322208346898e-05,-2.14452473179759e-05,8.81495496965552e-05,2.07300114337173e-05,0.00174822572539406,0.00153249585630982,0.00206854894601525,0.000362697750113364,0.000796314426599422,0.00158893902406178,0.00151349900548387,0.00157726588563878,0.0013553691627048,0.0019611365494092,0.00264130529642724,-3.93924355214678,-4.81148958568313,-0.15485589679138,-0.923979246559892,0
3.99393777043423e-05,1.49009925041383e-05,2.73719984294368e-05,-2.70901093502787e-05,-2.13647748958626e-05,-5.78632247929907e-05,-6.99193396604962e-05,1.77160136068031e-05,-2.45866317826692e-05,8.58993964142009e-05,2.03066261381391e-05,0.0017881651030984,0.00154739684881396,0.00209592094444469,0.000335607640763085,0.000774949651703559,0.00153107579926879,0.00144357966582337,0.00159498189924558,0.00133078253092213,0.0020470359458234,0.00266161192256538,-3.94031774676936,-4.81256378030572,-0.164523648394616,-0.951908306747017,0
4.42105778800878e-05,3.17797663775823e-05,3.01244996128791e-05,-2.78501094269209e-05,-2.27200332938426e-05,-6.02250295439824e-05,-7.19843019860989e-05,7.82662549053204e-06,-2.81300898843817e-05,8.09832719585184e-05,1.97438396975311e-05,0.00183237568097849,0.00157917661519154,0.00212604544405757,0.000307757531336164,0.000752229618409717,0.00147085076972481,0.00137159536383727,0.00160280852473611,0.00130265244103775,0.00212801921778191,0.00268135576226291,-3.9381693575242,-4.81095248837184,-0.114573598444566,-0.925590538493764,0
4.77277324491803e-05,4.71738837577466e-05,3.28770106178267e-05,-2.74851919110881e-05,-2.37857129296374e-05,-6.17816444330589e-05,-7.37780783352229e-05,-1.90851592171107e-06,-3.20484793918357e-05,7.38153654052639e-05,1.8788581560473e-05,0.00188010341342767,0.00162635049894929,0.0021589224546754,0.000280272339425076,0.000728443905480079,0.00140906912529175,0.00129781728550205,0.0016009000088144,0.00127060396164591,0.00220183458318718,0.00270014434382338,-3.93494677365645,-4.80934119643797,-0.127463933915546,-0.958353474482507,0
5.05712572202871e-05,6.06203358601409e-05,3.57150577729327e-05,-2.57998069077629e-05,-2.45246099914447e-05,-6.24667943815108e-05,-7.52799084206624e-05,-1.1369989688242e-05,-3.6252197888563e-05,6.47888837903192e-05,1.7199203788502e-05,0.00193067467064796,0.00168697083480943,0.00219463751244833,0.000254472532517313,0.000703919295488635,0.00134660233091024,0.00122253737708139,0.00158953001912616,0.00123435176375735,0.0022666234669775,0.00271734354761188,-3.93118709247741,-4.80611861257023,-0.112962306510693,-0.948685722879271,0
5.28244327381306e-05,7.19846503518058e-05,3.87662791140426e-05,-2.23845767629133e-05,-2.49051372081419e-05,-6.22177087608901e-05,-7.64840185488594e-05,-2.04465388720495e-05,-4.05998985404386e-05,5.42800465528157e-05,1.4757239732099e-05,0.00198349910338609,0.00175895548516123,0.00223340379156237,0.0002320879557544,0.000679014158280493,0.00128438462214935,0.00114605335853253,0.00156908348025411,0.00119375186521691,0.00232090351353031,0.00273210078734398,-3.93387257903387,-4.80719280719281,-0.0984606791058401,-0.956205085237343,0
5.45651422074996e-05,8.13720781525648e-05,4.21862843174975e-05,-1.65469908475791e-05,-2.49041409271423e-05,-6.0975547093934e-05,-7.73994271573437e-05,-2.9035926553064e-05,-4.49103062379933e-05,4.26525650193571e-05,1.12779138672988e-05,0.00203806424559359,0.0018403275633138,0.00227559007587987,0.000215540964906821,0.00065411001735335,0.00122340907505542,0.00106865393137518,0.00154004755370105,0.00114884155897892,0.00236355607854967,0.00274337870121128,-3.93387257903387,-4.81041539106055,-0.105442944152621,-0.94761152825669,0
5.5862263275387e-05,8.90105376573846e-05,4.61315316866813e-05,-7.51074036479916e-06,-2.45069692645915e-05,-5.86839640742756e-05,-7.80491555097255e-05,-3.70462965190647e-05,-4.89737358778317e-05,3.02610124462404e-05,6.61884735227115e-06,0.00209392650886898,0.00192933810097118,0.00232172160756655,0.000208030224542022,0.000629603048088759,0.00116472511098114,0.000990604775865457,0.00150300125718198,0.00109986782310109,0.00239381709099591,0.00274999754856355,-3.93709516290162,-4.81095248837184,-0.114573598444566,-0.957279279859925,0
5.67748015763221e-05,9.51609634667781e-05,5.0714836714638e-05,5.2124314769713e-06,-2.3692859751076e-05,-5.52845357411282e-05,-7.84688360354748e-05,-4.43978973357899e-05,-5.2563037996141e-05,1.74529893748505e-05,6.86615361079543e-07,0.0021507013104453,0.00202449906443796,0.00237243644428119,0.000213242656018993,0.000605910188337683,0.00110944057524001,0.000912135939829982,0.00145860335984619,0.00104730478510494,0.00241127008037076,0.00275068416392463,-3.93655806559032,-4.81095248837184,-0.12316715542522,-0.945463139011526,0
5.73524246346136e-05,0.000100067808505422,5.59486881358735e-05,2.11878202573019e-05,-2.23160184646925e-05,-5.0708583091374e-05,-7.87046932669332e-05,-5.10250605517779e-05,-5.54447694164277e-05,4.57045217893467e-06,-6.55896877764604e-06,0.00220805373507991,0.00212456687294338,0.00242838513241706,0.000234430476276295,0.00058359416987299,0.00105873199214864,0.000833431246563049,0.00140757829929442,0.000991860015688517,0.0024158405325497,0.00274412519514698,-3.93655806559032,-4.81202668299443,-0.121555863491347,-0.918608273446983,0
5.76365841262801e-05,0.000103939528964301,6.17015743664918e-05,3.72708409114469e-05,-1.73402479363024e-05,-4.48680456590466e-05,-7.88108559099183e-05,-5.68783363332781e-05,-5.73924718531082e-05,-8.04937624705737e-06,-1.51027832298932e-05,0.00226569031920619,0.00222850640190768,0.00249008670678355,0.000271701317187742,0.000566253921936688,0.00101386394648959,0.00075462039065313,0.00135069996296114,0.000934467543835409,0.00240779115630264,0.00272902241191709,-3.93655806559032,-4.8136379749283,-0.126389739292965,-0.967484128774452,0
5.76617867997478e-05,0.0001069455499109,6.77045828908597e-05,4.93999583182669e-05,1.88526064131119e-05,-3.76551585649775e-05,-7.88459012558455e-05,-6.19266811545949e-05,-5.82050458587706e-05,-2.00732146699279e-05,-2.48743525039018e-05,0.00232335210600594,0.00233545195181858,0.00255779128967441,0.000321101275506009,0.0005851065283498,0.000976208787924616,0.000675774489397285,0.00128877328180654,0.000876262497976638,0.00238771794163271,0.00270414805941319,-3.93494677365645,-4.80826700181539,-0.0957751925493858,-0.926127635805055,0
5.74568020105947e-05,0.000109220322215631,7.3621329476452e-05,5.72127658957042e-05,4.58236432368255e-05,-2.89718889551856e-05,-7.88682531668099e-05,-6.61595573419756e-05,-5.77338532641071e-05,-3.11709862749806e-05,-3.57495643112452e-05,0.00238080890801653,0.00244467227403421,0.00263141261915086,0.000378314041401713,0.000630930171586625,0.00094723689896943,0.000596906236230475,0.00122261372446457,0.000818528644712531,0.00235654695535773,0.00266839849510194,-3.93494677365645,-4.80558151525894,-0.11725908500102,-0.952982501369598,0
5.70457204557896e-05,0.000110869467639598,7.91439528630726e-05,6.22707409148727e-05,4.88420392560782e-05,-1.88172771905523e-05,-7.89284186459669e-05,-6.95887347896839e-05,-5.59208198919769e-05,-4.10154638853903e-05,-4.75538500729084e-05,0.00243785462847232,0.00255554174167381,0.00271055657201394,0.000440584782316586,0.000679772210842704,0.000928419621778878,0.000517977817584508,0.00115302498967488,0.000762607824820554,0.00231553149147234,0.00262084464502904,-3.93978064945807,-4.80128473676861,-0.130149420472001,-0.944388944388944,0
5.64488434554281e-05,0.000111975804795127,8.4058254237272e-05,6.5715669677242e-05,5.01301467551944e-05,-7.43753139503833e-06,-7.9039760499951e-05,-7.22494686397613e-05,-5.2843748982869e-05,-4.92832903004562e-05,-6.00665133181429e-05,0.00249430347192775,0.00266751754646894,0.00279461482625121,0.000506300451993828,0.000729902357597898,0.000920982090383839,0.000438938057084557,0.00108077552103512,0.000709764075837685,0.00226624820117188,0.00256077813171089,-3.93709516290162,-4.80987829374926,-0.118333279623602,-0.950297014813144,0
5.56834120327295e-05,0.000112604484237914,8.82545744818777e-05,6.81364662043486e-05,5.09452285899647e-05,4.53894899741115e-06,-7.64407553124424e-05,-7.42005454000686e-05,-4.87529318579586e-05,-5.56594721948084e-05,-7.30258684363554e-05,0.00254998688396048,0.00278012203070685,0.00288286940073309,0.000574436918198176,0.000780847586187863,0.000925521039381251,0.000362497301772115,0.00100657497563505,0.000661011143979726,0.00221058872897708,0.00248775226327454,-3.93924355214678,-4.81041539106055,-0.0952380952380949,-0.944388944388944,0
5.47641965707147e-05,0.000112807097842694,9.17023615368204e-05,6.9831672675996e-05,5.13812154551394e-05,1.61445745748328e-05,-1.72849826025612e-05,-7.55224139515118e-05,-4.40712822171382e-05,-5.98491262884756e-05,-8.61348051954518e-05,0.0026047510805312,0.00289292912854955,0.00297457176226991,0.000644268590874172,0.000832228801643002,0.000941665613956083,0.000345212319169554,0.000931052561683541,0.000616939861762588,0.0021507396026886,0.00240161745807909,-3.94031774676936,-4.81310087761701,-0.105442944152621,-0.935258290097,0
5.37039703185959e-05,0.000112624868220229,9.441664568216e-05,7.09609365275521e-05,5.14557016925201e-05,2.63675936754325e-05,1.56073568386186e-05,-7.63121782849857e-05,-3.93354863408974e-05,-6.16023038054045e-05,-9.90663006113597e-05,0.00265845505084979,0.00300555399676978,0.00306898840795207,0.000715229527401724,0.000883684503335522,0.000968033207631516,0.000360819676008172,0.000854740383398555,0.000577604375421691,0.0020891372988832,0.00230255115746773,-3.93978064945807,-4.81202668299443,-0.12370425273651,-0.949759917501853,0
5.25138884899874e-05,0.000112091088800211,9.64323512025553e-05,7.16150594946769e-05,5.11782260671671e-05,3.45091921453784e-05,1.63306973473921e-05,-7.66734241730272e-05,-3.50884816525173e-05,-6.07588646877526e-05,-0.000111468231428435,0.00271096893933978,0.00311764508556999,0.00316542075915462,0.000786844586896401,0.000934862729402689,0.00100254239977689,0.000377150373355564,0.000778066959225528,0.000542515893769174,0.00202837843419544,0.00219108292603929,-3.93763226021291,-4.80934119643797,-0.113499403821984,-0.946537333634108,0
5.12037916871461e-05,0.000111232980721445,9.77893968608563e-05,7.18488873947742e-05,5.05598352554588e-05,4.03311932116698e-05,1.71771567109647e-05,-7.66970293058223e-05,-3.17704855190403e-05,-5.73172800130946e-05,-0.000122966554872617,0.00276217273102692,0.00322887806629143,0.00326321015601548,0.000858693474291175,0.000985422564658148,0.00104287359298856,0.000394327530066529,0.000701369929919706,0.000510745408250133,0.00197106115418235,0.00206811637116667,-3.9381693575242,-4.81095248837184,-0.0828848570784051,-0.937943776653454,0
4.97824491164441e-05,0.000110073105936146,9.85258261046269e-05,7.16976444360862e-05,4.96139450159847e-05,4.39571306647796e-05,1.86213328765524e-05,-7.64240059397071e-05,-2.96538573434371e-05,-5.15187843828245e-05,-0.000133165452564827,0.00281195518014337,0.00333895117222758,0.00336173598212011,0.000930391118727262,0.00103503650967413,0.00108683072365334,0.000412948862943081,0.000624945923979999,0.000481091550906696,0.00191954236979952,0.00193495091860185,-3.93763226021291,-4.81041539106055,-0.118333279623602,-0.952445404058307,0
