dfreq810,dfreq1012,dfreq1214,dfreq1416,dfreq1618,dfreq1820,dfreq2022,dfreq2224,dfreq2426,dfreq2628,dfreq2830,freq810,freq1012,freq1214,freq1416,freq1618,freq1820,freq2022,freq2224,freq2426,freq2628,freq2830,allAccBX,allAccBY,allAccTX,allAccTY,pcd
0,0,0,0,0,0,0,0,0,0,0,0.00101052040823816,0.0007166706928845,0.000676873918645867,0.00155755966855378,0.00195867662606168,0.000624009096142857,0.0016145046773014,0.00143745486044157,0.00138757012933999,0.000533227432288106,0.00127218320744939,-0.870851370851371,-0.331471395987525,-0.0568356374807985,-0.906926406926407,0
2.19394608774162e-05,1.59621022358542e-05,8.73398032964962e-06,4.78080936199986e-05,8.93374569670888e-05,1.12744918424413e-05,2.008564636598e-05,2.84178097254906e-05,2.43365755129897e-05,3.32917638892261e-06,7.70356185342067e-05,0.00103245986911558,0.000732632795120354,0.000685607898975516,0.00160536776217378,0.00204801408302877,0.000635283587985298,0.00163459032366738,0.00146587267016706,0.00141190670485298,0.000536556608677029,0.0013492188259836,-0.878368942885071,-0.313084764697668,-0.0617232230135453,-0.916911045943304,0
2.28318175855651e-05,1.58329699293429e-05,1.07095712469257e-05,4.77613463927072e-05,8.90382605446662e-05,3.07049241211225e-05,1.96054094521241e-05,2.40136751152953e-05,2.85064132075834e-05,3.21128380328256e-06,6.64744274815707e-05,0.00105529168670114,0.000748465765049697,0.000696317470222442,0.00165312910856648,0.00213705234357343,0.00066598851210642,0.00165419573311951,0.00148988634528235,0.00144041311806056,0.000539767892480311,0.00141569325346517,-0.886747660941209,-0.319229157938835,-0.046641530512498,-0.930316994833124,0
2.31436666038103e-05,1.53176255121069e-05,1.25502079323879e-05,4.63628081913651e-05,8.63120025331307e-05,6.57884492029709e-05,1.81864431392982e-05,1.83041810895559e-05,3.43305390938969e-05,3.03990466347882e-06,5.31566138613022e-05,0.00107843535330495,0.000763783390561804,0.00070886767815483,0.00169949191675785,0.00222336434610656,0.000731776961309391,0.00167238217625881,0.00150819052637191,0.00147474365715446,0.00054280779714379,0.00146884986732647,-0.890099148163664,-0.314201927105153,-0.0561374109761203,-0.925848345203184,0
2.33463001675471e-05,1.47652340476893e-05,1.43275387402495e-05,4.46674301225101e-05,8.30819466787706e-05,9.48137580284264e-05,1.63929573521002e-05,1.20993419384355e-05,4.22623581146605e-05,5.88119793607054e-06,3.93735041964425e-05,0.0011017816534725,0.000778548624609494,0.000723195216895079,0.00174415934688036,0.00230644629278533,0.000826590719337818,0.00168877513361091,0.00152028986831035,0.00151700601526912,0.00054868899507986,0.00150822337152292,-0.891774891774891,-0.285714285714286,-0.045524368105013,-0.917469627147046,0
2.34496460835285e-05,1.41788492985487e-05,1.59768837700047e-05,4.26986423180474e-05,7.93496259958101e-05,0.000111106792329622,1.43764487911869e-05,5.54261265075964e-06,5.1863500991494e-05,2.24753874358299e-05,2.5559558900325e-05,0.00112523129955603,0.000792727473908042,0.000739172100665084,0.00178685798919841,0.00238579591878114,0.00093769751166744,0.00170315158240209,0.0015258324809611,0.00156886951626061,0.00057116438251569,0.00153378293042324,-0.883396173718754,-0.292417260159196,-0.0315598380114506,-0.909649490294651,0
2.34621135024034e-05,1.35612816396645e-05,1.74608607145815e-05,4.04778164356625e-05,7.51220510954408e-05,0.000122353974487401,1.23016547778285e-05,-1.21770518871165e-06,6.2302600451089e-05,6.65314842420205e-05,1.2095433777197e-05,0.00114869341305843,0.000806288755547707,0.000756632961379665,0.00182733580563407,0.00246091796987659,0.00106005148615484,0.00171545323717992,0.00152461477577239,0.0016311721167117,0.000637695866757711,0.00154587836420044,-0.900712191034771,-0.289065772936741,-0.0371456500488756,-0.925289763999441,0
2.33909492457875e-05,1.29151300854516e-05,1.87631977500006e-05,3.80249388731789e-05,7.04118716983214e-05,0.000131402180869109,1.03405360189252e-05,-8.01999354756774e-06,7.25615647429942e-05,0.000107301618496395,-6.93312632537874e-07,0.00117208436230422,0.000819203885633158,0.000775396159129666,0.00186536074450725,0.00253132984157491,0.00119145366702395,0.00172579377319885,0.00151659478222483,0.0017037336814547,0.000744997485254106,0.0015451850515679,-0.887306242144951,-0.296885909789136,-0.0354699064376481,-0.918028208350789,0
2.32424905504953e-05,1.2242812595516e-05,1.98803051586961e-05,3.53591326393797e-05,6.52374058385222e-05,0.000138940175206726,8.66830462056671e-06,-1.46730369863133e-05,8.17291276108576e-05,0.000124150386305547,-1.25408598918397e-05,0.00119532685285471,0.000831446698228674,0.000795276464288362,0.00190071987714663,0.00259656724741343,0.00133039384223068,0.00173446207781941,0.00150192174523851,0.00178546280906555,0.000869147871559653,0.00153264419167606,-0.904063678257226,-0.299678815807848,-0.0404971372713305,-0.930875576036866,1
2.30223472860642e-05,1.1546593689273e-05,2.08145601868538e-05,3.24990350154734e-05,5.96225545705575e-05,0.000145175087223843,7.46126352975818e-06,-2.09252515330734e-05,8.92005085903987e-05,0.000130378103114606,-2.32470394659773e-05,0.00121834920014078,0.000842993291917947,0.000816091024475216,0.0019332189121621,0.00265618980198399,0.00147556892945452,0.00174192334134917,0.00148099649370544,0.00187466331765595,0.000999525974674259,0.00150939715221008,-0.890099148163664,-0.302471721826561,-0.039938556067588,-0.926965507610669,1
2.2735536365613e-05,1.08286089767618e-05,2.15703317744861e-05,2.94630560888286e-05,5.35966190020024e-05,0.000150196705367721,6.89606943424042e-06,-2.6405450447711e-05,9.4705165416487e-05,0.000132634155017488,-3.26828662546848e-05,0.00124108473650639,0.000853821900894709,0.000837661356249702,0.00196268196825093,0.00270978642098599,0.00162576563482224,0.00174881941078341,0.00145459104325773,0.00196936848307244,0.00113216012969175,0.0014767142859554,-0.883396173718754,-0.316994833123866,-0.038821393660103,-0.919703951962016,1
2.23865835205558e-05,1.00908865635302e-05,2.21521816964931e-05,2.62695458670202e-05,4.71940350919714e-05,0.000154058950886391,7.1497280724486e-06,-3.0510491217777e-05,9.82211504691995e-05,0.000132694447003485,-4.07941563376161e-05,0.00126347132002695,0.000863912787458239,0.000859813537946195,0.00198895151411795,0.00275698045607796,0.00177982458570863,0.00175596913885586,0.00142408055203995,0.00206758963354164,0.00126485457669523,0.00143592012961778,-0.895126378997346,-0.294093003770423,-0.0382628124563606,-0.935344225666806,1
2.19796024337536e-05,9.33536548792212e-06,2.25643394263349e-05,2.29368943295721e-05,4.04540401048861e-05,0.000156800149081608,8.39899642525715e-06,-3.22221725412403e-05,9.98679557626192e-05,0.000131134002372537,-4.76016890140376e-05,0.0012854509224607,0.000873248152946161,0.00088237787737253,0.00201188840844752,0.00279743449618285,0.00193662473479024,0.00176436813528112,0.00139185837949871,0.00216745758930426,0.00139598857906777,0.00138831844060375,-0.878927524088814,-0.296885909789136,-0.0427314620863005,-0.934227063259321,1
2.15183577984561e-05,8.56391145353814e-06,2.28107570480487e-05,1.94835838041923e-05,3.34202830627093e-05,0.000158449503857725,1.08167736413466e-05,-2.99961620622007e-05,9.98274593394105e-05,0.000128209243240434,-5.31963751140725e-05,0.00130696928025916,0.0008818120643997,0.000905188634420579,0.00203137199225171,0.00283085477924556,0.00209507423864796,0.00177518490892246,0.00136186221743651,0.00226728504864367,0.0015241978223082,0.00133512206548967,-0.855467113531629,-0.325373551180003,-0.0360284876413906,-0.928641251221896,1
2.10063166449373e-05,7.77833016443589e-06,2.28953442939976e-05,1.59282082965689e-05,2.61403901150739e-05,0.000159030505131499,1.45616154963273e-05,-2.2519134955638e-05,9.82998786983741e-05,0.000124083127761044,-5.7728058530644e-05,0.00132797559690409,0.000889590394564135,0.000928083978714576,0.00204730020054828,0.00285699516936063,0.00225410474377946,0.00178974652441879,0.00133934308248087,0.00236558492734204,0.00164828095006925,0.00127739400695903,-0.899595028627286,-0.339896662477308,-0.00530652143555344,-0.975562072336266,1
2.04466908457343e-05,6.98037858021781e-06,2.28221987920071e-05,1.22894704899495e-05,1.86654945120179e-05,0.000158563557020422,1.97554388284586e-05,-1.12900652667488e-05,9.54842757651649e-05,0.000118894318115733,-6.13870201087476e-05,0.00134842228774983,0.000896570773144353,0.000950906177506583,0.00205958967103823,0.00287566066387265,0.00241266830079989,0.00180950196324725,0.00132805301721412,0.00246106920310721,0.00176717526818498,0.00121600698685028,-0.875017455662617,-0.404133500907695,-0.00698226504678092,-0.962156123446446,1
1.98424727921496e-05,6.17177439788731e-06,2.25957686324781e-05,8.5861641670776e-06,1.1049739845437e-05,0.000157068202780989,2.64456871054981e-05,-1.52890575183832e-06,9.1572195872117e-05,0.000112780920860516,-6.43779881973924e-05,0.00136826476054198,0.000902742547542241,0.000973501946139062,0.00206817583520531,0.00288671040371808,0.00256973650358087,0.00183594765035275,0.00132652411146228,0.00255264139897933,0.0018799561890455,0.00115162899865289,-0.911883815109621,-0.390727552017875,-0.0276497695852532,-0.988409440022343,1
1.91964656430343e-05,5.35420404718817e-06,2.22209417242683e-05,4.83714769442629e-06,3.34976442142561e-06,0.000154564967783185,3.45546101023231e-05,2.77117177197614e-06,8.67468865445812e-05,0.000105888017920084,-6.68873189195213e-05,0.00138746122618501,0.000908096751589429,0.00099572288786333,0.00207301298289974,0.00289006016813951,0.00272430147136406,0.00187050226045507,0.00132929528323426,0.00263938828552391,0.00198584420696558,0.00108474167973337,-0.883954754922497,-0.374528697109342,-0.0326770004189356,-0.962714704650189,1
1.85113091614203e-05,4.52932946195747e-06,2.17030775475678e-05,1.06131279594551e-06,-4.37582598317816e-06,0.000151076822353287,4.38311124321532e-05,1.77809012871983e-06,8.11840792481252e-05,9.8368033314001e-05,-6.90445928011076e-05,0.00140597253534643,0.000912626081051386,0.0010174259654109,0.00207407429569568,0.00288568434215633,0.00287537829371735,0.00191433337288722,0.00133107337336298,0.00272057236477203,0.00208421224027958,0.00101569708693226,-0.882837592515012,-0.36726714146069,-0.0472001117162405,-0.968859097891356,0
1.77895018991774e-05,3.69879386534651e-06,2.10480007341374e-05,-2.72244800835495e-06,-1.20669901697698e-05,0.000146630292290113,5.38337447049417e-05,-2.66440908622159e-06,7.5052497644361e-05,9.03770784195274e-05,-7.08796149314616e-05,0.00142376203724561,0.000916324874916733,0.00103847396614504,0.00207135184768733,0.00287361735198656,0.00302200858600746,0.00196816711759217,0.00132840896427676,0.00279562486241639,0.00217458931869911,0.000944817472000799,-0.909090909090909,-0.352185448959643,-0.043290043290043,-0.977237815947494,0
1.70334203165796e-05,2.86422678345984e-06,2.02619728952146e-05,-6.49527231686743e-06,-1.96627818731614e-05,0.000141256260611878,6.39715344430765e-05,-9.02164868993435e-06,6.85133870793274e-05,8.20685037436807e-05,-7.22741748680902e-05,0.00144079545756219,0.000919189101700193,0.00105873593904025,0.00206485657537046,0.0028539545701134,0.00316326484661934,0.00203213865203524,0.00131938731558682,0.00286413824949572,0.00225665782244279,0.000872543297132709,-0.896802122608574,-0.314760508308896,-0.0438486244937855,-0.960480379835219,0
1.6245335302712e-05,2.0272484809623e-06,1.93516543744404e-05,-1.02383541205624e-05,-2.71018721386012e-05,0.0001349905071802,7.36018485232451e-05,-1.63193231248397e-05,6.17188957019107e-05,7.35843248605627e-05,-7.29048835872119e-05,0.0014570407928649,0.000921216350181155,0.00107808759341469,0.0020546182212499,0.0028268526979748,0.00329825535379954,0.00210574050055849,0.00130306799246198,0.00292585714519763,0.00233024214730335,0.000799638413545497,-0.912442396313364,-0.271749755620723,-0.0527859237536654,-0.941488618907974,0
1.54274264754885e-05,1.18947399375729e-06,1.83240632566082e-05,-1.39329620290614e-05,-3.43230575912501e-05,0.000127874028995557,8.21470722360729e-05,-2.39316120117018e-05,5.48093900120355e-05,6.50452310547679e-05,-7.21706552536217e-05,0.00147246821934039,0.000922405824174912,0.0010964116566713,0.00204068525922084,0.00279252964038355,0.00342612938279509,0.00218788757279456,0.00127913638045028,0.00298066653520967,0.00239528737835812,0.000727467758291875,-0.929758413629381,-0.194665549504259,-0.0678676162547127,-0.926406926406926,0
1.45817945750657e-05,3.5251691787462e-07,1.7186535673051e-05,-1.75604451586185e-05,-4.12657486052936e-05,0.000119953177633182,8.91792617762049e-05,-3.14011572463955e-05,4.79099301671265e-05,5.654027383641e-05,-6.91034526610096e-05,0.00148705001391545,0.000922758341092787,0.00111359819234435,0.00202312481406222,0.00275126389177826,0.00354608256042828,0.00227706683457077,0.00124773522320389,0.00302857646537679,0.00245182765219453,0.000658364305630865,-0.919703951962016,-0.0963552576455799,-0.0544616673648929,-0.907415165479681,0
1.37104722144833e-05,-4.820069002151e-07,1.59466892288545e-05,-2.1102220892522e-05,-4.78704315473137e-05,0.000111279643864404,9.44464504718996e-05,-3.83286259826485e-05,4.11262470004811e-05,4.81178991344096e-05,-6.22984208208182e-05,0.00150076048612994,0.000922276334192572,0.0011295448815732,0.00200202259316969,0.00270339346023094,0.00365736220429268,0.00237151328504267,0.00120940659722124,0.00306970271237727,0.00249994555132894,0.000596065884810047,-0.927524088814411,-0.0181538891216308,-0.0349113252339056,-0.872224549643904,0
1.28154332119082e-05,-1.31247563889367e-06,1.46123900262808e-05,-2.45397363299797e-05,-5.40790995382156e-05,0.000101910313969129,9.78501031271345e-05,-4.4295044550899e-05,3.45406831167233e-05,3.97804845505387e-05,-5.00248355944077e-05,0.00151357591934185,0.000920963858553678,0.00114415727159948,0.00197748285683972,0.00264931436069273,0.00375927251826181,0.0024693633881698,0.00116511155267034,0.003104243395494,0.00253972603587948,0.000546041049215639,-0.902946515849742,0.115905599776568,0.0226225387515712,-0.871107387236419,0
1.18986006968508e-05,-2.13725762074032e-06,1.31917230247823e-05,-2.78543914720678e-05,-5.98356466603861e-05,9.19070178474709e-05,9.94007338322414e-05,-4.87819775951688e-05,2.82086774923986e-05,3.14846174379472e-05,-3.09029438161491e-05,0.0015254745200387,0.000918826600932938,0.00115734899462427,0.00194962846536765,0.00258947871403234,0.00385117953610928,0.00256876412200204,0.00111632957507517,0.0031324520729864,0.00257121065331743,0.00051513810539949,-0.881161848903784,0.177908113391984,0.00195503421309899,-0.895684960201089,0
1.09618541564291e-05,-2.95470716541509e-06,1.16929651474854e-05,-3.10274062397427e-05,-6.50862214182043e-05,8.13361857164782e-05,9.91744477304582e-05,-5.10551039669864e-05,2.21564518614143e-05,2.31486570624931e-05,-5.41281831805307e-06,0.00153643637419513,0.000915871893767523,0.00116904195977175,0.0019186010591279,0.00252439249261414,0.00393251572182576,0.0026679385697325,0.00106527447110818,0.00315460852484781,0.00259435931037992,0.000509725287081437,-0.934227063259321,0.241586370618629,0.0248568635665412,-0.843736908253037,0
1.00070355657559e-05,-3.76316007710386e-06,1.01245604570727e-05,-3.40396038937167e-05,-6.97795368594573e-05,7.02684277530405e-05,9.72808454400586e-05,-4.99729019957657e-05,1.63805461173587e-05,1.46675775462269e-05,2.29026852735121e-05,0.00154644340976088,0.000912108733690419,0.00117916652022883,0.00188456145523419,0.00245461295575468,0.0040027841495788,0.00276521941517256,0.00101530156911242,0.00317098907096517,0.00260902688792615,0.000532627972354949,-0.880603267700041,0.236559139784946,0.0265326071777687,-0.832565284178187,0
9.0359547280012e-06,-4.5609286800528e-06,8.4950967708052e-06,-3.68710679423078e-05,-7.38671376388045e-05,5.87780493207443e-05,9.38433201498889e-05,-4.37246512839872e-05,1.08497000862679e-05,5.93307512448222e-06,4.88399061786894e-05,0.00155547936448888,0.000907547805010366,0.00118766161699963,0.00184769038729188,0.00238074581811587,0.00406156219889954,0.00285906273532245,0.000971576917828432,0.00318183877105144,0.00261495996305063,0.000581467878533639,-0.864404412791509,0.153889121631057,-0.0220639575478282,-0.81748359167714,0
8.0503939339535e-06,-5.34629632933914e-06,6.81328319395553e-06,-3.95006040187673e-05,-7.73036294128599e-05,4.6942513223608e-05,8.898874741979e-05,-2.98136759740565e-05,5.50927191857956e-06,-3.14475025422253e-06,6.87220445548419e-05,0.00156352975842284,0.000902201508681027,0.00119447490019359,0.00180818978327311,0.00230344218870301,0.00410850471212315,0.00294805148274224,0.000941763241854375,0.00318734804297002,0.00261181521279641,0.000650189923088481,-0.895684960201089,0.12316715542522,-0.0701019410696827,-0.835916771400642,0
7.05211203756587e-06,-6.11751133814298e-06,5.08792818006403e-06,-4.19048951536538e-05,-8.00468849418089e-05,3.48418596223627e-05,8.28430446138751e-05,-6.50154106707516e-06,2.87956408289661e-07,-1.26183605389184e-05,8.16507019665943e-05,0.0015705818704604,0.000896083997342884,0.00119956282837365,0.00176628488811946,0.00222339530376121,0.00414334657174551,0.00303089452735611,0.0009352617007873,0.00318763599937831,0.00259919685225749,0.000731840625055075,-0.919703951962016,0.0410557184750735,-0.0969138388493224,-0.851557045105432,0
6.04284803252153e-06,-6.87278027473447e-06,3.3279178500423e-06,-4.40571654167321e-05,-8.2058256872145e-05,2.25580937222719e-05,7.55299032897208e-05,2.34842733128841e-05,-4.89388197795612e-06,-2.24897345916654e-05,8.84021582287007e-05,0.00157662471849292,0.000889211217068149,0.00120289074622369,0.00172222772270273,0.00214133704688906,0.00416590466546779,0.00310642443064583,0.000958745974100184,0.00318274211740035,0.00257670711766582,0.000820242783283776,-0.916911045943304,-0.00363077782432595,-0.124284317832705,-0.857701438346599,0
5.0243242052004e-06,-7.61026058615467e-06,1.54219440655031e-06,-4.59250404972653e-05,-8.33028537788705e-05,1.01745510163523e-05,6.71709893195842e-05,5.22531745169141e-05,-1.01152852187429e-05,-3.2704820553705e-05,9.01483355629935e-05,0.00158164904269812,0.000881600956481995,0.00120443294063024,0.00167630268220546,0.00205803419311019,0.00417607921648414,0.00317359541996542,0.0010109991486171,0.00317262683218161,0.00254400229711212,0.000910391118846769,-0.911325233905879,-0.0617232230135453,-0.084066471163245,-0.856584275939114,0
3.99824893107656e-06,-8.32805248836429e-06,-2.60265442572193e-07,-4.7467077033224e-05,-8.37499802352074e-05,-2.2247503098094e-06,5.78866582176553e-05,7.35988606009326e-05,-1.54463287189936e-05,-4.31550654661161e-05,8.79078298372573e-05,0.0015856472916292,0.00087327290399363,0.00120417267518767,0.00162883560517224,0.00197428421287498,0.00417385446617433,0.00323148207818307,0.00108459800921803,0.00315718050346261,0.002500847231646,0.000998298948684026,-0.935344225666806,-0.0974724200530649,-0.0779220779220776,-0.902946515849742,0
2.96631917465857e-06,-9.02418999927028e-06,-2.07047209228829e-06,-4.86270723404169e-05,-8.33739121612912e-05,-1.45557602701961e-05,4.779670851221e-05,8.704778383874e-05,-2.09412998028319e-05,-5.36843035185376e-05,8.24628158487984e-05,0.00158861361080386,0.00086424871399436,0.00120210220309538,0.00158020853283182,0.00189091030071369,0.00415929870590413,0.00327927878669528,0.00117164579305677,0.00313623920365978,0.00244716292812746,0.00108076176453282,-0.926965507610669,-0.149979053204859,-0.0740120094958801,-0.923055439184472,0
1.93022274706713e-06,-9.69663083404571e-06,-3.87944471004205e-06,-4.93247274078047e-05,-8.21552839980902e-05,-2.67350416940865e-05,3.70209653391853e-05,9.48006381384172e-05,-2.66340815144018e-05,-6.40988696765979e-05,7.44197620960807e-05,0.00159054383355093,0.000854552083160314,0.00119822275838534,0.00153088380542402,0.0018087550167156,0.00413256366421005,0.00331629975203447,0.00126644643119519,0.00310960512214538,0.00238306405845087,0.00115518152662891,-0.928082670018154,-0.157240608853512,-0.0226225387515707,-0.924731182795699,0
8.91640370451804e-07,-1.034324454315e-05,-5.67823302689363e-06,-4.94406954709902e-05,-8.00835044475205e-05,-3.86803988641294e-05,2.56796270459696e-05,9.88629688889464e-05,-3.25359603480743e-05,-7.41791018415445e-05,6.42809604413229e-05,0.00159143547392138,0.000844208838617164,0.00119254452535845,0.00148144310995303,0.00172867151226808,0.00409388326534592,0.00334197937908044,0.00136530940008413,0.00307706916179731,0.00230888495660932,0.00121946248707023,-0.943722943722944,-0.217567378857701,-0.0175953079178883,-0.956570311409021,0
-1.47752405736928e-07,-1.09617975899223e-05,-7.45793938343648e-06,-4.87947116959825e-05,-7.71607636705159e-05,-5.03114802346619e-05,1.38933753162369e-05,0.000100457038250668,-3.86356801449017e-05,-8.36910527236205e-05,5.24953974228425e-05,0.00159128772151564,0.000833247041027242,0.00118508658597501,0.00143264839825704,0.00165151074859757,0.00404357178511126,0.00335587275439667,0.0014657664383348,0.0030384334816524,0.0022251939038857,0.00127195788449307,-0.943722943722944,-0.238793464599916,-0.0108923334729784,-0.952101661779081,0
-1.18628339493905e-06,-1.15499327373524e-05,-9.20974128546231e-06,-4.71223341619094e-05,-7.34082494026421e-05,-6.15503448998748e-05,1.78327863179515e-06,0.000100235952963463,-4.49012941118395e-05,-9.23979486969176e-05,3.94889909245647e-05,0.0015901014381207,0.00082169710828989,0.00117587684468955,0.00138552606409513,0.00157810249919492,0.00398202144021138,0.00335765603302847,0.00156600239129827,0.00299353218754056,0.00213279595518878,0.00131144687541764,-0.918028208350789,-0.230414746543779,-0.0215053763440857,-0.932551319648094,0
-2.22228203121616e-06,-1.21051375867897e-05,-1.09249148942494e-05,-4.40831935504384e-05,-6.88749352524831e-05,-7.23219818872731e-05,-1.05294706771487e-05,9.85319852556314e-05,-5.12832496759688e-05,-0.000100071532962234,2.56800666354924e-05,0.00158787915608949,0.0008095919707031,0.0011649519297953,0.0013414428705447,0.00150922756394244,0.00390969945832411,0.00334712656235132,0.0016645343765539,0.0029422489378646,0.00203272442222655,0.00133712694205313,-0.929199832425639,-0.232090490155006,0.0120094958804639,-0.963831867057674,0
-3.25407765770303e-06,-1.2624692334314e-05,-1.25948600849192e-05,-3.93973243729977e-05,-6.36484000503172e-05,-8.25547704656122e-05,-2.29239434693476e-05,9.55136663560489e-05,-5.77181530596045e-05,-0.000106503836325654,1.14852473762734e-05,0.00158462507843178,0.000796967278368786,0.00115235706971038,0.0013020455461717,0.00144557916389212,0.0038271446878585,0.00332420261888197,0.00176004804290995,0.00288453078480499,0.00192622058590089,0.0013486121894294,-0.929758413629381,-0.190755481078062,0.0159195643066613,-0.977237815947494,0
-4.27999781057119e-06,-1.31055777450342e-05,-1.42111279206351e-05,-3.32201368854913e-05,-5.7865307427758e-05,-9.21808683530347e-05,-3.52799434089404e-05,9.12737374240788e-05,-6.41327534196714e-05,-0.000111520063019134,-2.68067185745305e-06,0.00158034508062121,0.000783861700623752,0.00113814594178974,0.00126882540928621,0.00138771385646436,0.00373496381950546,0.00328892267547303,0.00185132178033403,0.00282039803138532,0.00181470052288176,0.00134593151757195,-0.938137131685519,-0.232090490155006,-0.0555788297723779,-0.951543080575339,0
-5.29836646437853e-06,-1.35443069034609e-05,-1.57654515277889e-05,-2.65122358675712e-05,-5.171675817451e-05,-0.00010113651281575,-4.74785184805971e-05,8.5876596523055e-05,-7.04478108995666e-05,-0.000114993015539065,-1.64085593234368e-05,0.00157504671415683,0.000770317393720291,0.00112238049026195,0.00124231317341864,0.00133599709828985,0.00363382730668971,0.00324144415699244,0.00193719837685708,0.00274995022048575,0.0016997075073427,0.00132952295824851,-0.913000977517106,-0.278452730065633,-0.0941209328306099,-0.924731182795699,0
-6.30750220535271e-06,-1.39366099529523e-05,-1.72497812306824e-05,-2.06771429059358e-05,-4.54423442367846e-05,-0.000109362216921418,-5.94024728646741e-05,7.93829475016473e-05,-7.65816332913539e-05,-0.000116858533735752,-2.93010478656785e-05,0.00156873921195148,0.000756380783767339,0.00110513070903127,0.0012216360305127,0.00129055475405307,0.00352446508976829,0.00318204168412776,0.00201658132435873,0.0026733685871944,0.00158284897360694,0.00130022191038283,-0.882279011311269,-0.267281105990784,-0.105851138109202,-0.907973746683424,0
-7.30571629935879e-06,-1.42768312689302e-05,-1.86563240034872e-05,-1.65879701280009e-05,-3.93089390588351e-05,-0.000116802839340384,-7.09368336964948e-05,7.18615826290642e-05,-8.24531633976085e-05,-0.000117129401883907,-4.09800489308042e-05,0.00156143349565212,0.000742103952498408,0.00108647438502779,0.0012050480603847,0.00125124581499424,0.00340766225042791,0.00311110485043127,0.00208844290698779,0.00259091542379679,0.00146571957172304,0.00125924186145203,-0.899036447423544,-0.279569892473118,-0.0969138388493224,-0.934227063259321,0
-8.29131062110317e-06,-1.45567516152539e-05,-1.99775849187658e-05,-1.42395598049152e-05,-3.35770192329051e-05,-0.00012340750068547,-8.19692184836534e-05,6.33939480947261e-05,-8.7984568420435e-05,-0.000115901670258194,-5.10952959175783e-05,0.00155314218503102,0.000727547200883155,0.00106649680010902,0.00119080850057978,0.00121766879576133,0.00328425474974244,0.00302913563194761,0.00215183685508252,0.00250293085537636,0.00134981790146484,0.00120814656553445,-0.901270772238514,-0.263371037564586,-0.086300795978215,-0.926965507610669,0
-9.26257541053249e-06,-1.47632281305723e-05,-2.12064022375332e-05,-1.31809650205396e-05,-2.84650628815991e-05,-0.000129129312041551,-9.23900326246802e-05,5.40747948592096e-05,-9.31033267393424e-05,-0.000113341584161804,-5.93340015210225e-05,0.00154387960962049,0.000712783972752582,0.00104529039787149,0.00117762753555924,0.00118920373287973,0.00315512543770089,0.00293674559932293,0.00220591164994173,0.00240982752863701,0.00123647631730304,0.00114881256401343,-0.901270772238514,-0.276776986454406,-0.088535120793185,-0.931434157240609,0
-1.02177868212987e-05,-1.48733400017747e-05,-2.23359529690507e-05,-1.29392383708422e-05,-2.41248469998645e-05,-0.000133924871816895,-0.000102092397733928,4.40108552141687e-05,-9.77438325482916e-05,-0.000109628893066423,-6.54322709482021e-05,0.00153366182279919,0.000697910632750808,0.00102295444490244,0.0011646882971884,0.00116507888587987,0.00302120056588399,0.002834653201589,0.0022499225051559,0.00231208369608872,0.00112684742423662,0.00108338029306523,-0.901829353442256,-0.284597123306801,-0.0991481636642924,-0.926406926406926,0
-1.11552042246111e-05,-1.48442601816182e-05,-2.33596681940835e-05,-1.31609998012944e-05,-2.06346579425354e-05,-0.000137753475782917,-0.000110971661627119,3.33186571437644e-05,-0.000101848551465223,-0.000104785079669605,-6.91895927075012e-05,0.00152250661857458,0.000683066372569189,0.000999594776708352,0.00115152729738711,0.00114444422793733,0.00288344709010108,0.00272368153996189,0.00228324116229966,0.0022102351446235,0.00102206234456701,0.00101419070035772,-0.895684960201089,-0.298561653400363,-0.110319787739142,-0.924172601591956,0
-1.20730672296706e-05,-1.45929749335811e-05,-2.42708944750981e-05,-1.36077715639797e-05,-1.80082830893856e-05,-0.000140575974565045,-0.000118924253838101,2.2122081305408e-05,-0.000105368765466931,-9.80441471217367e-05,-7.04884006077537e-05,0.00151043355134491,0.000668473397635608,0.000975323882233254,0.00113791952582313,0.00112643594484795,0.00274287111553603,0.00260475728612378,0.00230536324360507,0.00210486637915657,0.000924018197445273,0.000943702299749971,-0.901829353442256,-0.295768747381651,-0.10529255690546,-0.937019969278034,0
-1.296959237895e-05,-1.39652475796791e-05,-2.50618176866575e-05,-1.41209917304428e-05,-1.62120552643812e-05,-0.000142353210396559,-0.000125845496364096,1.05499637722364e-05,-0.000108264946491918,-8.44249699470616e-05,-6.93208301461018e-05,0.00149746395896596,0.000654508150055929,0.000950262064546596,0.00112379853409268,0.00111022388958356,0.00260051790513947,0.00247891178975969,0.00231591320737731,0.00199660143266465,0.000839593227498212,0.000874381469603869,-0.899595028627286,-0.282921379695573,-0.0985895824605499,-0.934785644463064,0
-1.38429694727777e-05,-1.27447245692931e-05,-2.57199813821394e-05,-1.4594006510969e-05,-1.51824172723708e-05,-0.000143043990339426,-0.000131625700599827,-1.26612162275721e-06,-0.000110506796086608,-4.17926466039801e-05,-6.58230938510718e-05,0.00148362098949318,0.000641763425486636,0.000924542083164457,0.00110920452758172,0.00109504147231119,0.00245747391480005,0.00234728608915986,0.00231464708575455,0.00188609463657804,0.000797800580894232,0.000808558375752797,-0.888981985756179,-0.289624354140483,-0.0980310012568074,-0.920262533165759,0
-1.46913574724011e-05,-1.08856591643234e-05,-2.6215123272336e-05,-1.49558514573145e-05,-1.48398563252139e-05,-0.000142602653722365,-0.00013614336731927,-1.31938542848888e-05,-0.000112072983228899,2.36331146493826e-05,-6.03122998135469e-05,0.00146892963202078,0.000630877766322313,0.000898326959892121,0.0010942486761244,0.00108020161598598,0.00231487126107768,0.00221114272184059,0.00230145323146966,0.00177402165334914,0.000821433695543614,0.000748246075939251,-0.905180840664711,-0.293534422566681,-0.104733975701717,-0.943722943722944,0
-1.55128799237039e-05,-8.87485025857055e-06,-2.64301349011233e-05,-1.51642291740001e-05,-1.50983262286674e-05,-0.000140976572814164,-0.000139253343765398,-2.51019218050841e-05,-0.000112950602264911,4.98556457516195e-05,-5.33096782369112e-05,0.00145341675209707,0.000622002916063742,0.000871896824990998,0.0010790844469504,0.00106510328975731,0.00217389468826352,0.00207188937807519,0.00227635130966458,0.00166107105108423,0.000871289341295234,0.000694936397702339,-0.891216310571149,-0.301913140622818,-0.1097612065354,-0.931992738444351,0
-1.63056198338809e-05,-7.35595985381472e-06,-2.54735687647824e-05,-1.52044477902612e-05,-1.58710099594985e-05,-0.000138104602295686,-0.000140765985783418,-3.6861538845287e-05,-0.000113134354805508,5.2304669699361e-05,-4.55217819735982e-05,0.00143711113226319,0.000614646956209927,0.000846423256226215,0.00106387999916014,0.00104923227979781,0.00203579008596783,0.00193112339229178,0.00223948977081929,0.00154793669627872,0.000923594010994595,0.000649414615728741,-0.887306242144951,-0.291858678955453,-0.119815668202765,-0.927524088814411,0
-1.70676139197381e-05,-6.46200865448213e-06,-1.65652951073038e-05,-1.5091148196935e-05,-1.70736762409092e-05,-0.000133918934294441,-0.000140410096663037,-4.83477222615091e-05,-0.000112625429152754,4.82682444606186e-05,-3.77504482559307e-05,0.00142004351834345,0.000608184947555445,0.000829857961118912,0.0010487888509632,0.0010321586035569,0.00190187115167339,0.00179071329562874,0.00219114204855778,0.00143531126712597,0.000971862255455213,0.000611664167472811,-0.892333472978634,-0.295210166177908,-0.103616813294232,-0.933668482055579,0
-1.77968461268897e-05,-5.9951393992111e-06,-4.14310730155216e-06,-1.48693552236864e-05,-1.86266324122605e-05,-0.000128355431488334,-0.000137767245736261,-5.94402933364836e-05,-0.000111430002245022,4.13969278951181e-05,-3.07288668957508e-05,0.00140224667221656,0.000602189808156234,0.000825714853817359,0.00103391949573952,0.00101353197114464,0.00177351572018506,0.00165294604989248,0.0021317017552213,0.00132388126488095,0.00101325918335033,0.00058093530057706,-0.886189079737466,-0.305264627845273,-0.124842899036447,-0.928641251221896,0
-1.84912402914114e-05,-5.76941334139896e-06,-1.81545920039457e-06,-1.46113780971366e-05,-2.04558799738704e-05,-0.000121380964935077,-0.000132161171598026,-7.00245378981341e-05,-0.000109557213293202,3.27730552719871e-05,-2.49292524153478e-05,0.00138375543192515,0.000596420394814835,0.000823899394616965,0.00101930811764238,0.000993076091170773,0.00165213475524998,0.00152078487829445,0.00206167721732316,0.00121432405158775,0.00104603223862232,0.000556006048161712,-0.889540566959921,-0.313084764697668,-0.129311548666387,-0.938137131685519,0
-1.9148651775644e-05,-5.67809367168224e-06,-1.80401260908489e-06,-1.4407435526088e-05,-2.24937631256316e-05,-0.000113047132420722,-0.000122506708701361,-7.99913783464316e-05,-0.000107016341740219,2.29507906055616e-05,-2.04182729808901e-05,0.00136460678014951,0.000590742301143153,0.00082209538200788,0.00100490068211629,0.000970582328045142,0.00153908762282926,0.00139827816959309,0.00198168583897673,0.00110730770984753,0.00106898302922788,0.000535587775180822,-0.890099148163664,-0.307498952660243,-0.117022762184052,-0.934785644463064,0
-1.97668578519252e-05,-5.6656529053464e-06,-2.08162580175408e-06,-1.43508785191381e-05,-2.46792092289267e-05,-0.000103568300166172,-0.000107265682384012,-8.92367516092773e-05,-0.00010381274427268,1.23265848661917e-05,-1.68159360475782e-05,0.00134483992229758,0.000585076648237807,0.000820013756206126,0.000990549803597156,0.000945903118816215,0.00143551932266309,0.00129101248720908,0.00189244908736745,0.00100349496557485,0.00108130961409407,0.000518771839133244,-0.893450635386119,-0.303030303030303,-0.119815668202765,-0.937578550481776,0
-2.03435465236706e-05,-5.70251707976161e-06,-2.44365612106295e-06,-1.45221076203181e-05,-2.69575663337299e-05,-9.33878041990057e-05,-8.51056677756766e-05,-9.7659522534511e-05,-9.99418360005309e-05,1.22986110333875e-06,-1.33634543552432e-05,0.00132449637577391,0.000579374131158045,0.000817570100085063,0.000976027695976838,0.000918945552482485,0.00134213151846408,0.0012059068194334,0.00179478956483294,0.000903553129574316,0.00108253947519741,0.000505408384778001,-0.885630498533724,-0.314201927105153,-0.12093283061025,-0.931992738444351,0
-2.08763033494705e-05,-5.77173101845661e-06,-2.85004783877351e-06,-1.497639596155e-05,-2.9280006510102e-05,-8.31579354468386e-05,-5.70541306783058e-05,-0.000105156353419493,-9.53800020506006e-05,-1.00494493114559e-05,-9.07974474938168e-06,0.00130362007242444,0.000573602400139588,0.000814720052246289,0.000961051300015288,0.000889665545972383,0.00125897358301724,0.0011488526887551,0.00168963321141345,0.000808173127523715,0.00107249002588595,0.000496328640028619,-0.890099148163664,-0.319787739142578,-0.119815668202765,-0.938137131685519,0
-2.13625956533758e-05,-5.86252460753919e-06,-3.28992996884733e-06,-1.57388882943308e-05,-3.1602451961388e-05,-7.35856308331415e-05,-2.82447594884766e-05,-0.000111609443311093,-9.00707815701997e-05,-2.12509595105485e-05,-3.00078937272449e-06,0.00128225747677107,0.000567739875532049,0.000811430122277442,0.000945312411720957,0.000858063094010995,0.0011853879521841,0.00112060792926662,0.00157802376810235,0.000718102345953516,0.00105123906637541,0.000493327850655894,-0.888423404552436,-0.301913140622818,-0.117581343387795,-0.929758413629381,0
-2.17997532337975e-05,-5.96719587692889e-06,-3.75953020499806e-06,-1.68065974103891e-05,-3.38839703955308e-05,-6.5214227648987e-05,-4.71152456943012e-06,-0.000116855236250709,-8.39041166430934e-05,-3.21392735905216e-05,5.49816673162042e-06,0.00126045772353727,0.00056177267965512,0.000807670592072444,0.000928505814310568,0.000824179123615464,0.00112017372453511,0.00111589640469719,0.00146116853185165,0.000634198229310422,0.00101909979278488,0.000498826017387515,-0.886189079737467,-0.305264627845273,-0.128752967462645,-0.925848345203184,0
-2.21849442785139e-05,-6.07955533869764e-06,-4.25665357252608e-06,-1.8154695199009e-05,-3.60845581502882e-05,-5.82908445356251e-05,1.14006375130471e-05,-0.000120593813354191,-7.6686729532282e-05,-4.25005088995505e-05,1.63716377342134e-05,0.00123827277925876,0.000555693124316423,0.000803413938499918,0.000910351119111559,0.000788094565465176,0.00106188287999949,0.00112729704221024,0.00134057471849746,0.00055751149977814,0.000976599283885334,0.000515197655121728,-0.876134618070102,-0.3292836196062,-0.136014523111297,-0.919145370758274,0
-2.25151445822527e-05,-6.1941203193239e-06,-4.77898469080349e-06,-1.97438826508766e-05,-3.81621633560116e-05,-5.27855525146511e-05,2.14059234471828e-05,-0.000122073840883774,-6.81061547736508e-05,-5.21368553537033e-05,2.87676461852025e-05,0.0012157576346765,0.000549499003997099,0.000798634953809114,0.000890607236460682,0.000749932402109165,0.00100909732748484,0.00114870296565742,0.00121850087761368,0.000489405345004489,0.000924462428531631,0.000543965301306931,-0.877251780477587,-0.313084764697668,-0.132663035888842,-0.918028208350789,0
-2.27870972310943e-05,-6.30568029623066e-06,-5.32356317654815e-06,-2.15264898936661e-05,-4.00686652459809e-05,-4.8494430910725e-05,2.73203771480896e-05,-0.000118721626874883,-5.77108676721798e-05,-6.0853115252874e-05,4.12696948746027e-05,0.00119297053744541,0.000543193323700868,0.000793311390632566,0.000869080746567016,0.000709863736863184,0.000960602896574111,0.00117602334280551,0.0010997792507388,0.00043169447733231,0.000863609313278757,0.000585234996181533,-0.882279011311269,-0.316436251920123,-0.122608574221477,-0.923055439184471,0
-2.29972584774437e-05,-6.40905183285038e-06,-5.88669030493472e-06,-2.34499495378336e-05,-4.17442607019054e-05,-4.51291651555287e-05,3.06188516146038e-05,-0.000100393393956962,-4.49901626785913e-05,-6.84134864928611e-05,5.24081499731227e-05,0.00116997327896796,0.000536784271868018,0.000787424700327632,0.000845630797029182,0.000668119476161278,0.000915473731418582,0.00120664219442011,0.000999385856781836,0.000386704314653718,0.000795195826785896,0.000637643146154656,-0.891774891774891,-0.311967602290183,-0.117581343387795,-0.930875576036866,0
-2.31417232709823e-05,-6.49893534504563e-06,-6.46400562720863e-06,-2.54562254646215e-05,-4.31091935905791e-05,-4.23440596993461e-05,3.21789789805317e-05,-5.4648716553884e-05,-2.97372302790857e-05,-7.43566143006518e-05,6.10874981824055e-05,0.00114683155569698,0.000530285336522972,0.000780960694700423,0.000820174571564561,0.000625010282570699,0.000873129671719236,0.00123882117340065,0.000944737140227952,0.000356967084374633,0.000720839212485244,0.000698730644337062,-0.883396173718754,-0.311409021086441,-0.114788437369082,-0.924731182795699,0
-2.3216120314067e-05,-6.56983287640792e-06,-7.05062348089981e-06,-2.74722635173829e-05,-4.40507289242408e-05,-3.96792229094336e-05,3.24923926537731e-05,-1.82460526348255e-05,-1.27489710014562e-05,-7.67434413591343e-05,6.67135264210875e-05,0.00112361543538292,0.000523715503646564,0.000773910071219523,0.000792702308047178,0.000580959553646459,0.000833450448809803,0.00127131356605442,0.000926491087593127,0.000344218113373176,0.00064409577112611,0.000765444170758149,-0.882837592515011,-0.294651584974166,-0.106409719312945,-0.918586789554531,0
-2.32154606864671e-05,-6.61601152620597e-06,-7.64127748807989e-06,-2.93653992609284e-05,-4.44011219217362e-05,-3.63597185648878e-05,3.18398336231654e-05,-1.00348747832964e-05,3.90119328004871e-06,-6.08972209820563e-05,6.90949930839976e-05,0.00110039997469645,0.000517099492120358,0.000766268793731443,0.00076333690878625,0.000536558431724722,0.000797090730244915,0.00130315339967758,0.00091645621280983,0.000348119306653225,0.000583198550144053,0.000834539163842147,-0.883954754922497,-0.303030303030303,-0.117022762184052,-0.923614020388214,0
-2.31339145052268e-05,-6.63151250606189e-06,-8.23044743113914e-06,-3.06521185897558e-05,-4.38977908358819e-05,-3.08028155387858e-05,3.03995961966892e-05,-1.17262017390923e-05,1.80065300505202e-05,-1.20731729527448e-05,6.82897089607806e-05,0.00107726606019122,0.000510467979614296,0.000758038346300304,0.000732684790196494,0.00049266064088884,0.000766287914706129,0.00133355299587427,0.000904730011070738,0.000366125836703745,0.000571125377191308,0.000902828872802927,-0.887864823348694,-0.300795978215333,-0.11422985616534,-0.924731182795699,0
-2.2964474119468e-05,-6.61021592475984e-06,-8.81245550832764e-06,-2.64240895831707e-05,-4.21081079370816e-05,-2.02394433711102e-05,2.83088354909027e-05,-1.56328256911584e-05,2.86366137645632e-05,7.51247313198096e-06,6.44895794340709e-05,0.00105430158607175,0.000503857763689537,0.000749225890791976,0.000706260700613323,0.000450552532951759,0.000746048471335019,0.00136186183136518,0.00088909718537958,0.000394762450468309,0.000578637850323289,0.000967318452236998,-0.888981985756179,-0.316436251920123,-0.11869850579528,-0.924731182795699,0
-2.26984355412233e-05,-6.54597760935745e-06,-9.38152379105722e-06,2.46598403277128e-06,-3.82919834747634e-05,-4.36870721788228e-06,2.56953047937053e-05,-1.96412034236652e-05,3.61140660532818e-05,6.40692486262369e-06,5.79581171586581e-05,0.00103160315053053,0.000497311786080179,0.000739844367000919,0.000708726684646094,0.000412260549476995,0.000741679764117137,0.00138755713615888,0.000869455981955914,0.00043087651652159,0.000585044775185913,0.00102527656939566,-0.891216310571149,-0.298003072196621,-0.117581343387795,-0.923055439184471,0
-2.23245851221666e-05,-6.43285471133611e-06,-9.93178309288136e-06,2.23245082509307e-05,-3.12221410315888e-05,9.05941964788898e-06,2.26907770914952e-05,-2.27685251827661e-05,4.12131396572352e-05,2.68663173086988e-06,4.9003328385303e-05,0.00100927856540836,0.000490878931368843,0.000729912583908038,0.000731051192897025,0.000381038408445407,0.000750739183765026,0.00141024791325038,0.000846687456773148,0.000472089656178826,0.000587731406916783,0.00107427989778096,-0.886747660941209,-0.295210166177908,-0.105851138109202,-0.918586789554531,0
-2.1827906659701e-05,-6.26542507546315e-06,-1.045721338032e-05,2.51004348860109e-05,-1.93532380110677e-05,1.47645862715022e-05,1.94335104626445e-05,-2.41571974444304e-05,4.46524072991902e-05,-1.1748214732688e-06,3.79684695709706e-05,0.000987450658748663,0.00048461350629338,0.000719455370527718,0.000756151627783036,0.000361685170434339,0.000765503770036528,0.00142968142371302,0.000822530259328718,0.000516742063478016,0.000586556585443514,0.00111224836735193,-0.888423404552436,-0.305823209049016,-0.117022762184052,-0.927524088814411,0
-2.11875215354942e-05,-6.03916470118206e-06,-1.09514690424084e-05,2.58410813247695e-05,-2.48300160731954e-06,1.52961468669603e-05,1.60648622252607e-05,-2.27721167073353e-05,4.69597273245428e-05,-4.64629610970649e-06,2.52301721085123e-05,0.000966263137213168,0.000478574341592198,0.00070850390148531,0.000781992709107805,0.00035920216882702,0.000780799916903488,0.00144574628593828,0.000799758142621383,0.000563701790802559,0.000581910289333808,0.00113747853946044,-0.881720430107527,-0.301913140622818,-0.11422985616534,-0.918028208350789,0
-2.03734823272215e-05,-5.75072854047443e-06,-1.14074733759369e-05,2.62352223572678e-05,1.60482883214684e-05,1.35547353269388e-05,1.27235543301318e-05,-1.74016818498743e-05,4.84866607880423e-05,-7.48038969768626e-06,1.11991990109353e-05,0.000945889654885947,0.000472823613051723,0.000697096428109373,0.000808227931465073,0.000375250457148488,0.000794354652230427,0.00145846984026841,0.000782356460771508,0.000612188451590601,0.000574429899636121,0.00114867773847138,-0.892892054182376,-0.300237397011591,-0.112554112554112,-0.928641251221896,0
-1.93421952620555e-05,-5.39758605659781e-06,-1.1816473859358e-05,2.65284773439407e-05,3.19379792021037e-05,1.0878545031791e-05,9.53979661218424e-06,-7.25391016186334e-06,4.94538086976622e-05,-9.463630012728e-06,-3.67744841412105e-06,0.000926547459623891,0.000467426026995126,0.000685279954250015,0.000834756408809014,0.000407188436350592,0.000805233197262218,0.0014680096368806,0.000775102550609645,0.000661642260288263,0.000564966269623393,0.00114500029005726,-0.879486105292556,-0.290741516547968,-0.103616813294232,-0.913559558720849,0
-1.80315370972154e-05,-4.974704241704e-06,-1.21656365385778e-05,2.68093721886252e-05,4.40565661150421e-05,7.81490289848545e-06,6.63046427549097e-06,6.64607212824729e-06,4.99919908906045e-05,-1.03131448534185e-05,-1.89123137069131e-05,0.000908515922526676,0.000462451322753422,0.000673114317711437,0.000861565780997639,0.000451245002465634,0.000813048100160703,0.00147464010115609,0.000781748622737892,0.000711634251178867,0.000554653124769975,0.00112608797635034,-0.891774891774891,-0.285155704510543,-0.0997067448680349,-0.920821114369501,0
-1.63614520758837e-05,-4.45335876485102e-06,-1.24309408360619e-05,2.7136084042601e-05,5.33747232512287e-05,4.59192719683556e-06,4.09581423673681e-06,2.08009199308651e-05,5.01731094478056e-05,-9.55068580023592e-06,-3.39687937526635e-05,0.000892154470450792,0.000457997963988571,0.000660683376875375,0.00088870186504024,0.000504619725716862,0.000817640027357539,0.00147873591539283,0.000802549542668757,0.000761807360626673,0.000545102438969739,0.00109211918259768,-0.897360703812316,-0.290182935344226,-0.101941069683005,-0.930875576036866,0
-1.42556643685892e-05,-3.49481825983293e-06,-1.25510472960102e-05,2.75618040610855e-05,6.08717210121113e-05,1.30086641270989e-06,2.01776385410301e-06,3.14863981033328e-05,5.00319390372167e-05,-6.33800147502067e-06,-4.82436540881969e-05,0.000877898806082203,0.000454503145728738,0.000648132329579365,0.000916263669101326,0.000565491446728974,0.000818940893770249,0.00148075367924693,0.00083403594077209,0.00081183929966389,0.000538764437494718,0.00104387552850948,-0.896243541404831,-0.285155704510543,-0.0963552576455799,-0.924172601591956,0
-1.17001994297017e-05,3.65615992624894e-06,-1.22934897635277e-05,2.81420263363713e-05,6.71053026994178e-05,-2.0290074924026e-06,4.59459965494258e-07,3.74352090153253e-05,4.95812719995943e-05,2.81776752094915e-07,-6.10334198606571e-05,0.000866198606652501,0.000458159305654987,0.000635838839815837,0.000944405695437697,0.000632596749428392,0.000816911886277846,0.00148121313921242,0.000871471149787415,0.000861420571663484,0.000539046214246813,0.000982842108648826,-0.887306242144951,-0.299120234604106,-0.10305823209049,-0.921379695573244,0
-8.80060737733592e-06,1.45435492889095e-05,-1.02791582479186e-05,2.89361448769232e-05,7.23767993169933e-05,-5.39147750326543e-06,-5.34338149421826e-07,3.95677243995638e-05,4.88224987005173e-05,9.33231198200666e-06,-7.14727928129905e-05,0.000857397999275165,0.000472702854943896,0.000625559681567918,0.00097334184031462,0.000704973548745385,0.000811520408774581,0.001480678801063,0.000911038874186979,0.000910243070364001,0.00054837852622882,0.000911369315835835,-0.894009216589861,-0.293534422566681,-0.104733975701717,-0.925289763999441,0
-5.7361891521346e-06,1.64154015607512e-05,-2.58909811387239e-06,3.00049213907516e-05,7.68717738502987e-05,-8.77598236977714e-06,-9.36684767134047e-07,3.94032457830761e-05,4.7753127955612e-05,1.61449058592331e-05,-7.84288419631281e-05,0.000851661810123031,0.000489118256504647,0.000622970583454046,0.00100334676170537,0.000781845322595684,0.000802744426404804,0.00147974211629587,0.000950442119970055,0.000957996198319613,0.000564523432088053,0.000832940473872707,-0.891216310571149,-0.280687054880603,-0.08965228320067,-0.920821114369501,0
-2.63116872999721e-06,1.6975418432304e-05,4.09096268271425e-06,3.14026215041071e-05,8.07207017383425e-05,-1.21432835089886e-05,-7.38380135174984e-07,3.82211497341777e-05,4.63722765584955e-05,1.73134478199239e-05,-8.03423439277043e-05,0.000849030641393033,0.000506093674936951,0.00062706154613676,0.00103474938320948,0.000862566024334026,0.000790601142895815,0.00147900373616069,0.000988663269704233,0.00100436847487811,0.000581836879907977,0.000752598129945003,-0.888981985756179,-0.294093003770423,-0.101382488479262,-0.922496857980729,0
4.84915290654498e-07,1.73849698789336e-05,5.01900385659656e-06,3.31622954889603e-05,8.40201855217155e-05,-1.54010969111469e-05,5.0945637651437e-08,3.69177048033702e-05,4.46848300586697e-05,1.39209063186284e-05,-7.50769413052327e-05,0.000849515556683688,0.000523478644815885,0.000632080549993357,0.00106791167869844,0.000946586209855742,0.000775200045984668,0.00147905468179834,0.0010255809745076,0.00104905330493678,0.000595757786226605,0.00067752118863977,-0.890657729367406,-0.292975841362938,-0.108085462924172,-0.923614020388214,0
3.60114078299051e-06,1.77037577703247e-05,4.56900935822888e-06,3.5275191621823e-05,8.68407250385384e-05,-1.83788795800561e-05,1.40021240734576e-06,3.60603875791306e-05,4.27047762009292e-05,8.152708644471e-06,-6.00993448422774e-05,0.000853116697466678,0.00054118240258621,0.000636649559351586,0.00110318687032026,0.00103342693489428,0.000756821166404612,0.00148045489420569,0.00106164136208673,0.00109175808113771,0.000603910494871076,0.000617421843797493,-0.891216310571149,-0.294093003770423,-0.10529255690546,-0.921938276776986,0
6.65614219207762e-06,1.79388082827054e-05,3.96217481178e-06,3.76713128359683e-05,8.92310037152167e-05,-2.08051734048872e-05,3.25289184406868e-06,3.59361696324002e-05,4.04581049282878e-05,1.4550647548313e-06,-3.38059617255241e-05,0.000859772839658756,0.000559121210868915,0.000640611734163366,0.00114085818315623,0.0011226579386095,0.000736015992999725,0.00148370778604976,0.00109757753171913,0.001132216186066,0.000605365559625908,0.000583615882071969,-0.886747660941209,-0.310850439882698,-0.115347018572825,-0.919703951962016,0
9.54058049758668e-06,1.80910745396803e-05,3.42378842897869e-06,4.02143913718542e-05,9.12214769059839e-05,-2.23038672277308e-05,5.52261789705448e-06,3.65726431770953e-05,3.79856271850298e-05,-5.2512905411537e-06,1.62700359865537e-06,0.000869313420156343,0.000577212285408595,0.000644035522592344,0.00118107257452808,0.00121387941551548,0.000713712125771994,0.00148923040394681,0.00113415017489623,0.00117020181325103,0.000600114269084754,0.000585242885670624,-0.891216310571149,-0.306381790252758,-0.117022762184052,-0.923614020388214,0
1.21471148441095e-05,1.81618150367451e-05,3.03236385544581e-06,4.27223916115056e-05,9.28277431922659e-05,-2.2452828232691e-05,8.09033053079532e-06,3.77655135538532e-05,3.53460682631854e-05,-1.11501731785259e-05,3.89121009076323e-05,0.000881460535000452,0.00059537410044534,0.00064706788644779,0.00122379496613959,0.00130670715870775,0.000691259297539303,0.00149732073447761,0.00117191568845008,0.00120554788151421,0.000588964095906228,0.000624154986578256,-0.885071917329981,-0.304706046641531,-0.117022762184052,-0.917469627147046,0
1.44139941720778e-05,1.8153588537028e-05,2.83518634944864e-06,4.50092728179505e-05,9.40536677081732e-05,-2.09644941733762e-05,1.08054913299002e-05,3.91441937063104e-05,3.26198214169935e-05,-1.52641804668378e-05,6.9855482146789e-05,0.00089587452917253,0.000613527688982368,0.000649903072797239,0.00126880423895754,0.00140076082641592,0.000670294803365927,0.00150812622580751,0.00121105988215639,0.0012381677029312,0.00057369991543939,0.000694010468725045,-0.883396173718754,-0.310850439882698,-0.12093283061025,-0.921938276776986,0
1.63329050142455e-05,1.80701030354389e-05,2.87090957794853e-06,4.69269558528798e-05,9.48942024718183e-05,-1.79527373680076e-05,1.34935998277253e-05,4.0275619929937e-05,2.99137762140743e-05,-1.646282291491e-05,9.0628658994705e-05,0.000912207434186776,0.000631597792017807,0.000652773982375187,0.00131573119481042,0.00149565502888774,0.000652342065997919,0.00152161982563523,0.00125133550208633,0.00126808147914528,0.00055723709252448,0.00078463912771975,-0.878927524088814,-0.309174696271471,-0.118139924591537,-0.915235302332076,0
1.79310215971568e-05,1.7915822167413e-05,3.17415306618689e-06,4.83867774490443e-05,9.53378968086731e-05,-1.40123164945661e-05,1.59706291674028e-05,4.07720653386142e-05,2.73676036377302e-05,-1.41017315263368e-05,0.000101753456801509,0.000930138455783932,0.00064951361418522,0.000655948135441374,0.00136411797225946,0.00159099292569641,0.000638329749503353,0.00153759045480264,0.00129210756742494,0.00129544908278301,0.000543135360998143,0.000886392584521259,-0.884513336126239,-0.310291858678956,-0.124842899036447,-0.919145370758274,0
1.92494497756488e-05,1.76955843066823e-05,3.77379218791747e-06,4.93564709222465e-05,9.53691186694828e-05,-9.85973692488838e-06,1.80624527263671e-05,4.03625153214842e-05,2.51616467175752e-05,-9.08771187508575e-06,0.000105332246819096,0.000949387905559581,0.000667209198491903,0.000659721927629292,0.00141347444318171,0.00168636204436589,0.000628470012578465,0.001555652907529,0.00133247008274643,0.00132061072950058,0.000534047649123058,0.000991724831340355,-0.873900293255132,-0.315319089512638,-0.122608574221477,-0.913000977517106,0
2.03294041899281e-05,1.74143068608533e-05,4.68701296002928e-06,4.98432748638601e-05,9.49700124216822e-05,-5.82098728571425e-06,1.96250642773971e-05,3.89118995417928e-05,2.35258256720823e-05,-3.64636465273005e-06,0.000103365558017553,0.000969717309749509,0.000684623505352756,0.000664408940589321,0.00146331771804557,0.00178133205678758,0.00062264902529275,0.0015752779718064,0.00137138198228822,0.00134413655517267,0.000530401284470328,0.00109509038935791,-0.887864823348694,-0.302471721826561,-0.125960061443932,-0.921379695573244,0
